#FIG 3.2  Produced by xfig version 3.2.5-alpha5
Landscape
Center
Inches
Letter  
100.00
Single
-2
1200 2
2 1 0 1 0 7 100 0 -1 0.000 0 0 -1 1 0 2
	1 1 1.00 27.18 54.37
	 5809 2883 5809 2475
2 1 0 1 0 7 100 0 -1 0.000 0 0 -1 0 0 1
	 7440 4514
2 1 0 1 0 7 100 0 -1 0.000 0 0 -1 1 0 2
	1 1 1.00 27.18 54.37
	 7440 4514 7882 4514
2 1 0 1 0 7 100 0 -1 0.000 0 0 -1 1 0 2
	1 1 1.00 44.86 89.72
	 5310 4841 4921 5118
2 2 0 1 0 7 100 0 -1 0.000 0 0 -1 0 0 5
	 5314 3220 6945 3220 6945 4850 5314 4850 5314 3220
2 1 0 1 0 7 100 0 -1 0.000 0 0 -1 0 0 2
	 5317 3215 5811 2879
2 1 0 1 0 7 100 0 -1 0.000 0 0 -1 0 0 2
	 6940 3223 7430 2890
2 1 0 1 0 7 100 0 -1 0.000 0 0 -1 0 0 2
	 6949 4843 7454 4506
2 2 1 1 0 7 100 0 -1 4.000 0 0 -1 0 0 5
	 5809 2883 7440 2883 7440 4514 5809 4514 5809 2883
2 1 0 1 0 7 100 0 -1 0.000 0 0 -1 0 0 2
	 5804 2882 7434 2882
2 1 0 1 0 7 100 0 -1 0.000 0 0 -1 0 0 2
	 7441 2905 7441 4523
2 1 1 1 0 7 100 0 -1 4.000 0 0 -1 0 0 2
	 5807 4508 5299 4856
2 2 0 1 0 7 100 0 -1 0.000 0 0 -1 0 0 5
	 1939 2883 3570 2883 3570 4514 1939 4514 1939 2883
2 1 0 1 0 7 100 0 -1 0.000 0 0 -1 1 0 2
	1 1 1.00 27.18 54.37
	 1939 2883 1939 2475
2 1 0 1 0 7 100 0 -1 0.000 0 0 -1 0 0 1
	 3570 4514
2 1 0 1 0 7 100 0 -1 0.000 0 0 -1 1 0 2
	1 1 1.00 27.18 54.37
	 3570 4514 4012 4514
3 2 0 1 0 7 100 0 -1 0.000 0 1 0 6
	1 1 1.00 45.00 90.00
	 7681 3305 7677 3346 7632 3387 7572 3395 7506 3398 7447 3398
	 0.000 -1.000 -1.000 -1.000 -1.000 0.000
4 0 0 100 0 0 5 0.0000 6 105 600 5944 2611 {\\Large $x_2$}\001
4 0 0 100 0 0 5 0.0000 6 105 600 7644 4683 {\\Large $x_1$}\001
4 0 0 100 0 0 5 0.0000 6 105 510 4936 3940 {\\Large left}\001
4 0 0 100 0 0 5 0.0000 6 90 555 7277 3895 {\\Large right}\001
4 0 0 100 0 0 5 0.0000 6 90 645 6035 4935 {\\Large bottom}\001
4 0 0 100 0 0 5 0.0000 6 90 495 6230 3036 {\\Large top}\001
4 0 0 100 0 0 5 0.0000 6 90 555 6009 4228 {\\Large front}\001
4 0 0 100 0 0 5 0.0000 6 105 600 2074 2611 {\\Large $x_1$}\001
4 0 0 100 0 0 5 0.0000 6 105 600 3774 4683 {\\Large $x_0$}\001
4 0 0 100 0 0 5 0.0000 6 90 645 2566 4662 {\\Large bottom}\001
4 0 0 100 0 0 5 0.0000 6 90 555 3631 3596 {\\Large right}\001
4 0 0 100 0 0 5 0.0000 6 105 510 1500 3596 {\\Large left}\001
4 0 0 100 0 0 5 0.0000 6 90 495 2566 2811 {\\Large top}\001
4 0 0 100 0 0 5 0.0000 6 105 600 4971 5177 {\\Large $x_0$}\001
4 0 0 100 0 0 5 0.0000 6 105 555 7609 3223 {\\Large back}\001
