#!geo

mesh
4
header
 dimension 2
 coordinate_system zr
 nodes	501
 triangles	921
 edges	1421
end header

-10 0
0 0
8 0
8 1
0 1
0 4
-10 4
-8.54532 0
-7.24934 0
-6.09476 0
-5.06614 0
-4.14975 0
-3.33333 0
-2.60599 0
-1.958 0
-1.38071 0
-0.866404 0
-0.408207 0
0 0.318207
0 0.585786
0 0.810793
0 1.20643
0 1.48566
0 1.86336
0 2.37424
0 3.06528
-1.42857 4
-2.85714 4
-4.28571 4
-5.71429 4
-7.14286 4
-8.57143 4
-10 2.66667
-10 1.33333
0.4 0
0.8 0
1.2 0
1.6 0
2 0
2.4 0
2.8 0
3.2 0
3.6 0
4 0
4.4 0
4.8 0
5.2 0
5.6 0
6 0
6.4 0
6.8 0
7.2 0
7.6 0
8 0.333333
8 0.666667
7.60878 1
7.22712 1
6.8548 1
6.49158 1
6.13724 1
5.79157 1
5.45434 1
5.12537 1
4.80443 1
4.49135 1
4.18592 1
3.88795 1
3.59728 1
3.31371 1
3.03707 1
2.7672 1
2.50393 1
2.24709 1
1.99654 1
1.75211 1
1.51366 1
1.28104 1
1.0541 1
0.832716 1
0.616744 1
0.406053 1
0.200514 1
-0.876826 0.922158
-1.00901 1.89077
-0.51586 0.489628
-0.597918 0.767244
-1.95666 2.03278
-2.84494 1.60546
-3.54982 1.91176
-4.38854 1.64771
-5.24356 2.61139
-6.49119 1.97531
-8.70226 2.591
-0.792602 2.70722
-9.04558 1.36285
-0.415621 3.22244
-0.267286 0.397323
-9.4735 0.677778
-9.37421 3.22222
-1.45157 1.16451
-0.277048 0.897807
-0.535818 1.51198
-1.38896 0.513202
-0.932225 0.445954
-0.381268 1.13188
-2.21354 0.864923
-0.176699 0.69689
-3.66684 0.998202
-2.90255 2.55073
-3.87122 2.78693
-2.94322 0.705115
-1.38572 2.71688
-2.06754 3.07568
-6.55602 0.750497
-0.98312 1.35452
-0.467486 2.06952
-0.514439 0.221738
-4.51575 0.695582
-6.43519 3.10637
-7.71988 1.38889
-5.49 1.08938
-7.51047 2.8436
-1.75302 0.635658
0.577296 0.531849
0.787565 0.56887
0.994973 0.448978
1.42815 0.454167
0.334487 0.541897
1.20423 0.577607
1.66581 0.586111
2.38082 0.59375
2.0412 0.466431
3.07048 0.639583
2.77857 0.470826
3.30918 0.583623
3.51233 0.456239
5.04607 0.381616
4.04017 0.648748
4.38815 0.439045
4.72517 0.439893
6.68568 0.686458
6.90462 0.365319
5.71359 0.613488
7.49683 0.390437
6.10272 0.406896
7.19404 0.548977
7.71733 0.694072
0.255166 0.783155
0.199288 0.286378
7.81522 0.356666
0.100176 0.794509
0.483561 0.771141
0.965624 0.742208
1.42546 0.745412
2.14125 0.759234
1.87098 0.759499
2.84105 0.761435
2.61516 0.76213
3.46687 0.753439
3.71731 0.692896
4.37359 0.773348
0.711618 0.769944
1.18609 0.813046
1.6456 0.818205
4.61068 0.732378
4.95343 0.730101
1.00794 0.194796
1.42079 0.195833
0.774271 0.332416
1.71906 0.271109
1.20935 0.311897
0.511455 0.285819
5.76169 0.267622
2.37765 0.823023
5.37925 0.30602
5.3148 0.684288
2.40486 0.322212
1.98142 0.235414
2.66316 0.198151
2.16543 0.204116
4.57532 0.21773
6.25753 0.179483
3.20767 0.325159
5.10633 0.171909
4.03505 0.249429
2.93237 0.197717
3.78195 0.408783
3.2498 0.785341
6.49872 0.345406
7.44882 0.726697
6.98407 0.704084
6.3372 0.696183
5.56329 0.821471
6.01646 0.743313
-0.136069 0.106069
-5.08119 3.53713
-9.24928 2.20684
-9.68186 1.78762
-0.13854 2.88732
-0.878931 3.30989
-0.402741 2.76797
-0.225164 0.23851
-0.0890952 0.433772
-9.3396 0.225926
-9.50636 1.12465
-9.8245 0.67037
-9.02146 0.680209
-9.31521 3.74074
-9.35882 2.82663
-9.7914 3.2963
-8.88263 3.27107
-0.13854 3.42924
-0.614731 3.74081
-1.47241 1.69602
-0.0923493 1.03475
-0.463609 0.718226
-0.178606 1.62033
-1.57589 0.171067
-1.23912 0.866622
-0.682001 0.567609
-3.71664 0.332734
-4.50111 2.34867
-3.93653 2.11547
-4.46683 3.13277
-2.96085 0.235038
-2.66723 1.0585
-2.58758 0.523346
-1.06244 2.43829
-1.45046 2.21348
-1.2023 3.14137
-2.11775 3.69189
-6.63337 0.250166
-1.10384 1.14706
-0.842649 1.58576
-1.1479 1.46993
-0.798588 1.26289
-0.670771 1.82409
-0.756365 2.2225
-0.334434 1.81495
-4.57721 0.231861
-6.43078 3.70212
-7.83818 0.462963
-5.5503 0.363127
-7.74158 3.61453
-0.632234 0.237122
-1.23397 0.319719
-1.066 0.627105
-0.305695 1.37651
-0.597971 1.18867
-0.127089 1.27466
-5.79768 3.23925
-1.62728 3.26419
-1.80331 2.60845
-7.02951 3.31666
-6.81228 2.64176
-7.17508 0.713128
-6.92236 1.37157
-1.05978 0.148651
-0.771496 0.311861
-3.31446 0.567772
-3.15167 1.10293
-2.60908 3.2088
-0.802323 0.711785
-0.618671 0.940427
-0.323202 0.694775
-0.219439 1.07871
-0.418745 0.932311
-2.25918 0.288308
-1.87393 1.35407
-5.02396 0.594987
-5.0407 1.78282
-4.7981 1.14422
-4.11078 0.564595
-3.8684 1.51922
-4.19038 1.11383
-3.35387 1.50514
-3.09911 2.02265
-6.04692 0.613292
-6.17907 1.27173
-6.05665 2.56436
-5.74158 1.89203
-8.43692 0.917246
-8.48924 1.78091
-2.33838 1.50106
-2.56805 2.06299
-2.30892 2.55306
-0.59635 0.0739126
-0.396644 0.206354
-1.69999 0.382953
-1.80604 0.888362
-1.53118 0.771122
-1.97486 0.500194
-0.0588997 0.697823
-0.155829 2.10237
-0.420029 2.38366
-8.26139 3.14486
-0.147995 0.56
-0.432528 0.369563
-0.319948 0.527947
-3.67136 3.59564
-3.21031 3.11255
-3.4412 2.41647
-7.97754 2.27449
-7.24051 2.06927
-0.0923493 0.902867
-0.151249 0.80183
0.0668379 0.936931
4.03801 0.882916
4.85708 0.273837
6.96821 0.121773
7.43228 0.130146
7.09955 0.304765
7.29695 0.313138
0.287244 0.927718
0.196551 0.636946
0.0664292 0.39679
0.177925 0.471354
7.84418 0.572468
7.93841 0.452222
0.033392 0.730363
0.185285 0.859221
0.10023 0.868434
0.118447 0.72115
0.0664292 0.201528
0.199763 0.0954592
7.80507 0.118889
7.93841 0.23
0.502119 0.923714
0.465114 0.614962
0.950814 0.914069
1.50647 0.59523
2.12829 0.919745
2.88177 0.920478
3.45929 0.917813
3.73418 0.897632
4.35028 0.924449
0.720359 0.923315
1.17374 0.937682
1.63712 0.939402
4.63549 0.910793
4.96108 0.910034
4.90822 0.517203
1.00265 0.0649319
1.40693 0.0652778
5.78723 0.0892073
2.37622 0.941008
5.39308 0.102007
4.59177 0.0725767
4.45449 0.218925
6.21918 0.0598277
6.12009 0.19546
5.03544 0.057303
4.98413 0.184508
3.63143 0.288341
3.2002 0.928447
3.11912 0.808308
6.56624 0.115135
1.57995 0.155647
1.60434 0.437129
1.52267 0.307036
1.1391 0.168898
1.13618 0.446161
1.07075 0.318557
0.713044 0.477712
3.19578 0.516122
0.860738 0.175737
0.925729 0.325396
1.27671 0.169243
1.35276 0.320632
1.77302 0.0903696
1.90016 0.168841
3.33589 0.108386
3.87835 0.0831431
3.80567 0.219404
3.20982 0.669516
1.75623 0.859235
2.49891 0.861717
4.78952 0.820826
4.7631 0.634124
3.59382 0.815445
3.5655 0.634192
0.370248 0.190732
0.34841 0.371364
0.474412 0.453188
0.603974 0.847028
0.590825 0.690978
0.69216 0.623554
1.52824 0.854539
1.57896 0.716576
1.06861 0.851751
1.05494 0.589598
1.11865 0.710954
1.72747 0.721272
1.40672 0.915137
1.29753 0.852819
0.836653 0.837384
1.87321 0.919833
2.00292 0.839578
2.01781 0.661721
2.45788 0.726301
1.28058 0.44789
1.35261 0.592395
1.27193 0.712022
2.25533 0.860752
2.29991 0.725335
2.62876 0.92071
2.74114 0.841188
2.74493 0.664797
0.916054 0.586685
0.85227 0.450088
0.821602 0.693674
2.98287 0.80034
3.34346 0.84626
3.34195 0.707468
3.42946 0.597767
4.19989 0.807365
4.49187 0.835242
4.45747 0.648257
5.29817 0.894763
5.1312 0.804796
5.10477 0.598668
5.95481 0.224839
5.85933 0.429335
4.70016 0.219208
4.56288 0.365556
4.57467 0.537105
4.15446 0.445741
4.2673 0.62038
3.01891 0.478523
2.8967 0.623948
2.59152 0.608902
2.61553 0.330397
2.52142 0.462263
2.27563 0.460798
2.18776 0.606471
1.85933 0.604014
1.91389 0.324318
1.80869 0.441217
2.97746 0.0659056
3.11335 0.174292
2.97287 0.331234
2.18848 0.0680386
2.32343 0.175443
2.20383 0.33092
0.570485 0.095273
0.695242 0.206078
0.621007 0.383361
7.42824 0.908899
7.37989 0.55537
7.28999 0.758558
6.50482 0.794213
5.60307 0.94049
5.53056 0.706416
5.68948 0.811653
5.44415 0.835253
7.022 0.901361
7.13508 0.75102
7.02757 0.53946
6.32201 0.898728
6.84152 0.796847
6.85812 0.585287
7.63735 0.249034
7.67646 0.480392
5.58031 0.191214
5.61818 0.39571
5.22853 0.15931
5.46921 0.534599
5.24671 0.457308
5.17722 0.286515
0.381593 0.851432
0.357738 0.698731
3.88181 0.780548
7.90578 0.786913
7.77537 0.898024
7.59164 0.806923
7.55433 0.603736
6.73445 0.236908
6.69634 0.465727
3.95239 0.435654
3.84648 0.583476
3.67053 0.519306
6.38542 0.174963
6.5072 0.576015
6.28633 0.310595
6.31288 0.482828
6.15213 0.615464
6.16363 0.813165
6.67735 0.895486
3.44 0.260466
3.34306 0.455007
5.98176 0.914438
5.84054 0.785601
5.94426 0.587899
4.14502 0.0831431
4.2744 0.229491
2.04895 0.14651
2.06269 0.301987
2.79851 0.131956
2.79136 0.288898
2.62105 0.0660504
2.48934 0.173454

t	17 1 194
t	1 18 194
t	18 17 194
t	28 29 195
t	29 90 195
t	90 28 195
t	94 92 196
t	92 32 196
t	32 94 196
t	32 33 197
t	33 94 197
t	94 32 197
t	24 25 198
t	25 95 198
t	95 24 198
t	26 93 199
t	93 95 199
t	95 26 199
t	95 93 200
t	93 24 200
t	24 95 200
t	17 18 201
t	18 96 201
t	96 17 201
t	96 18 202
t	18 19 202
t	19 96 202
t	97 0 203
t	0 7 203
t	7 97 203
t	97 94 204
t	94 33 204
t	33 97 204
t	33 0 205
t	0 97 205
t	97 33 205
t	7 94 206
t	94 97 206
t	97 7 206
t	31 6 207
t	6 98 207
t	98 31 207
t	32 92 208
t	92 98 208
t	98 32 208
t	98 6 209
t	6 32 209
t	32 98 209
t	98 92 210
t	92 31 210
t	31 98 210
t	25 5 211
t	5 95 211
t	95 25 211
t	95 5 212
t	5 26 212
t	26 95 212
t	83 86 213
t	86 99 213
t	99 83 213
t	100 4 214
t	4 21 214
t	21 100 214
t	100 85 215
t	85 84 215
t	84 100 215
t	101 22 216
t	22 23 216
t	23 101 216
t	14 15 217
t	15 102 217
t	102 14 217
t	82 99 218
t	99 102 218
t	102 82 218
t	103 84 219
t	84 85 219
t	85 103 219
t	107 11 220
t	11 12 220
t	12 107 220
t	109 90 221
t	90 89 221
t	89 109 221
t	89 88 222
t	88 109 222
t	109 89 222
t	28 90 223
t	90 109 223
t	109 28 223
t	110 12 224
t	12 13 224
t	13 110 224
t	110 105 225
t	105 87 225
t	87 110 225
t	13 105 226
t	105 110 226
t	110 13 226
t	83 93 227
t	93 111 227
t	111 83 227
t	111 86 228
t	86 83 228
t	83 111 228
t	111 93 229
t	93 26 229
t	26 111 229
t	26 27 230
t	27 112 230
t	112 26 230
t	113 8 231
t	8 9 231
t	9 113 231
t	114 99 232
t	99 82 232
t	82 114 232
t	114 101 233
t	101 83 233
t	83 114 233
t	83 99 234
t	99 114 234
t	114 83 234
t	82 101 235
t	101 114 235
t	114 82 235
t	83 101 236
t	101 115 236
t	115 83 236
t	115 93 237
t	93 83 237
t	83 115 237
t	115 101 238
t	101 23 238
t	23 115 238
t	10 11 239
t	11 117 239
t	117 10 239
t	29 30 240
t	30 118 240
t	118 29 240
t	119 7 241
t	7 8 241
t	8 119 241
t	120 9 242
t	9 10 242
t	10 120 242
t	30 31 243
t	31 121 243
t	121 30 243
t	116 84 244
t	84 16 244
t	16 116 244
t	103 102 245
t	102 15 245
t	15 103 245
t	82 102 246
t	102 103 246
t	103 82 246
t	22 101 247
t	101 104 247
t	104 22 247
t	104 101 248
t	101 82 248
t	82 104 248
t	104 21 249
t	21 22 249
t	22 104 249
t	118 90 250
t	90 29 250
t	29 118 250
t	112 111 251
t	111 26 251
t	26 112 251
t	86 111 252
t	111 112 252
t	112 86 252
t	121 118 253
t	118 30 253
t	30 121 253
t	91 118 254
t	118 121 254
t	121 91 254
t	8 113 255
t	113 119 255
t	119 8 255
t	119 113 256
t	113 91 256
t	91 119 256
t	15 16 257
t	16 103 257
t	103 15 257
t	103 16 258
t	16 84 258
t	84 103 258
t	12 110 259
t	110 107 259
t	107 12 259
t	107 110 260
t	110 87 260
t	87 107 260
t	108 112 261
t	112 27 261
t	27 108 261
t	85 82 262
t	82 103 262
t	103 85 262
t	82 85 263
t	85 104 263
t	104 82 263
t	106 100 264
t	100 84 264
t	84 106 264
t	21 104 265
t	104 100 265
t	100 21 265
t	100 104 266
t	104 85 266
t	85 100 266
t	105 13 267
t	13 14 267
t	14 105 267
t	105 99 268
t	99 86 268
t	86 105 268
t	117 120 269
t	120 10 269
t	10 117 269
t	120 89 270
t	89 90 270
t	90 120 270
t	89 120 271
t	120 117 271
t	117 89 271
t	107 117 272
t	117 11 272
t	11 107 272
t	88 89 273
t	89 107 273
t	107 88 273
t	89 117 274
t	117 107 274
t	107 89 274
t	107 87 275
t	87 88 275
t	88 107 275
t	108 88 276
t	88 87 276
t	87 108 276
t	120 113 277
t	113 9 277
t	9 120 277
t	91 113 278
t	113 120 278
t	120 91 278
t	91 90 279
t	90 118 279
t	118 91 279
t	90 91 280
t	91 120 280
t	120 90 280
t	119 94 281
t	94 7 281
t	7 119 281
t	92 94 282
t	94 119 282
t	119 92 282
t	86 87 283
t	87 105 283
t	105 86 283
t	87 86 284
t	86 108 284
t	108 87 284
t	86 112 285
t	112 108 285
t	108 86 285
t	16 17 286
t	17 116 286
t	116 16 286
t	96 116 287
t	116 17 287
t	17 96 287
t	14 102 288
t	102 122 288
t	122 14 288
t	99 105 289
t	105 122 289
t	122 99 289
t	122 102 290
t	102 99 290
t	99 122 290
t	122 105 291
t	105 14 291
t	14 122 291
t	106 19 292
t	19 20 292
t	20 106 292
t	23 24 293
t	24 115 293
t	115 23 293
t	115 24 294
t	24 93 294
t	93 115 294
t	31 92 295
t	92 121 295
t	121 31 295
t	96 19 296
t	19 106 296
t	106 96 296
t	96 84 297
t	84 116 297
t	116 96 297
t	84 96 298
t	96 106 298
t	106 84 298
t	27 28 299
t	28 109 299
t	109 27 299
t	109 108 300
t	108 27 300
t	27 109 300
t	88 108 301
t	108 109 301
t	109 88 301
t	119 121 302
t	121 92 302
t	92 119 302
t	91 121 303
t	121 119 303
t	119 91 303
t	20 4 304
t	4 100 304
t	100 20 304
t	20 100 305
t	100 106 305
t	106 20 305
t	20 81 306
t	81 4 306
t	4 20 306
t	65 66 307
t	66 137 307
t	137 65 307
t	45 136 308
t	136 139 308
t	139 45 308
t	141 50 309
t	50 51 309
t	51 141 309
t	143 51 310
t	51 52 310
t	52 143 310
t	145 141 311
t	141 51 311
t	51 145 311
t	51 143 312
t	143 145 312
t	145 51 312
t	80 81 313
t	81 147 313
t	147 80 313
t	19 127 314
t	127 147 314
t	147 19 314
t	19 18 315
t	18 148 315
t	148 19 315
t	148 127 316
t	127 19 316
t	19 148 316
t	54 146 317
t	146 149 317
t	149 54 317
t	149 53 318
t	53 54 318
t	54 149 318
t	150 20 319
t	20 19 319
t	19 150 319
t	150 147 320
t	147 81 320
t	81 150 320
t	81 20 321
t	20 150 321
t	150 81 321
t	19 147 322
t	147 150 322
t	150 19 322
t	18 1 323
t	1 148 323
t	148 18 323
t	148 1 324
t	1 34 324
t	34 148 324
t	52 2 325
t	2 149 325
t	149 52 325
t	149 2 326
t	2 53 326
t	53 149 326
t	151 79 327
t	79 80 327
t	80 151 327
t	151 127 328
t	127 123 328
t	123 151 328
t	152 77 329
t	77 78 329
t	78 152 329
t	126 129 330
t	129 153 330
t	153 126 330
t	154 72 331
t	72 73 331
t	73 154 331
t	156 69 332
t	69 70 332
t	70 156 332
t	67 68 333
t	68 158 333
t	158 67 333
t	159 66 334
t	66 67 334
t	67 159 334
t	64 65 335
t	65 160 335
t	160 64 335
t	161 78 336
t	78 79 336
t	79 161 336
t	76 77 337
t	77 162 337
t	162 76 337
t	74 75 338
t	75 163 338
t	163 74 338
t	63 64 339
t	64 164 339
t	164 63 339
t	165 62 340
t	62 63 340
t	63 165 340
t	165 139 341
t	139 136 341
t	136 165 341
t	166 35 342
t	35 36 342
t	36 166 342
t	167 36 343
t	36 37 343
t	37 167 343
t	47 48 344
t	48 172 344
t	172 47 344
t	71 72 345
t	72 173 345
t	173 71 345
t	174 46 346
t	46 47 346
t	47 174 346
t	44 45 347
t	45 180 347
t	180 44 347
t	180 138 348
t	138 44 348
t	44 180 348
t	48 49 349
t	49 181 349
t	181 48 349
t	181 144 350
t	144 48 350
t	48 181 350
t	183 45 351
t	45 46 351
t	46 183 351
t	136 45 352
t	45 183 352
t	183 136 352
t	186 135 353
t	135 42 353
t	42 186 353
t	68 69 354
t	69 187 354
t	187 68 354
t	187 69 355
t	69 132 355
t	132 187 355
t	49 50 356
t	50 188 356
t	188 49 356
t	37 169 357
t	169 167 357
t	167 37 357
t	129 126 358
t	126 169 358
t	169 129 358
t	167 169 359
t	169 126 359
t	126 167 359
t	36 170 360
t	170 166 360
t	166 36 360
t	128 125 361
t	125 170 361
t	170 128 361
t	166 170 362
t	170 125 362
t	125 166 362
t	124 123 363
t	123 168 363
t	168 124 363
t	182 134 364
t	134 132 364
t	132 182 364
t	35 166 365
t	166 168 365
t	168 35 365
t	168 166 366
t	166 125 366
t	125 168 366
t	36 167 367
t	167 170 367
t	170 36 367
t	170 167 368
t	167 126 368
t	126 170 368
t	37 38 369
t	38 169 369
t	169 37 369
t	177 169 370
t	169 38 370
t	38 177 370
t	41 42 371
t	42 182 371
t	182 41 371
t	184 42 372
t	42 43 372
t	43 184 372
t	42 184 373
t	184 186 373
t	186 42 373
t	187 132 374
t	132 134 374
t	134 187 374
t	163 155 375
t	155 74 375
t	74 163 375
t	173 157 376
t	157 71 376
t	71 173 376
t	164 165 377
t	165 63 377
t	63 164 377
t	139 165 378
t	165 164 378
t	164 139 378
t	158 159 379
t	159 67 379
t	67 158 379
t	135 159 380
t	159 158 380
t	158 135 380
t	171 148 381
t	148 34 381
t	34 171 381
t	127 148 382
t	148 171 382
t	171 127 382
t	171 123 383
t	123 127 383
t	127 171 383
t	79 151 384
t	151 161 384
t	161 79 384
t	161 151 385
t	151 123 385
t	123 161 385
t	123 124 386
t	124 161 386
t	161 123 386
t	153 163 387
t	163 75 387
t	75 153 387
t	129 163 388
t	163 153 388
t	153 129 388
t	152 162 389
t	162 77 389
t	77 152 389
t	125 128 390
t	128 152 390
t	152 125 390
t	128 162 391
t	162 152 391
t	152 128 391
t	129 155 392
t	155 163 392
t	163 129 392
t	153 75 393
t	75 76 393
t	76 153 393
t	162 153 394
t	153 76 394
t	76 162 394
t	161 152 395
t	152 78 395
t	78 161 395
t	73 74 396
t	74 155 396
t	155 73 396
t	155 154 397
t	154 73 397
t	73 155 397
t	131 154 398
t	154 155 398
t	155 131 398
t	130 157 399
t	157 173 399
t	173 130 399
t	126 128 400
t	128 170 400
t	170 126 400
t	153 128 401
t	128 126 401
t	126 153 401
t	128 153 402
t	153 162 402
t	162 128 402
t	154 173 403
t	173 72 403
t	72 154 403
t	130 173 404
t	173 154 404
t	154 130 404
t	70 71 405
t	71 157 405
t	157 70 405
t	157 156 406
t	156 70 406
t	70 157 406
t	133 156 407
t	156 157 407
t	157 133 407
t	152 124 408
t	124 125 408
t	125 152 408
t	168 125 409
t	125 124 409
t	124 168 409
t	124 152 410
t	152 161 410
t	161 124 410
t	156 132 411
t	132 69 411
t	69 156 411
t	187 158 412
t	158 68 412
t	68 187 412
t	134 158 413
t	158 187 413
t	187 134 413
t	134 135 414
t	135 158 414
t	158 134 414
t	65 137 415
t	137 160 415
t	160 65 415
t	160 164 416
t	164 64 416
t	64 160 416
t	138 164 417
t	164 160 417
t	160 138 417
t	175 61 418
t	61 62 418
t	62 175 418
t	62 165 419
t	165 175 419
t	175 62 419
t	175 165 420
t	165 136 420
t	136 175 420
t	172 48 421
t	48 144 421
t	144 172 421
t	144 142 422
t	142 172 422
t	172 144 422
t	180 45 423
t	45 139 423
t	139 180 423
t	139 138 424
t	138 180 424
t	180 139 424
t	164 138 425
t	138 139 425
t	139 164 425
t	184 138 426
t	138 137 426
t	137 184 426
t	160 137 427
t	137 138 427
t	138 160 427
t	132 133 428
t	133 182 428
t	182 132 428
t	133 132 429
t	132 156 429
t	156 133 429
t	157 130 430
t	130 133 430
t	133 157 430
t	133 176 431
t	176 178 431
t	178 133 431
t	133 130 432
t	130 176 432
t	176 133 432
t	130 131 433
t	131 176 433
t	176 130 433
t	131 130 434
t	130 154 434
t	154 131 434
t	155 129 435
t	129 131 435
t	131 155 435
t	131 169 436
t	169 177 436
t	177 131 436
t	131 129 437
t	129 169 437
t	169 131 437
t	185 40 438
t	40 41 438
t	41 185 438
t	41 182 439
t	182 185 439
t	185 41 439
t	185 182 440
t	182 133 440
t	133 185 440
t	179 38 441
t	38 39 441
t	39 179 441
t	39 176 442
t	176 179 442
t	179 39 442
t	179 176 443
t	176 131 443
t	131 179 443
t	171 34 444
t	34 35 444
t	35 171 444
t	35 168 445
t	168 171 445
t	171 35 445
t	171 168 446
t	168 123 446
t	123 171 446
t	189 55 447
t	55 56 447
t	56 189 447
t	189 145 448
t	145 143 448
t	143 189 448
t	56 145 449
t	145 189 449
t	189 56 449
t	191 140 450
t	140 58 450
t	58 191 450
t	192 60 451
t	60 61 451
t	61 192 451
t	192 175 452
t	175 142 452
t	142 192 452
t	142 60 453
t	60 192 453
t	192 142 453
t	61 175 454
t	175 192 454
t	192 61 454
t	56 57 455
t	57 190 455
t	190 56 455
t	190 145 456
t	145 56 456
t	56 190 456
t	141 145 457
t	145 190 457
t	190 141 457
t	58 59 458
t	59 191 458
t	191 58 458
t	57 140 459
t	140 190 459
t	190 57 459
t	190 140 460
t	140 141 460
t	141 190 460
t	149 143 461
t	143 52 461
t	52 149 461
t	146 143 462
t	143 149 462
t	149 146 462
t	47 172 463
t	172 174 463
t	174 47 463
t	174 172 464
t	172 142 464
t	142 174 464
t	46 174 465
t	174 183 465
t	183 46 465
t	174 142 466
t	142 175 466
t	175 174 466
t	136 174 467
t	174 175 467
t	175 136 467
t	183 174 468
t	174 136 468
t	136 183 468
t	80 147 469
t	147 151 469
t	151 80 469
t	151 147 470
t	147 127 470
t	127 151 470
t	159 137 471
t	137 66 471
t	66 159 471
t	54 3 472
t	3 146 472
t	146 54 472
t	146 3 473
t	3 55 473
t	55 146 473
t	189 146 474
t	146 55 474
t	55 189 474
t	143 146 475
t	146 189 475
t	189 143 475
t	50 141 476
t	141 188 476
t	188 50 476
t	188 141 477
t	141 140 477
t	140 188 477
t	137 186 478
t	186 184 478
t	184 137 478
t	186 137 479
t	137 159 479
t	159 186 479
t	159 135 480
t	135 186 480
t	186 159 480
t	181 49 481
t	49 188 481
t	188 181 481
t	188 140 482
t	140 191 482
t	191 188 482
t	188 144 483
t	144 181 483
t	181 188 483
t	191 144 484
t	144 188 484
t	188 191 484
t	144 191 485
t	191 193 485
t	193 144 485
t	193 191 486
t	191 59 486
t	59 193 486
t	57 58 487
t	58 140 487
t	140 57 487
t	135 182 488
t	182 42 488
t	42 135 488
t	134 182 489
t	182 135 489
t	135 134 489
t	59 60 490
t	60 193 490
t	193 59 490
t	60 142 491
t	142 193 491
t	193 60 491
t	193 142 492
t	142 144 492
t	144 193 492
t	43 44 493
t	44 184 493
t	184 43 493
t	184 44 494
t	44 138 494
t	138 184 494
t	177 38 495
t	38 179 495
t	179 177 495
t	177 179 496
t	179 131 496
t	131 177 496
t	178 40 497
t	40 185 497
t	185 178 497
t	178 185 498
t	185 133 498
t	133 178 498
t	39 40 499
t	40 178 499
t	178 39 499
t	39 178 500
t	178 176 500
t	176 39 500

e	17 1
e	1 194
e	194 17
e	1 18
e	18 194
e	18 17
e	28 29
e	29 195
e	195 28
e	29 90
e	90 195
e	90 28
e	94 92
e	92 196
e	196 94
e	92 32
e	32 196
e	32 94
e	32 33
e	33 197
e	197 32
e	33 94
e	94 197
e	24 25
e	25 198
e	198 24
e	25 95
e	95 198
e	95 24
e	26 93
e	93 199
e	199 26
e	93 95
e	95 199
e	95 26
e	93 200
e	200 95
e	93 24
e	24 200
e	18 201
e	201 17
e	18 96
e	96 201
e	96 17
e	18 202
e	202 96
e	18 19
e	19 202
e	19 96
e	97 0
e	0 203
e	203 97
e	0 7
e	7 203
e	7 97
e	97 94
e	94 204
e	204 97
e	33 204
e	33 97
e	33 0
e	0 205
e	205 33
e	97 205
e	7 94
e	94 206
e	206 7
e	97 206
e	31 6
e	6 207
e	207 31
e	6 98
e	98 207
e	98 31
e	92 208
e	208 32
e	92 98
e	98 208
e	98 32
e	6 209
e	209 98
e	6 32
e	32 209
e	92 210
e	210 98
e	92 31
e	31 210
e	25 5
e	5 211
e	211 25
e	5 95
e	95 211
e	5 212
e	212 95
e	5 26
e	26 212
e	83 86
e	86 213
e	213 83
e	86 99
e	99 213
e	99 83
e	100 4
e	4 214
e	214 100
e	4 21
e	21 214
e	21 100
e	100 85
e	85 215
e	215 100
e	85 84
e	84 215
e	84 100
e	101 22
e	22 216
e	216 101
e	22 23
e	23 216
e	23 101
e	14 15
e	15 217
e	217 14
e	15 102
e	102 217
e	102 14
e	82 99
e	99 218
e	218 82
e	99 102
e	102 218
e	102 82
e	103 84
e	84 219
e	219 103
e	85 219
e	85 103
e	107 11
e	11 220
e	220 107
e	11 12
e	12 220
e	12 107
e	109 90
e	90 221
e	221 109
e	90 89
e	89 221
e	89 109
e	89 88
e	88 222
e	222 89
e	88 109
e	109 222
e	90 223
e	223 28
e	109 223
e	109 28
e	110 12
e	12 224
e	224 110
e	12 13
e	13 224
e	13 110
e	110 105
e	105 225
e	225 110
e	105 87
e	87 225
e	87 110
e	13 105
e	105 226
e	226 13
e	110 226
e	83 93
e	93 227
e	227 83
e	93 111
e	111 227
e	111 83
e	111 86
e	86 228
e	228 111
e	83 228
e	93 229
e	229 111
e	26 229
e	26 111
e	26 27
e	27 230
e	230 26
e	27 112
e	112 230
e	112 26
e	113 8
e	8 231
e	231 113
e	8 9
e	9 231
e	9 113
e	114 99
e	99 232
e	232 114
e	82 232
e	82 114
e	114 101
e	101 233
e	233 114
e	101 83
e	83 233
e	83 114
e	99 234
e	234 83
e	114 234
e	82 101
e	101 235
e	235 82
e	114 235
e	101 236
e	236 83
e	101 115
e	115 236
e	115 83
e	115 93
e	93 237
e	237 115
e	83 237
e	101 238
e	238 115
e	23 238
e	23 115
e	10 11
e	11 239
e	239 10
e	11 117
e	117 239
e	117 10
e	29 30
e	30 240
e	240 29
e	30 118
e	118 240
e	118 29
e	119 7
e	7 241
e	241 119
e	7 8
e	8 241
e	8 119
e	120 9
e	9 242
e	242 120
e	9 10
e	10 242
e	10 120
e	30 31
e	31 243
e	243 30
e	31 121
e	121 243
e	121 30
e	116 84
e	84 244
e	244 116
e	84 16
e	16 244
e	16 116
e	103 102
e	102 245
e	245 103
e	15 245
e	15 103
e	102 246
e	246 82
e	103 246
e	103 82
e	101 247
e	247 22
e	101 104
e	104 247
e	104 22
e	101 248
e	248 104
e	82 248
e	82 104
e	104 21
e	21 249
e	249 104
e	21 22
e	22 249
e	118 90
e	90 250
e	250 118
e	29 250
e	112 111
e	111 251
e	251 112
e	26 251
e	111 252
e	252 86
e	112 252
e	112 86
e	121 118
e	118 253
e	253 121
e	30 253
e	91 118
e	118 254
e	254 91
e	121 254
e	121 91
e	113 255
e	255 8
e	113 119
e	119 255
e	113 256
e	256 119
e	113 91
e	91 256
e	91 119
e	15 16
e	16 257
e	257 15
e	16 103
e	103 257
e	16 258
e	258 103
e	84 258
e	110 259
e	259 12
e	110 107
e	107 259
e	110 260
e	260 107
e	87 260
e	87 107
e	108 112
e	112 261
e	261 108
e	27 261
e	27 108
e	85 82
e	82 262
e	262 85
e	103 262
e	85 263
e	263 82
e	85 104
e	104 263
e	106 100
e	100 264
e	264 106
e	84 264
e	84 106
e	104 265
e	265 21
e	104 100
e	100 265
e	104 266
e	266 100
e	85 266
e	13 267
e	267 105
e	13 14
e	14 267
e	14 105
e	105 99
e	99 268
e	268 105
e	86 268
e	86 105
e	117 120
e	120 269
e	269 117
e	10 269
e	120 89
e	89 270
e	270 120
e	90 270
e	90 120
e	120 271
e	271 89
e	117 271
e	117 89
e	107 117
e	117 272
e	272 107
e	11 272
e	89 273
e	273 88
e	89 107
e	107 273
e	107 88
e	117 274
e	274 89
e	107 274
e	87 275
e	275 107
e	87 88
e	88 275
e	108 88
e	88 276
e	276 108
e	87 276
e	87 108
e	120 113
e	113 277
e	277 120
e	9 277
e	113 278
e	278 91
e	120 278
e	120 91
e	91 90
e	90 279
e	279 91
e	118 279
e	91 280
e	280 90
e	120 280
e	119 94
e	94 281
e	281 119
e	7 281
e	94 282
e	282 92
e	119 282
e	119 92
e	86 87
e	87 283
e	283 86
e	105 283
e	86 284
e	284 87
e	86 108
e	108 284
e	112 285
e	285 86
e	108 285
e	16 17
e	17 286
e	286 16
e	17 116
e	116 286
e	96 116
e	116 287
e	287 96
e	17 287
e	102 288
e	288 14
e	102 122
e	122 288
e	122 14
e	105 289
e	289 99
e	105 122
e	122 289
e	122 99
e	102 290
e	290 122
e	99 290
e	105 291
e	291 122
e	14 291
e	106 19
e	19 292
e	292 106
e	19 20
e	20 292
e	20 106
e	23 24
e	24 293
e	293 23
e	24 115
e	115 293
e	24 294
e	294 115
e	93 294
e	92 295
e	295 31
e	92 121
e	121 295
e	19 296
e	296 96
e	106 296
e	106 96
e	96 84
e	84 297
e	297 96
e	116 297
e	96 298
e	298 84
e	106 298
e	27 28
e	28 299
e	299 27
e	109 299
e	109 27
e	109 108
e	108 300
e	300 109
e	27 300
e	108 301
e	301 88
e	109 301
e	119 121
e	121 302
e	302 119
e	92 302
e	121 303
e	303 91
e	119 303
e	20 4
e	4 304
e	304 20
e	100 304
e	100 20
e	100 305
e	305 20
e	106 305
e	20 81
e	81 306
e	306 20
e	81 4
e	4 306
e	65 66
e	66 307
e	307 65
e	66 137
e	137 307
e	137 65
e	45 136
e	136 308
e	308 45
e	136 139
e	139 308
e	139 45
e	141 50
e	50 309
e	309 141
e	50 51
e	51 309
e	51 141
e	143 51
e	51 310
e	310 143
e	51 52
e	52 310
e	52 143
e	145 141
e	141 311
e	311 145
e	51 311
e	51 145
e	143 312
e	312 51
e	143 145
e	145 312
e	80 81
e	81 313
e	313 80
e	81 147
e	147 313
e	147 80
e	19 127
e	127 314
e	314 19
e	127 147
e	147 314
e	147 19
e	18 315
e	315 19
e	18 148
e	148 315
e	148 19
e	148 127
e	127 316
e	316 148
e	19 316
e	54 146
e	146 317
e	317 54
e	146 149
e	149 317
e	149 54
e	149 53
e	53 318
e	318 149
e	53 54
e	54 318
e	150 20
e	20 319
e	319 150
e	19 319
e	19 150
e	150 147
e	147 320
e	320 150
e	81 320
e	81 150
e	20 321
e	321 81
e	150 321
e	147 322
e	322 19
e	150 322
e	1 323
e	323 18
e	1 148
e	148 323
e	1 324
e	324 148
e	1 34
e	34 324
e	34 148
e	52 2
e	2 325
e	325 52
e	2 149
e	149 325
e	149 52
e	2 326
e	326 149
e	2 53
e	53 326
e	151 79
e	79 327
e	327 151
e	79 80
e	80 327
e	80 151
e	151 127
e	127 328
e	328 151
e	127 123
e	123 328
e	123 151
e	152 77
e	77 329
e	329 152
e	77 78
e	78 329
e	78 152
e	126 129
e	129 330
e	330 126
e	129 153
e	153 330
e	153 126
e	154 72
e	72 331
e	331 154
e	72 73
e	73 331
e	73 154
e	156 69
e	69 332
e	332 156
e	69 70
e	70 332
e	70 156
e	67 68
e	68 333
e	333 67
e	68 158
e	158 333
e	158 67
e	159 66
e	66 334
e	334 159
e	66 67
e	67 334
e	67 159
e	64 65
e	65 335
e	335 64
e	65 160
e	160 335
e	160 64
e	161 78
e	78 336
e	336 161
e	78 79
e	79 336
e	79 161
e	76 77
e	77 337
e	337 76
e	77 162
e	162 337
e	162 76
e	74 75
e	75 338
e	338 74
e	75 163
e	163 338
e	163 74
e	63 64
e	64 339
e	339 63
e	64 164
e	164 339
e	164 63
e	165 62
e	62 340
e	340 165
e	62 63
e	63 340
e	63 165
e	165 139
e	139 341
e	341 165
e	136 341
e	136 165
e	166 35
e	35 342
e	342 166
e	35 36
e	36 342
e	36 166
e	167 36
e	36 343
e	343 167
e	36 37
e	37 343
e	37 167
e	47 48
e	48 344
e	344 47
e	48 172
e	172 344
e	172 47
e	71 72
e	72 345
e	345 71
e	72 173
e	173 345
e	173 71
e	174 46
e	46 346
e	346 174
e	46 47
e	47 346
e	47 174
e	44 45
e	45 347
e	347 44
e	45 180
e	180 347
e	180 44
e	180 138
e	138 348
e	348 180
e	138 44
e	44 348
e	48 49
e	49 349
e	349 48
e	49 181
e	181 349
e	181 48
e	181 144
e	144 350
e	350 181
e	144 48
e	48 350
e	183 45
e	45 351
e	351 183
e	45 46
e	46 351
e	46 183
e	45 352
e	352 136
e	183 352
e	183 136
e	186 135
e	135 353
e	353 186
e	135 42
e	42 353
e	42 186
e	68 69
e	69 354
e	354 68
e	69 187
e	187 354
e	187 68
e	69 355
e	355 187
e	69 132
e	132 355
e	132 187
e	49 50
e	50 356
e	356 49
e	50 188
e	188 356
e	188 49
e	37 169
e	169 357
e	357 37
e	169 167
e	167 357
e	126 358
e	358 129
e	126 169
e	169 358
e	169 129
e	169 359
e	359 167
e	126 359
e	126 167
e	36 170
e	170 360
e	360 36
e	170 166
e	166 360
e	128 125
e	125 361
e	361 128
e	125 170
e	170 361
e	170 128
e	170 362
e	362 166
e	125 362
e	125 166
e	124 123
e	123 363
e	363 124
e	123 168
e	168 363
e	168 124
e	182 134
e	134 364
e	364 182
e	134 132
e	132 364
e	132 182
e	166 365
e	365 35
e	166 168
e	168 365
e	168 35
e	166 366
e	366 168
e	125 366
e	125 168
e	167 367
e	367 36
e	167 170
e	170 367
e	167 368
e	368 170
e	126 368
e	126 170
e	37 38
e	38 369
e	369 37
e	38 169
e	169 369
e	177 169
e	169 370
e	370 177
e	38 370
e	38 177
e	41 42
e	42 371
e	371 41
e	42 182
e	182 371
e	182 41
e	184 42
e	42 372
e	372 184
e	42 43
e	43 372
e	43 184
e	184 373
e	373 42
e	184 186
e	186 373
e	132 374
e	374 187
e	134 374
e	134 187
e	163 155
e	155 375
e	375 163
e	155 74
e	74 375
e	173 157
e	157 376
e	376 173
e	157 71
e	71 376
e	164 165
e	165 377
e	377 164
e	63 377
e	165 378
e	378 139
e	164 378
e	164 139
e	158 159
e	159 379
e	379 158
e	67 379
e	135 159
e	159 380
e	380 135
e	158 380
e	158 135
e	171 148
e	148 381
e	381 171
e	34 381
e	34 171
e	148 382
e	382 127
e	171 382
e	171 127
e	171 123
e	123 383
e	383 171
e	127 383
e	151 384
e	384 79
e	151 161
e	161 384
e	151 385
e	385 161
e	123 385
e	123 161
e	124 386
e	386 123
e	124 161
e	161 386
e	153 163
e	163 387
e	387 153
e	75 387
e	75 153
e	129 163
e	163 388
e	388 129
e	153 388
e	152 162
e	162 389
e	389 152
e	77 389
e	128 390
e	390 125
e	128 152
e	152 390
e	152 125
e	128 162
e	162 391
e	391 128
e	152 391
e	129 155
e	155 392
e	392 129
e	163 392
e	75 393
e	393 153
e	75 76
e	76 393
e	76 153
e	162 153
e	153 394
e	394 162
e	76 394
e	161 152
e	152 395
e	395 161
e	78 395
e	73 74
e	74 396
e	396 73
e	155 396
e	155 73
e	155 154
e	154 397
e	397 155
e	73 397
e	131 154
e	154 398
e	398 131
e	155 398
e	155 131
e	130 157
e	157 399
e	399 130
e	173 399
e	173 130
e	126 128
e	128 400
e	400 126
e	170 400
e	153 128
e	128 401
e	401 153
e	126 401
e	153 402
e	402 128
e	162 402
e	154 173
e	173 403
e	403 154
e	72 403
e	173 404
e	404 130
e	154 404
e	154 130
e	70 71
e	71 405
e	405 70
e	157 405
e	157 70
e	157 156
e	156 406
e	406 157
e	70 406
e	133 156
e	156 407
e	407 133
e	157 407
e	157 133
e	152 124
e	124 408
e	408 152
e	124 125
e	125 408
e	125 409
e	409 168
e	124 409
e	152 410
e	410 124
e	161 410
e	156 132
e	132 411
e	411 156
e	69 411
e	187 158
e	158 412
e	412 187
e	68 412
e	134 158
e	158 413
e	413 134
e	187 413
e	134 135
e	135 414
e	414 134
e	158 414
e	137 415
e	415 65
e	137 160
e	160 415
e	160 164
e	164 416
e	416 160
e	64 416
e	138 164
e	164 417
e	417 138
e	160 417
e	160 138
e	175 61
e	61 418
e	418 175
e	61 62
e	62 418
e	62 175
e	165 419
e	419 62
e	165 175
e	175 419
e	165 420
e	420 175
e	136 420
e	136 175
e	48 421
e	421 172
e	144 421
e	144 172
e	144 142
e	142 422
e	422 144
e	142 172
e	172 422
e	45 423
e	423 180
e	139 423
e	139 180
e	139 138
e	138 424
e	424 139
e	180 424
e	138 425
e	425 164
e	139 425
e	184 138
e	138 426
e	426 184
e	138 137
e	137 426
e	137 184
e	137 427
e	427 160
e	138 427
e	132 133
e	133 428
e	428 132
e	133 182
e	182 428
e	132 429
e	429 133
e	156 429
e	130 430
e	430 157
e	130 133
e	133 430
e	133 176
e	176 431
e	431 133
e	176 178
e	178 431
e	178 133
e	130 432
e	432 133
e	130 176
e	176 432
e	130 131
e	131 433
e	433 130
e	131 176
e	176 433
e	130 434
e	434 131
e	154 434
e	129 435
e	435 155
e	129 131
e	131 435
e	131 169
e	169 436
e	436 131
e	177 436
e	177 131
e	129 437
e	437 131
e	169 437
e	185 40
e	40 438
e	438 185
e	40 41
e	41 438
e	41 185
e	182 439
e	439 41
e	182 185
e	185 439
e	182 440
e	440 185
e	133 440
e	133 185
e	179 38
e	38 441
e	441 179
e	38 39
e	39 441
e	39 179
e	39 176
e	176 442
e	442 39
e	176 179
e	179 442
e	176 443
e	443 179
e	131 443
e	131 179
e	34 444
e	444 171
e	34 35
e	35 444
e	35 171
e	168 445
e	445 35
e	168 171
e	171 445
e	168 446
e	446 171
e	123 446
e	189 55
e	55 447
e	447 189
e	55 56
e	56 447
e	56 189
e	189 145
e	145 448
e	448 189
e	143 448
e	143 189
e	56 145
e	145 449
e	449 56
e	189 449
e	191 140
e	140 450
e	450 191
e	140 58
e	58 450
e	58 191
e	192 60
e	60 451
e	451 192
e	60 61
e	61 451
e	61 192
e	192 175
e	175 452
e	452 192
e	175 142
e	142 452
e	142 192
e	142 60
e	60 453
e	453 142
e	192 453
e	175 454
e	454 61
e	192 454
e	56 57
e	57 455
e	455 56
e	57 190
e	190 455
e	190 56
e	190 145
e	145 456
e	456 190
e	56 456
e	145 457
e	457 141
e	190 457
e	190 141
e	58 59
e	59 458
e	458 58
e	59 191
e	191 458
e	57 140
e	140 459
e	459 57
e	140 190
e	190 459
e	140 460
e	460 190
e	140 141
e	141 460
e	149 143
e	143 461
e	461 149
e	52 461
e	146 143
e	143 462
e	462 146
e	149 462
e	172 463
e	463 47
e	172 174
e	174 463
e	172 464
e	464 174
e	142 464
e	142 174
e	174 465
e	465 46
e	174 183
e	183 465
e	142 466
e	466 174
e	175 466
e	175 174
e	136 174
e	174 467
e	467 136
e	175 467
e	174 468
e	468 183
e	136 468
e	147 469
e	469 80
e	147 151
e	151 469
e	147 470
e	470 151
e	127 470
e	159 137
e	137 471
e	471 159
e	66 471
e	54 3
e	3 472
e	472 54
e	3 146
e	146 472
e	3 473
e	473 146
e	3 55
e	55 473
e	55 146
e	189 146
e	146 474
e	474 189
e	55 474
e	146 475
e	475 143
e	189 475
e	141 476
e	476 50
e	141 188
e	188 476
e	141 477
e	477 188
e	140 477
e	140 188
e	137 186
e	186 478
e	478 137
e	184 478
e	137 479
e	479 186
e	159 479
e	159 186
e	135 480
e	480 159
e	186 480
e	49 481
e	481 181
e	188 481
e	188 181
e	140 482
e	482 188
e	191 482
e	191 188
e	188 144
e	144 483
e	483 188
e	181 483
e	191 144
e	144 484
e	484 191
e	188 484
e	191 485
e	485 144
e	191 193
e	193 485
e	193 144
e	191 486
e	486 193
e	59 486
e	59 193
e	57 58
e	58 487
e	487 57
e	140 487
e	135 182
e	182 488
e	488 135
e	42 488
e	182 489
e	489 134
e	135 489
e	59 60
e	60 490
e	490 59
e	60 193
e	193 490
e	142 491
e	491 60
e	142 193
e	193 491
e	142 492
e	492 193
e	144 492
e	43 44
e	44 493
e	493 43
e	44 184
e	184 493
e	44 494
e	494 184
e	138 494
e	38 495
e	495 177
e	179 495
e	179 177
e	179 496
e	496 177
e	131 496
e	178 40
e	40 497
e	497 178
e	185 497
e	185 178
e	185 498
e	498 178
e	133 498
e	39 40
e	40 499
e	499 39
e	178 499
e	178 39
e	178 500
e	500 39
e	176 500

domain
axis
2 1 32
52
246
197
252
231
140
161
363
120
320
439
0
612
1186
717
723
857
1172
1413
1158
867
876
1390
744
769
741
726
755
793
540
546
615

domain
downstream
2 1 3
623
588
1306

domain
wall
2 1 41
105
288
117
470
23
87
94
188
493
6
237
255
68
1313
1199
1236
1367
1250
1378
1220
1073
706
697
673
525
670
661
782
658
1016
732
652
978
691
967
685
640
682
628
558
523

domain
upstream
2 1 3
81
18
60
