#!geo

mesh
4
header
 dimension 2
 nodes 547
 quadrangles 506
 edges 1052
end header

0 0
1 0
1 1
0 1
0.1 0
0.2 0
0.3 0
0.4 0
0.5 0
0.6 0
0.7 0
0.8 0
0.9 0
1 0.1
1 0.2
1 0.3
1 0.4
1 0.5
1 0.6
1 0.7
1 0.8
1 0.9
0.9 1
0.8 1
0.7 1
0.6 1
0.5 1
0.4 1
0.3 1
0.2 1
0.1 1
0 0.9
0 0.8
0 0.7
0 0.6
0 0.5
0 0.4
0 0.3
0 0.2
0 0.1
0.88 0.76
0.571429 0.928571
0.866667 0.666667
0.15 0.15
0.0714286 0.571429
0.92 0.24
0.0666667 0.133333
0.925 0.15
0.24 0.88
0.8 0.2
0.357143 0.142857
0.928571 0.428571
0.3 0.5
0.2 0.25
0.642857 0.857143
0.8 0.75
0.225 0.075
0.666667 0.0833333
0.15 0.075
0.85 0.1
0.16 0.82
0.15 0.9
0.733333 0.133333
0.9 0.85
0.428571 0.0714286
0.9 0.5
0.2 0.5
0.266667 0.166667
0.0666667 0.333333
0.714286 0.785714
0.428571 0.928571
0.333333 0.933333
0.08 0.76
0.075 0.85
0.85 0.925
0.571429 0.0714286
0.8 0.5
0.1 0.5
0.12 0.24
0.357143 0.857143
0.0714286 0.428571
0.7 0.5
0.666667 0.933333
0.285714 0.785714
0.866667 0.333333
0.775 0.075
0.775 0.925
0.142857 0.357143
0.714286 0.214286
0.6 0.5
0.928571 0.571429
0.733333 0.866667
0.214286 0.714286
0.785714 0.285714
0.5 0.5
0.82 0.84
0.333333 0.0666667
0.142857 0.642857
0.0666667 0.666667
0.4 0.5
0.378571 0.321429
0.266667 0.333333
0.547619 0.857143
0.67619 0.690476
0.27619 0.642857
0.661905 0.428571
0.446429 0.160714
0.221429 0.571429
0.171429 0.428571
0.833333 0.416667
0.446429 0.571429
0.367857 0.232143
0.333333 0.416667
0.338095 0.571429
0.464286 0.410714
0.392857 0.642857
0.535714 0.589286
0.607143 0.642857
0.742857 0.392857
0.67619 0.309524
0.733333 0.583333
0.339286 0.714286
0.553571 0.428571
0.766667 0.666667
0.833333 0.583333
0.625 0.196429
0.607143 0.767857
0.607143 0.357143
0.452381 0.857143
0.535714 0.178571
0.392857 0.767857
0.457143 0.25
0.5 0.767857
0.571429 0.267857
0.464286 0.678571
0.283929 0.241071
0.252381 0.422619
0.517857 0.339286
0.553571 0.705357
0.05 0
0.15 0
0.25 0
0.35 0
0.45 0
0.55 0
0.65 0
0.75 0
0.85 0
0.95 0
1 0.05
1 0.15
1 0.25
1 0.35
1 0.45
1 0.55
1 0.65
1 0.75
1 0.85
1 0.95
0.95 1
0.85 1
0.75 1
0.65 1
0.55 1
0.45 1
0.35 1
0.25 1
0.15 1
0.05 1
0 0.95
0 0.85
0 0.75
0 0.65
0 0.55
0 0.45
0 0.35
0 0.25
0 0.15
0 0.05
0.7875 0.9625
0.7375 0.9625
0.05 0.95
0.0875 0.925
0.1125 0.875
0.125 0.95
0.0375 0.825
0.04 0.78
0.0775 0.805
0.22 0.94
0.175 0.95
0.195 0.89
0.155 0.86
0.1175 0.835
0.0375 0.875
0.12 0.79
0.04 0.73
0.107143 0.607143
0.104762 0.654762
0.0690476 0.619048
0.111429 0.701429
0.0733333 0.713333
0.0333333 0.633333
0.0333333 0.683333
0.209524 0.642857
0.182143 0.607143
0.24881 0.607143
0.146429 0.571429
0.260714 0.535714
0.210714 0.535714
0.25 0.5
0.0857143 0.535714
0.160714 0.535714
0.178571 0.678571
0.147143 0.737143
0.319048 0.535714
0.279762 0.571429
0.187143 0.767143
0.25 0.75
0.222857 0.802857
0.2 0.85
0.0357143 0.585714
0.27 0.94
0.298571 0.868571
0.262857 0.832857
0.321429 0.821429
0.603571 0.571429
0.666667 0.541667
0.670238 0.613095
0.660714 0.776786
0.678571 0.821429
0.625 0.8125
0.553571 0.767857
0.526786 0.736607
0.580357 0.736607
0.55 0.5
0.567857 0.544643
0.517857 0.544643
0.366071 0.678571
0.392857 0.705357
0.366071 0.741071
0.446429 0.767857
0.428571 0.723214
0.482143 0.723214
0.428571 0.660714
0.419643 0.607143
0.455357 0.625
0.580357 0.674107
0.544643 0.647321
0.571429 0.616071
0.375 0.8125
0.422619 0.8125
0.404762 0.857143
0.423214 0.535714
0.392262 0.571429
0.369048 0.535714
0.365476 0.607143
0.307143 0.607143
0.307738 0.678571
0.276786 0.714286
0.245238 0.678571
0.185714 0.464286
0.211905 0.425595
0.22619 0.46131
0.39881 0.41369
0.432143 0.455357
0.366667 0.458333
0.286667 0.906667
0.316667 0.966667
0.345238 0.895238
0.366667 0.966667
0.380952 0.930952
0.414286 0.964286
0.0357143 0.535714
0.104762 0.345238
0.107143 0.392857
0.0690476 0.380952
0.0857143 0.464286
0.05 0.5
0.0357143 0.464286
0.0357143 0.414286
0.0333333 0.366667
0.392857 0.892857
0.3125 0.75
0.339286 0.776786
0.464286 0.964286
0.5 0.928571
0.535714 0.964286
0.05 0.05
0.125 0.0375
0.108333 0.104167
0.0833333 0.0666667
0.175 0.0375
0.2125 0.0375
0.1875 0.075
0.0333333 0.116667
0.0333333 0.166667
0.0933333 0.186667
0.108333 0.141667
0.135 0.195
0.171429 0.303571
0.131429 0.298571
0.16 0.245
0.0933333 0.286667
0.0333333 0.316667
0.06 0.27
0.175 0.2
0.15 0.1125
0.1875 0.1125
0.2625 0.0375
0.279167 0.0708333
0.316667 0.0333333
0.414286 0.0357143
0.380952 0.0690476
0.366667 0.0333333
0.06 0.22
0.464286 0.0357143
0.535714 0.0357143
0.5 0.0714286
0.585714 0.0357143
0.72381 0.17381
0.669643 0.205357
0.679167 0.164881
0.392857 0.107143
0.345238 0.104762
0.3 0.116667
0.311905 0.154762
0.245833 0.120833
0.208333 0.158333
0.233333 0.291667
0.241964 0.245536
0.275298 0.287202
0.322619 0.327381
0.33125 0.28125
0.3625 0.1875
0.401786 0.151786
0.407143 0.196429
0.4125 0.241071
0.451786 0.205357
0.4375 0.116071
0.645833 0.139881
0.598214 0.133929
0.619048 0.077381
0.316667 0.458333
0.35 0.5
0.27619 0.46131
0.292857 0.419643
0.157143 0.392857
0.197619 0.389881
0.259524 0.377976
0.3 0.375
0.233333 0.208333
0.275298 0.203869
0.317262 0.199405
0.325893 0.236607
0.373214 0.276786
0.355952 0.369048
0.421429 0.366071
0.204762 0.345238
0.15 0.5
0.135714 0.464286
0.121429 0.428571
0.95 0.05
0.9625 0.175
0.9625 0.125
0.9225 0.195
0.86 0.22
0.8625 0.175
0.9125 0.075
0.96 0.22
0.8875 0.125
0.875 0.05
0.96 0.27
0.933333 0.366667
0.964286 0.414286
0.897619 0.380952
0.825 0.05
0.8125 0.0875
0.7875 0.0375
0.791667 0.116667
0.754167 0.104167
0.720833 0.0791667
0.7 0.108333
0.825 0.15
0.683333 0.0416667
0.7375 0.0375
0.766667 0.166667
0.880952 0.422619
0.85 0.375
0.771429 0.446429
0.75 0.5
0.721429 0.446429
0.788095 0.404762
0.804762 0.363095
0.82619 0.309524
0.764286 0.339286
0.816667 0.458333
0.709524 0.35119
0.702381 0.410714
0.669048 0.369048
0.680952 0.464286
0.65 0.5
0.630952 0.464286
0.482143 0.455357
0.508929 0.419643
0.526786 0.464286
0.792857 0.242857
0.75 0.25
0.757143 0.207143
0.964286 0.464286
0.95 0.5
0.914286 0.464286
0.695238 0.738095
0.721429 0.678571
0.740476 0.72619
0.852857 0.262857
0.893333 0.286667
0.866667 0.458333
0.933333 0.316667
0.964286 0.535714
0.914286 0.535714
0.964286 0.585714
0.933333 0.633333
0.897619 0.619048
0.85 0.5
0.866667 0.541667
0.816667 0.541667
0.880952 0.577381
0.85 0.625
0.8 0.625
0.816667 0.666667
0.654762 0.895238
0.688095 0.861905
0.7 0.9
0.875 0.8875
0.835 0.8825
0.86 0.845
0.776667 0.853333
0.72381 0.82619
0.767143 0.812857
0.85 0.8
0.81 0.795
0.84 0.755
0.8125 0.925
0.825 0.9625
0.757143 0.767857
0.783333 0.708333
0.704762 0.636905
0.75 0.625
0.783333 0.583333
0.716667 0.541667
0.614881 0.697917
0.641667 0.729167
0.47619 0.8125
0.52381 0.8125
0.5 0.857143
0.508929 0.691964
0.5 0.633929
0.641667 0.666667
0.577381 0.8125
0.491071 0.580357
0.473214 0.535714
0.595238 0.857143
0.833333 0.708333
0.766667 0.541667
0.553571 0.125
0.580357 0.1875
0.695238 0.261905
0.650595 0.252976
0.491071 0.375
0.535714 0.383929
0.589286 0.3125
0.62381 0.28869
0.641667 0.333333
0.634524 0.392857
0.491071 0.169643
0.496429 0.214286
0.448214 0.330357
0.417857 0.285714
0.4875 0.294643
0.514286 0.258929
0.553571 0.223214
0.607738 0.428571
0.576786 0.464286
0.45 0.5
0.730952 0.297619
0.7975 0.8825
0.754167 0.895833
0.873333 0.713333
0.89 0.805
0.488095 0.892857
0.559524 0.892857
0.633333 0.0416667
0.508929 0.116071
0.580357 0.392857
0.598214 0.232143
0.5625 0.348214
0.544643 0.303571
0.334524 0.642857
0.607143 0.892857
0.440476 0.892857
0.720833 0.929167
0.683333 0.966667
0.633333 0.966667
0.619048 0.930952
0.933333 0.683333
0.585714 0.964286
0.94 0.73
0.94 0.78
0.95 0.95
0.875 0.9625
0.95 0.825
0.925 0.9125
0.95 0.875
0.758333 0.975
0.0333333 0.966667
0.0965079 0.689841
0.0222222 0.655556
0.145238 0.595238
0.240476 0.52381
0.183333 0.866667
0.553571 0.747024
0.105556 0.0694444
0.0222222 0.144444
0.156667 0.213333
0.557143 0.0238095
0.344444 0.0222222
0.410714 0.125
0.250198 0.219246
0.128571 0.404762
0.0222222 0.344444
0.966667 0.0333333
0.87619 0.392857
0.505952 0.446429
0.87619 0.607143
0.580952 0.577381
0.5 0.827381
0.494048 0.553571
0.479762 0.196429
0.40119 0.267857
0.776111 0.877222
0.758333 0.025
0.577381 0.214286
0.346032 0.52381
0.557143 0.97619
0.915556 0.708889
0.966667 0.966667
0.966667 0.85

q	161 24 180 513
q	486 539 485 86
q	179 23 161 513
q	179 513 180 86
q	86 180 500 486
q	74 509 443 442
q	435 63 433 434
q	434 433 74 442
q	485 434 442 86
q	179 86 442 443
q	23 179 443 160
q	160 443 509 22
q	158 2 159 545
q	510 546 512 63
q	506 544 504 19
q	506 19 156 507
q	155 19 504 421
q	154 18 420 418
q	120 227 226 449
q	120 449 463 448
q	466 88 406 484
q	407 406 88 319
q	382 49 385 378
q	49 382 366 365
q	405 49 365 414
q	388 395 76 389
q	423 76 395 416
q	387 531 386 109
q	374 531 387 84
q	386 531 374 51
q	373 51 374 372
q	51 373 408 410
q	386 51 410 416
q	109 386 416 395
q	387 109 391 392
q	372 152 16 373
q	148 1 149 530
q	404 532 403 122
q	107 207 215 205
q	215 214 113 256
q	214 215 207 52
q	280 529 303 68
q	190 519 219 48
q	212 203 259 92
q	203 212 97 204
q	209 518 208 66
q	262 261 136 344
q	276 80 360 359
q	359 360 108 260
q	260 108 261 262
q	66 260 262 209
q	260 66 358 359
q	359 358 77 276
q	44 196 198 220
q	196 97 197 198
q	198 197 98 201
q	220 198 201 34
q	44 220 272 210
q	210 272 277 77
q	276 77 277 278
q	80 276 278 279
q	280 275 279 36
q	80 279 275 274
q	360 80 274 528
q	346 528 274 87
q	360 528 346 108
q	261 108 346 347
q	136 261 347 348
q	348 349 345 136
q	344 136 345 342
q	209 262 344 52
q	358 66 208 211
q	77 358 211 210
q	210 211 206 44
q	196 44 206 517
q	204 517 206 107
q	196 517 204 97
q	205 203 204 107
q	223 83 224 222
q	164 27 271 284
q	269 271 27 165
q	267 269 165 28
q	221 267 28 166
q	166 29 188 221
q	221 188 48 266
q	267 221 266 71
q	269 267 71 270
q	271 269 270 70
q	284 271 70 285
q	26 164 284 286
q	454 535 453 102
q	488 507 510 63
q	507 488 40 506
q	40 488 439 441
q	427 533 422 42
q	42 422 421 504
q	427 42 429 428
q	248 534 225 117
q	400 89 401 399
q	401 89 482 481
q	234 482 89 235
q	468 114 356 476
q	263 356 114 264
q	254 542 343 99
q	233 520 232 138
q	247 456 116 248
q	459 116 456 245
q	110 459 245 244
q	243 134 241 238
q	232 242 455 138
q	134 455 242 241
q	241 242 240 130
q	238 241 130 239
q	115 243 238 237
q	243 115 244 245
q	134 243 245 456
q	455 134 456 247
q	138 455 247 246
q	450 233 138 246
q	233 450 451 126
q	103 451 450 457
q	451 103 411 228
q	228 411 69 229
q	462 441 55 445
q	440 55 441 439
q	444 55 440 438
q	69 444 438 437
q	437 431 229 69
q	230 228 229 54
q	458 231 126 230
q	228 230 126 451
q	233 126 231 520
q	232 520 231 132
q	242 232 132 240
q	240 132 452 250
q	130 240 250 249
q	249 250 251 79
q	130 249 283 239
q	237 238 239 121
q	115 237 497 255
q	255 497 256 113
q	244 115 255 253
q	110 244 253 252
q	252 253 254 99
q	265 99 343 342
q	264 99 265 263
q	264 114 402 483
q	99 264 483 252
q	252 483 460 110
q	459 110 460 536
q	236 536 460 94
q	459 536 236 116
q	235 116 236 234
q	235 89 225 534
q	235 534 248 116
q	246 247 248 117
q	457 450 246 117
q	103 457 446 412
q	412 446 447 123
q	411 103 412 413
q	69 411 413 444
q	444 413 445 55
q	429 462 445 123
q	462 429 42 487
q	441 462 487 40
q	95 440 439 435
q	438 440 95 436
q	437 438 436 91
q	431 437 91 432
q	432 82 430 431
q	431 430 54 229
q	230 54 461 458
q	458 461 102 453
q	231 458 453 132
q	452 132 453 535
q	452 535 454 128
q	250 452 128 251
q	499 281 251 128
q	499 128 454 489
q	489 454 102 490
q	505 543 286 41
q	41 490 498 503
q	503 502 505 41
q	285 41 286 284
q	490 41 285 489
q	490 102 461 498
q	498 461 54 430
q	503 498 430 82
q	502 503 82 501
q	501 24 162 502
q	502 162 25 505
q	505 25 163 543
q	286 543 163 26
q	489 285 70 499
q	281 499 70 270
q	268 281 270 71
q	268 71 266 222
q	222 266 48 223
q	222 224 79 268
q	281 268 79 251
q	249 79 224 283
q	283 224 83 282
q	239 283 282 121
q	237 121 257 497
q	497 257 104 256
q	256 104 205 215
q	203 205 104 259
q	259 104 257 258
q	258 257 121 282
q	217 258 282 83
q	218 217 83 223
q	219 218 223 48
q	190 48 188 189
q	189 188 29 167
q	185 170 32 186
q	168 3 169 514
q	169 31 181 514
q	168 514 181 30
q	30 181 182 184
q	193 182 181 31
q	193 31 170 185
q	73 193 185 187
q	182 193 73 183
q	60 191 192 194
q	183 61 184 182
q	191 61 183 192
q	192 183 73 187
q	167 30 184 189
q	189 184 61 190
q	190 61 191 519
q	219 519 191 60
q	218 219 60 216
q	217 218 216 92
q	258 217 92 259
q	213 212 92 216
q	194 213 216 60
q	194 192 187 72
q	187 185 186 72
q	186 32 171 195
q	195 171 33 202
q	172 516 202 33
q	200 195 202 98
q	200 515 199 72
q	195 200 72 186
q	213 194 72 199
q	212 213 199 97
q	197 97 199 515
q	197 515 200 98
q	201 98 202 516
q	201 516 172 34
q	220 34 173 272
q	272 173 35 277
q	278 277 35 174
q	279 278 174 36
q	280 36 175 529
q	303 529 175 37
q	304 303 37 176
q	324 309 96 323
q	310 525 313 96
q	290 521 289 46
q	291 140 5 292
q	58 288 291 293
q	140 291 288 4
q	178 0 139 287
q	39 178 287 294
q	287 139 4 290
q	290 4 288 521
q	289 521 288 58
q	306 289 58 293
q	56 292 308 309
q	292 56 293 291
q	326 327 307 56
q	293 56 307 306
q	292 5 141 308
q	308 141 6 310
q	310 6 142 525
q	313 525 142 7
q	313 7 311 312
q	311 7 143 315
q	315 143 8 316
q	64 311 315 317
q	312 311 64 322
q	96 313 312 323
q	310 96 309 308
q	326 56 309 324
q	67 326 324 325
q	327 326 67 350
q	273 68 302 300
q	357 87 299 328
q	101 357 328 330
q	328 299 53 329
q	301 53 299 300
q	300 299 87 273
q	300 302 78 301
q	305 523 298 43
q	297 43 298 296
q	78 314 296 298
q	295 296 314 38
q	295 522 294 46
q	296 295 46 297
q	301 78 298 523
q	301 523 305 53
q	350 53 305 327
q	327 305 43 307
q	306 307 43 297
q	289 306 297 46
q	290 46 294 287
q	177 39 294 522
q	177 522 295 38
q	176 38 314 304
q	304 314 78 302
q	303 304 302 68
q	275 280 68 273
q	274 275 273 87
q	347 346 87 357
q	348 347 357 101
q	349 348 101 331
q	329 527 351 135
q	329 135 330 328
q	353 135 351 352
q	354 332 353 111
q	135 353 332 330
q	330 332 331 101
q	329 53 350 527
q	351 527 350 67
q	352 351 67 325
q	111 353 352 333
q	354 111 336 538
q	127 495 470 472
q	100 477 476 356
q	478 476 477 131
q	476 478 137 468
q	496 137 478 479
q	495 137 496 470
q	470 496 133 471
q	133 496 479 480
q	479 478 131 475
q	336 131 477 538
q	354 538 477 100
q	332 354 100 331
q	331 100 355 349
q	349 355 112 345
q	342 345 112 265
q	52 344 342 343
q	209 52 207 518
q	208 518 207 107
q	211 208 107 206
q	253 255 113 254
q	254 113 214 542
q	343 542 214 52
q	263 265 112 355
q	356 263 355 100
q	469 468 137 495
q	493 469 495 127
q	493 127 473 481
q	481 473 105 401
q	122 493 481 482
q	469 493 122 403
q	468 469 403 114
q	402 114 403 532
q	402 532 404 94
q	483 402 94 460
q	234 236 94 404
q	482 234 404 122
q	399 401 105 397
q	81 400 399 390
q	389 81 390 388
q	390 399 397 118
q	398 397 105 473
q	472 398 473 127
q	472 470 471 119
q	471 133 494 467
q	338 526 322 64
q	492 474 106 338
q	75 464 492 317
q	474 492 464 129
q	475 129 480 479
q	474 129 475 537
q	337 537 475 131
q	474 537 337 106
q	106 337 335 334
q	334 335 333 50
q	325 50 333 352
q	323 50 325 324
q	322 50 323 312
q	334 50 322 526
q	334 526 338 106
q	317 492 338 64
q	316 75 317 315
q	316 524 318 75
q	318 491 341 75
q	75 341 340 464
q	464 340 465 129
q	480 129 465 541
q	494 541 465 125
q	480 541 494 133
q	337 131 336 335
q	335 336 111 333
q	316 8 144 524
q	318 524 144 9
q	491 318 9 145
q	383 491 145 10
q	368 45 364 362
q	362 364 47 363
q	363 367 361 13
q	367 363 47 369
q	370 367 369 59
q	375 370 59 376
q	379 85 376 378
q	384 540 377 85
q	376 85 377 375
q	378 376 59 382
q	62 379 378 385
q	379 62 381 380
q	85 379 380 384
q	384 380 383 10
q	384 10 146 540
q	377 540 146 11
q	375 377 11 147
q	370 375 147 12
q	367 370 12 361
q	361 12 148 530
q	361 530 149 13
q	363 13 150 362
q	362 150 14 368
q	368 14 151 371
q	371 151 15 417
q	45 368 371 415
q	393 414 415 84
q	45 415 414 365
q	415 371 417 84
q	417 15 152 372
q	84 417 372 374
q	393 392 394 93
q	392 393 84 387
q	373 16 153 408
q	408 153 17 409
q	410 408 409 65
q	416 410 65 423
q	391 109 395 388
q	118 391 388 390
q	392 391 118 394
q	394 118 396 484
q	484 396 119 466
q	93 394 484 406
q	414 393 93 405
q	364 45 365 366
q	47 364 366 369
q	369 366 382 59
q	319 62 385 407
q	407 385 49 405
q	406 407 405 93
q	467 466 119 471
q	125 339 321 320
q	125 320 467 494
q	466 467 320 88
q	319 88 320 321
q	62 319 321 381
q	381 321 339 57
q	380 381 57 383
q	491 383 57 341
q	341 57 339 340
q	340 339 125 465
q	398 472 119 396
q	397 398 396 118
q	463 389 76 425
q	389 463 449 81
q	400 81 449 226
q	89 400 226 225
q	225 226 227 117
q	457 117 227 446
q	446 227 120 447
q	447 120 448 428
q	448 463 425 124
q	425 76 423 424
q	424 423 65 419
q	419 65 409 418
q	418 409 17 154
q	418 420 90 419
q	419 90 426 424
q	424 426 124 425
q	428 448 124 427
q	123 447 428 429
q	413 412 123 445
q	427 124 426 533
q	422 533 426 90
q	422 90 420 421
q	421 420 18 155
q	487 42 504 544
q	487 544 506 40
q	507 156 20 510
q	510 20 157 546
q	512 546 157 21
q	511 512 21 508
q	508 21 158 545
q	508 545 159 22
q	508 22 509 511
q	511 509 74 433
q	512 511 433 63
q	488 63 435 439
q	95 435 434 485
q	436 95 485 539
q	436 539 486 91
q	432 91 486 500
q	82 432 500 501
q	501 500 180 24

161 24
180 24
513 180
161 513
539 486
485 539
86 485
486 86
23 179
23 161
179 513
86 180
179 86
500 180
486 500
509 74
443 509
442 443
74 442
63 435
433 63
434 433
435 434
74 433
434 442
434 485
86 442
179 443
160 443
160 23
22 509
22 160
158 2
2 159
545 159
158 545
546 510
512 546
63 512
510 63
544 506
504 544
19 504
506 19
19 156
507 156
506 507
155 19
421 504
155 421
154 18
420 18
418 420
154 418
227 120
226 227
449 226
120 449
463 449
448 463
120 448
88 466
406 88
484 406
466 484
406 407
319 88
407 319
49 382
385 49
378 385
382 378
366 382
365 366
49 365
49 405
414 365
405 414
395 388
76 395
389 76
388 389
76 423
416 395
423 416
531 387
386 531
109 386
387 109
531 374
84 387
374 84
51 374
386 51
51 373
372 374
373 372
408 373
410 408
51 410
416 410
386 416
109 395
391 109
392 391
387 392
152 372
152 16
373 16
148 1
1 149
530 149
148 530
532 404
403 532
122 403
404 122
207 107
215 207
205 215
107 205
214 215
113 214
256 113
215 256
52 207
214 52
529 280
303 529
68 303
280 68
519 190
219 519
48 219
190 48
203 212
259 203
92 259
212 92
97 212
204 97
203 204
518 209
208 518
66 208
209 66
261 262
136 261
344 136
262 344
80 276
360 80
359 360
276 359
108 360
260 108
359 260
261 108
260 262
260 66
209 262
358 66
359 358
77 358
276 77
196 44
198 196
220 198
44 220
97 196
197 97
198 197
98 197
201 98
198 201
34 201
220 34
272 220
210 272
44 210
277 272
77 277
210 77
278 277
276 278
279 278
80 279
275 280
279 275
36 279
280 36
274 275
80 274
528 274
360 528
528 346
87 274
346 87
108 346
347 346
261 347
348 347
136 348
349 348
345 349
136 345
342 345
344 342
52 344
209 52
211 208
358 211
210 211
206 211
44 206
517 206
196 517
517 204
107 206
204 107
203 205
83 223
224 83
222 224
223 222
164 27
271 27
284 271
164 284
271 269
27 165
269 165
269 267
165 28
267 28
267 221
28 166
221 166
166 29
188 29
221 188
48 188
266 48
221 266
71 266
267 71
270 71
269 270
70 270
271 70
285 70
284 285
26 164
286 284
26 286
535 454
453 535
102 453
454 102
507 488
510 507
488 63
40 488
506 40
439 488
441 439
40 441
533 427
422 533
42 422
427 42
421 422
42 504
429 42
428 429
427 428
534 248
225 534
117 225
248 117
89 400
401 89
399 401
400 399
482 89
481 482
401 481
482 234
235 89
234 235
114 468
356 114
476 356
468 476
356 263
264 114
263 264
542 254
343 542
99 343
254 99
520 233
232 520
138 232
233 138
456 247
116 456
248 116
247 248
116 459
245 456
459 245
459 110
244 245
110 244
134 243
241 134
238 241
243 238
242 232
455 242
138 455
455 134
241 242
240 242
130 240
241 130
239 130
238 239
243 115
237 238
115 237
244 115
243 245
134 456
455 247
246 247
138 246
233 450
450 246
451 450
126 451
233 126
451 103
457 450
103 457
411 103
228 411
451 228
69 411
229 69
228 229
441 462
55 441
445 55
462 445
55 440
440 439
55 444
438 440
444 438
444 69
437 438
69 437
431 437
229 431
228 230
54 229
230 54
231 458
126 231
230 126
458 230
520 231
132 231
232 132
240 132
452 132
250 452
240 250
249 250
130 249
251 250
79 251
249 79
283 249
239 283
121 239
237 121
497 237
255 497
115 255
256 497
255 113
253 255
244 253
252 253
110 252
254 253
252 99
99 265
342 343
265 342
99 264
263 265
402 114
483 402
264 483
252 483
460 483
110 460
536 460
459 536
536 236
94 460
236 94
116 236
116 235
234 236
225 89
235 534
246 117
457 117
446 457
412 446
103 412
447 446
123 447
412 123
413 412
411 413
444 413
445 413
462 429
123 445
429 123
487 42
462 487
40 487
440 95
435 439
95 435
436 95
438 436
91 436
437 91
432 91
431 432
82 432
430 82
431 430
54 430
461 54
458 461
102 461
458 453
132 453
452 535
128 454
452 128
251 128
281 499
251 281
499 128
489 454
499 489
490 102
489 490
543 505
286 543
41 286
505 41
490 41
498 490
503 498
41 503
502 503
505 502
41 285
489 285
498 461
498 430
503 82
501 82
502 501
24 501
24 162
502 162
162 25
505 25
25 163
543 163
163 26
499 70
281 270
281 268
268 71
222 266
268 222
223 48
79 224
268 79
283 224
282 83
283 282
121 282
257 121
497 257
104 257
256 104
205 104
259 104
258 257
259 258
258 282
258 217
217 83
217 218
218 223
218 219
189 188
190 189
29 167
189 167
170 185
170 32
186 32
185 186
168 3
3 169
514 169
168 514
169 31
181 31
514 181
30 181
30 168
182 181
184 182
30 184
182 193
193 31
31 170
193 185
193 73
187 185
73 187
183 73
182 183
191 60
192 191
194 192
60 194
61 183
184 61
61 191
192 183
192 187
167 30
189 184
190 61
519 191
219 60
216 60
218 216
92 216
217 92
212 213
213 216
213 194
72 187
194 72
72 186
32 171
195 171
186 195
171 33
202 33
195 202
516 172
202 516
33 172
195 200
98 202
200 98
515 200
199 515
72 199
200 72
213 199
97 199
197 515
201 516
172 34
34 173
272 173
173 35
277 35
35 174
278 174
174 36
36 175
529 175
175 37
303 37
303 304
37 176
304 176
309 324
96 309
323 96
324 323
525 310
313 525
96 313
310 96
521 290
289 521
46 289
290 46
140 291
140 5
292 5
291 292
288 58
291 288
293 291
58 293
4 288
4 140
178 0
0 139
287 139
178 287
39 178
294 287
39 294
139 4
290 4
287 290
521 288
289 58
289 306
306 293
292 56
308 292
309 308
56 309
293 56
327 326
307 327
56 307
326 56
306 307
5 141
308 141
141 6
310 6
308 310
6 142
525 142
142 7
313 7
311 7
312 311
313 312
7 143
315 143
311 315
143 8
316 8
315 316
311 64
317 315
64 317
322 64
312 322
323 312
326 324
326 67
325 324
67 325
350 67
327 350
68 273
302 68
300 302
273 300
87 357
299 87
328 299
357 328
357 101
330 328
101 330
53 299
329 53
328 329
53 301
300 299
301 300
273 87
78 302
301 78
523 305
298 523
43 298
305 43
43 297
296 298
297 296
314 78
296 314
78 298
296 295
38 314
295 38
522 295
294 522
46 294
295 46
297 46
301 523
53 305
53 350
327 305
307 43
306 297
177 39
177 522
38 177
176 38
304 314
304 302
275 273
347 357
348 101
331 101
349 331
527 329
351 527
135 351
329 135
330 135
135 353
352 351
353 352
332 354
353 332
111 353
354 111
330 332
331 332
527 350
351 67
352 325
333 352
111 333
336 111
538 336
354 538
495 127
470 495
472 470
127 472
477 100
476 477
100 356
476 478
131 477
478 131
137 478
468 137
137 496
479 478
496 479
137 495
470 496
133 496
471 133
470 471
480 479
133 480
475 131
479 475
131 336
538 477
354 100
331 100
355 100
349 355
112 355
345 112
265 112
52 343
518 207
208 107
254 113
542 214
263 355
468 469
469 495
469 493
493 127
473 127
481 473
493 481
105 473
401 105
493 122
122 482
469 403
114 403
402 532
94 404
402 94
234 404
397 105
399 397
400 81
390 399
81 390
81 389
388 390
118 397
390 118
397 398
398 473
398 472
119 471
472 119
494 133
467 494
471 467
526 338
322 526
338 64
474 492
106 474
338 106
492 338
464 75
492 464
317 492
75 317
129 464
474 129
129 475
480 129
537 475
474 537
537 337
337 131
106 337
335 337
334 335
106 334
333 335
50 333
334 50
50 325
50 323
50 322
334 526
75 316
524 316
318 524
75 318
491 318
341 491
75 341
340 341
464 340
465 340
129 465
541 465
480 541
541 494
125 465
494 125
335 336
8 144
524 144
144 9
318 9
9 145
491 145
491 383
145 10
383 10
45 368
364 45
362 364
368 362
47 364
363 47
362 363
367 363
361 367
13 361
363 13
369 47
367 369
367 370
59 369
370 59
370 375
376 59
375 376
85 379
376 85
378 376
379 378
540 384
377 540
85 377
384 85
375 377
382 59
379 62
62 385
381 62
380 381
379 380
384 380
383 380
384 10
10 146
540 146
146 11
377 11
11 147
375 147
147 12
370 12
361 12
12 148
361 530
149 13
13 150
362 150
150 14
368 14
14 151
371 151
368 371
151 15
417 15
371 417
415 371
45 415
414 393
415 414
84 415
393 84
45 365
84 417
15 152
417 372
392 393
394 392
93 394
393 93
16 153
408 153
153 17
409 17
408 409
65 409
410 65
423 65
391 388
391 118
394 118
396 118
484 396
394 484
119 396
466 119
93 406
405 93
364 366
369 366
62 319
407 385
407 405
466 467
339 125
321 339
320 321
125 320
467 320
88 320
319 321
381 321
57 339
381 57
383 57
341 57
340 339
398 396
389 463
425 76
463 425
81 449
400 226
225 226
117 227
446 227
447 120
428 448
447 428
124 425
448 124
424 423
425 424
419 65
424 419
418 409
419 418
17 154
90 420
419 90
426 90
424 426
124 426
427 124
533 426
422 90
421 420
18 155
487 544
156 20
510 20
20 157
546 157
157 21
512 21
512 511
508 21
511 508
21 158
508 545
159 22
508 22
511 509
511 433
95 485
436 539
91 486
432 500
501 500

domain
boundary
2 1 80
631
637
629
621
654
656
659
661
666
669
881
883
885
888
927
929
931
933
936
109
110
938
939
941
943
946
957
107
963
965
1020
50
1030
47
44
1032
1034
1036
1041
32
33
1043
31
29
9
0
486
488
490
492
252
225
230
233
236
238
522
558
536
528
529
532
542
525
573
576
581
593
594
596
598
600
601
603
606
731
730
728
634
630
