#!geo

mesh
2 2 16 18 33

0 0
0 0.333333333333333
0 0.666666666666667
0 1
0.333333333333333 0
0.333333333333333 0.333333333333333
0.333333333333333 0.666666666666667
0.333333333333333 1
0.666666666666667 0
0.666666666666667 0.333333333333333
0.666666666666667 0.666666666666667
0.666666666666667 1
1 0
1 0.333333333333333
1 0.666666666666667
1 1

t	0 4 5
t	0 5 1
t	1 5 6
t	1 6 2
t	2 6 7
t	2 7 3
t	4 8 9
t	4 9 5
t	5 9 10
t	5 10 6
t	6 10 11
t	6 11 7
t	8 12 13
t	8 13 9
t	9 13 14
t	9 14 10
t	10 14 15
t	10 15 11

0 1
1 2
2 3
4 5
5 6
6 7
8 9
9 10
10 11
12 13
13 14
14 15
0 4
1 5
2 6
3 7
4 8
5 9
6 10
7 11
8 12
9 13
10 14
11 15
0 5
1 6
2 7
4 9
5 10
6 11
8 13
9 14
10 15

domain
bottom
1 1 3
0 4
4 8
8 12

domain
right
1 1 3
12 13
13 14
14 15

domain
top
1 1 3
7 3
11 7
15 11

domain
left
1 1 3
1 0
2 1
3 2

