#!geo

mesh
4
header
 dimension 2
 order     10
 nodes	2481
 quadrangles	24
 edges	56
end header

1 0
0 1
-1 0
0 -1
0.923879532511309 0.382683432365036
0.707106781187053 0.707106781186042
0.382683432364887 0.923879532511371
-0.380862804754285 0.919484148641447
-0.707106781186042 0.707106781187053
-0.919484148641474 0.380862804754177
-0.923879532511309 -0.382683432365036
-0.707106781187053 -0.707106781186042
-0.382683432364887 -0.923879532511371
0.380862804754285 -0.919484148641447
0.707106781186042 -0.707106781187053
0.919484148641474 -0.380862804754177
0.310574479174823 -0.314581762604223
-0.00099749891406353 -0.000554094288333438
-0.313668381227968 0.312505193837261
-0.576101201106556 0.185049783224966
-0.329040968710476 -0.328578160321025
-0.184998671242392 0.183287544378793
-0.505149777797869 -0.0912311104301228
0.326267508007121 0.326463504439937
0.181746067915542 -0.18531305416417
0.573276987096299 -0.186907073097425
0.503750504839915 0.0907257330134568
0.183082373157147 -0.577099710472871
0.512453923767492 -0.514543783445991
-0.186250185033332 0.57493692424376
0.0913408251611613 0.504847666000606
-0.0939655385352088 -0.506053231819021
-0.514013080335729 0.513374844085577
-0.339911663215827 0.299759652776032
-0.366154945203686 0.287014111714802
-0.392398227191544 0.274268570653573
-0.418641509179403 0.261523029592343
-0.444884791167262 0.248777488531114
-0.471128073155121 0.236031947469884
-0.49737135514298 0.223286406408655
-0.523614637130839 0.210540865347425
-0.549857919118698 0.197795324286196
-0.569006058775688 0.157421693859457
-0.561910916444819 0.129793604493948
-0.55481577411395 0.102165515128439
-0.547720631783081 0.0745374257629305
-0.540625489452212 0.0469093363974216
-0.533530347121344 0.0192812470319127
-0.526435204790475 -0.00834684233359614
-0.519340062459606 -0.0359749316991051
-0.512244920128737 -0.0636030210646139
-0.473134667142321 -0.0637792449492312
-0.441119556486773 -0.0363273794683396
-0.409104445831226 -0.00887551398744807
-0.377089335175678 0.0185763514934435
-0.34507422452013 0.0460282169743351
-0.313059113864583 0.0734800824552267
-0.281044003209035 0.100931947936118
-0.249028892553487 0.12838381341701
-0.217013781897939 0.155835678897901
-0.197865642240949 0.19620930932464
-0.210732613239507 0.209131074270487
-0.223599584238065 0.222052839216334
-0.236466555236622 0.23497460416218
-0.24933352623518 0.247896369108027
-0.262200497233737 0.260818134053874
-0.275067468232295 0.273739898999721
-0.287934439230853 0.286661663945568
-0.30080141022941 0.299583428891414
-0.618491080995901 0.166544804902469
-0.660880960885245 0.148039826579973
-0.703270840774589 0.129534848257476
-0.745660720663934 0.11102986993498
-0.788050600553278 0.092524891612483
-0.830440480442623 0.0740199132899864
-0.872830360331967 0.0555149349674898
-0.915220240221311 0.0370099566449932
-0.957610120110656 0.0185049783224966
-0.999229036240722 -0.0392598157590827
-0.996917333733127 -0.0784590957278608
-0.993068456954923 -0.117537397457868
-0.987688340595131 -0.156434465040275
-0.980785280403216 -0.195090322016203
-0.972369920397665 -0.233445363855952
-0.962455236453641 -0.271440449865096
-0.951056516295154 -0.309016994374946
-0.938191335922492 -0.346117057077472
-0.882006557039965 -0.353538200171545
-0.840133581568621 -0.324392967978054
-0.798260606097277 -0.295247735784562
-0.756387630625933 -0.266102503591071
-0.714514655154589 -0.23695727139758
-0.672641679683245 -0.207812039204088
-0.630768704211901 -0.178666807010597
-0.588895728740557 -0.149521574817106
-0.547022753269213 -0.120376342623614
-0.908143173825116 -0.418659737537352
-0.891006524188437 -0.453990499739412
-0.872496007072898 -0.488621241496774
-0.852640164354248 -0.522498564715694
-0.831469612302786 -0.555570233019241
-0.809016994375221 -0.587785252292097
-0.785316930881059 -0.619093949309436
-0.760405965600387 -0.649448048329767
-0.734322509436129 -0.678800745532462
-0.669300199939395 -0.66925391909954
-0.631493618691738 -0.631401057013039
-0.59368703744408 -0.593548194926537
-0.555880456196422 -0.555695332840035
-0.518073874948765 -0.517842470753534
-0.480267293701107 -0.479989608667032
-0.442460712453449 -0.44213674658053
-0.404654131205791 -0.404283884494029
-0.366847549958134 -0.366431022407527
-0.346651849619215 -0.304843455331935
-0.364262730527954 -0.281108750342845
-0.381873611436694 -0.257374045353755
-0.399484492345433 -0.233639340364664
-0.417095373254172 -0.209904635375574
-0.434706254162911 -0.186169930386484
-0.452317135071651 -0.162435225397394
-0.46992801598039 -0.138700520408303
-0.487538896889129 -0.114965815419213
-0.296236621730835 -0.295775753717756
-0.263432274751194 -0.262973347114487
-0.230627927771552 -0.230170940511218
-0.197823580791911 -0.197368533907949
-0.16501923381227 -0.164566127304679
-0.132214886832628 -0.13176372070141
-0.0994105398529873 -0.098961314098141
-0.066606192873346 -0.0661589074948718
-0.0338018458937048 -0.0333565008916026
-0.0193976161468963 0.0178300695783792
-0.0377977333797292 0.0362142334450918
-0.056197850612562 0.0545983973118045
-0.0745979678453948 0.0729825611785171
-0.0929980850782276 0.0913667250452298
-0.11139820231106 0.109750888911942
-0.129798319543893 0.128135052778655
-0.148198436776726 0.146519216645368
-0.166598554009559 0.16490338051208
0.66902285386906 0.669042453511431
0.630938926551067 0.630978125836821
0.592854999233073 0.59291379816221
0.55477107191508 0.5548494704876
0.516687144597087 0.516785142812989
0.478603217279094 0.478720815138379
0.440519289961101 0.440656487463768
0.402435362643107 0.402592159789158
0.364351435325114 0.364527832114547
0.3440158076904 0.302889727297289
0.361764107373679 0.279315950154641
0.379512407056959 0.255742173011993
0.397260706740238 0.232168395869345
0.415009006423518 0.208594618726697
0.432757306106797 0.185020841584049
0.450505605790076 0.161447064441401
0.468253905473356 0.137873287298753
0.486002205156635 0.114299510156105
0.545763407607054 0.119921502948615
0.587776310374194 0.149117272883773
0.629789213141333 0.178313042818931
0.671802115908472 0.207508812754089
0.713815018675612 0.236704582689247
0.755827921442751 0.265900352624404
0.797840824209891 0.295096122559563
0.83985372697703 0.324291892494721
0.881866629744169 0.353487662429878
0.908143173825116 0.418659737537352
0.891006524188437 0.453990499739412
0.872496007072898 0.488621241496774
0.852640164354248 0.522498564715694
0.831469612302786 0.555570233019241
0.809016994375221 0.587785252292097
0.785316930881059 0.619093949309436
0.760405965600387 0.649448048329767
0.734322509436129 0.678800745532462
0.293541007315002 0.29376174456711
0.260814506622884 0.261059984694283
0.228088005930765 0.228358224821456
0.195361505238647 0.195656464948629
0.162635004546529 0.162954705075802
0.12990850385441 0.130252945202975
0.0971820031622918 0.0975511853301476
0.0644555024701733 0.0648494254573206
0.0317290017780549 0.0321476655844936
0.017276857768897 -0.0190299902759171
0.0355512144518575 -0.0375058862635007
0.053825571134818 -0.0559817822510843
0.0720999278177785 -0.0744576782386679
0.090374284500739 -0.0929335742262515
0.1086486411837 -0.111409470213835
0.12692299786666 -0.129885366201419
0.145197354549621 -0.148361262189002
0.163471711232581 -0.166837158176586
0.213946511607979 -0.157709175446407
0.246146955300416 -0.130105296728644
0.278347398992853 -0.102501418010882
0.310547842685291 -0.074897539293119
0.342748286377728 -0.0472936605753564
0.374948730070165 -0.0196897818575938
0.407149173762603 0.00791409686016886
0.43934961745504 0.0355179755779315
0.471550061147477 0.0631218542956942
0.19462890904147 -0.198239925008175
0.207511750167398 -0.21116679585218
0.220394591293326 -0.224093666696185
0.233277432419254 -0.237020537540191
0.246160273545182 -0.249947408384196
0.259043114671111 -0.262874279228201
0.271925955797039 -0.275801150072207
0.284808796922967 -0.288728020916212
0.297691638048895 -0.301654891760217
0.336844729966971 -0.301814293653543
0.363114980759118 -0.289046824702863
0.389385231551266 -0.276279355752183
0.415655482343413 -0.263511886801504
0.441925733135561 -0.250744417850824
0.468195983927709 -0.237976948900144
0.494466234719856 -0.225209479949465
0.520736485512004 -0.212442010998785
0.547006736304152 -0.199674542048105
0.566324338870661 -0.159143792486337
0.559371690645022 -0.131380511875249
0.552419042419384 -0.103617231264161
0.545466394193745 -0.0758539506530725
0.538513745968107 -0.0480906700419843
0.531561097742469 -0.0203273894308961
0.52460844951683 0.00743589118019213
0.517655801291192 0.0351991717912804
0.510703153065553 0.0629624524023686
0.615949288386669 -0.168216365787683
0.658621589677039 -0.14952565847794
0.701293890967409 -0.130834951168198
0.74396619225778 -0.112144243858455
0.78663849354815 -0.0934535365487127
0.82931079483852 -0.0747628292389702
0.87198309612889 -0.0560721219292276
0.91465539741926 -0.0373814146194851
0.95732769870963 -0.0186907073097425
0.999229036240722 0.0392598157590827
0.996917333733127 0.0784590957278608
0.993068456954923 0.117537397457868
0.987688340595131 0.156434465040275
0.980785280403216 0.195090322016203
0.972369920397665 0.233445363855952
0.962455236453641 0.271440449865096
0.951056516295154 0.309016994374946
0.938191335922492 0.346117057077472
0.0392598157590827 -0.999229036240722
0.0784590957278608 -0.996917333733127
0.117537397457868 -0.993068456954923
0.156434465040275 -0.987688340595131
0.195090322016203 -0.980785280403216
0.233445363855952 -0.972369920397665
0.271440449865096 -0.962455236453641
0.309016994374946 -0.951056516295154
0.346117057077472 -0.938191335922492
0.395366051883856 -0.882235141619573
0.408375815426482 -0.841380546266953
0.421385578969108 -0.800525950914333
0.434395342511735 -0.759671355561712
0.447405106054361 -0.718816760209092
0.460414869596987 -0.677962164856472
0.473424633139613 -0.637107569503852
0.48643439668224 -0.596252974151231
0.499444160224866 -0.555398378798611
0.479516768706458 -0.520799376148679
0.446579613645423 -0.527054968851367
0.413642458584388 -0.533310561554055
0.380705303523354 -0.539566154256743
0.34776814846232 -0.545821746959431
0.314830993401285 -0.552077339662119
0.28189383834025 -0.558332932364807
0.248956683279216 -0.564588525067495
0.216019528218181 -0.570844117770183
0.164774135841432 -0.619389739425584
0.146465898525717 -0.661679768378297
0.128157661210003 -0.70396979733101
0.109849423894288 -0.746259826283723
0.0915411865785734 -0.788549855236436
0.0732329492628587 -0.830839884189149
0.054924711947144 -0.873129913141861
0.0366164746314293 -0.915419942094574
0.0183082373157147 -0.957709971047287
0.417730297629403 -0.90636484941598
0.452574759949788 -0.888491285689445
0.486844986749133 -0.869490721296659
0.520497174903661 -0.84938656949507
0.553488474260423 -0.828203945193909
0.585777053709195 -0.805969626228757
0.617322165682739 -0.782712012072255
0.648084208986863 -0.758461080044008
0.678024789862456 -0.73324833908782
0.73324833908696 -0.678024789863372
0.758461080043306 -0.648084208987657
0.782712012071645 -0.617322165683475
0.805969626228268 -0.585777053709821
0.828203945193503 -0.553488474260979
0.849386569494799 -0.520497174904051
0.869490721296492 -0.486844986749379
0.88849128568937 -0.452574759949892
0.906364849415976 -0.417730297629382
0.882026155651773 -0.395575037851578
0.840962574331297 -0.408793787362068
0.799898993010822 -0.422012536872559
0.758835411690346 -0.435231286383049
0.71777183036987 -0.448450035893539
0.676708249049395 -0.46166878540403
0.635644667728919 -0.47488753491452
0.594581086408443 -0.48810628442501
0.553517505087968 -0.501325033935501
0.938191335922554 -0.346117057077303
0.951056516295207 -0.309016994374781
0.962455236453691 -0.271440449864919
0.972369920397706 -0.233445363855781
0.980785280403264 -0.195090322015961
0.987688340595157 -0.156434465040112
0.993068456954941 -0.117537397457715
0.996917333733134 -0.0784590957277646
0.999229036240725 -0.0392598157590238
0.567194680763419 -0.219670744132282
0.561112374430538 -0.252434415167138
0.555030068097657 -0.285198086201995
0.548947761764776 -0.317961757236852
0.542865455431896 -0.350725428271708
0.536783149099015 -0.383489099306565
0.530700842766134 -0.416252770341421
0.524618536433254 -0.449016441376278
0.518536230100373 -0.481780112411134
0.297825268573055 -0.340833557391088
0.285076057971288 -0.367085352177952
0.27232684736952 -0.393337146964817
0.259577636767752 -0.419588941751682
0.246828426165985 -0.445840736538547
0.234079215564217 -0.472092531325412
0.22133000496245 -0.498344326112277
0.208580794360682 -0.524596120899142
0.195831583758914 -0.550847915686007
-0.157364721602036 0.215443556540974
-0.129730771961681 0.247599568703156
-0.102096822321326 0.279755580865337
-0.0744628726809705 0.311911593027518
-0.0468289230406152 0.344067605189699
-0.0191949734002599 0.376223617351881
0.00843897624009543 0.408379629514062
0.0360729258804508 0.440535641676243
0.063706875520806 0.472691653838424
0.063581724141712 0.511856591824921
0.0358226231222627 0.518865517649237
0.00806352210281339 0.525874443473552
-0.0196955789166359 0.532883369297867
-0.0474546799360853 0.539892295122183
-0.0752137809555346 0.546901220946498
-0.102972881974984 0.553910146770814
-0.130731982994433 0.560919072595129
-0.158491084013883 0.567927998419444
-0.198992004652796 0.54869375120311
-0.211733824272259 0.52245057816246
-0.224475643891723 0.49620740512181
-0.237217463511186 0.46996423208116
-0.24995928313065 0.44372105904051
-0.262701102750113 0.417477885999861
-0.275442922369577 0.391234712959211
-0.288184741989041 0.364991539918561
-0.300926561608504 0.338748366877911
0.302774839722525 0.344301920596004
0.279282171437929 0.362140336752071
0.255789503153333 0.379978752908137
0.232296834868737 0.397817169064204
0.208804166584141 0.415655585220271
0.185311498299545 0.433494001376338
0.161818830014949 0.451332417532405
0.138326161730353 0.469170833688472
0.114833493445757 0.487009249844539
0.678800745533381 0.73432250943528
0.649448048330563 0.760405965599707
0.619093949310185 0.785316930880468
0.587785252292737 0.809016994374756
0.555570233019821 0.831469612302399
0.522498564716095 0.852640164354003
0.488621241497025 0.872496007072758
0.453990499739513 0.891006524188385
0.418659737537325 0.908143173825129
0.353549171644514 0.881976345860294
0.324414910924142 0.840073159209218
0.295280650203769 0.798169972558141
0.266146389483397 0.756266785907065
0.237012128763024 0.714363599255988
0.207877868042652 0.672460412604912
0.178743607322279 0.630557225953835
0.149609346601906 0.588654039302759
0.120475085881534 0.546750852651682
0.346117057077303 0.938191335922554
0.309016994374781 0.951056516295207
0.271440449864919 0.962455236453691
0.233445363855781 0.972369920397706
0.195090322015961 0.980785280403264
0.156434465040112 0.987688340595157
0.117537397457715 0.993068456954941
0.0784590957277646 0.996917333733134
0.0392598157590238 0.999229036240725
-0.0186250185033332 0.957493692424376
-0.0372500370066664 0.914987384848752
-0.0558750555099996 0.872481077273128
-0.0745000740133327 0.829974769697504
-0.0931250925166659 0.78746846212188
-0.111750111019999 0.744962154546256
-0.130375129523332 0.702455846970632
-0.149000148026666 0.659949539395008
-0.167625166529999 0.617443231819384
0.154174907270467 -0.217387071929655
0.126603746625392 -0.24946108969514
0.0990325859803165 -0.281535107460625
0.0714614253352414 -0.31360912522611
0.0438902646901664 -0.345683142991595
0.0163191040450913 -0.37775716075708
-0.0112520565999837 -0.409831178522565
-0.0388232172450588 -0.44190519628805
-0.0663943778901338 -0.473979214053536
-0.0662607473659733 -0.513157879684406
-0.0385559561967377 -0.520262527549791
-0.0108511650275021 -0.527367175415176
0.0168536261417334 -0.534471823280561
0.044558417310969 -0.541576471145946
0.0722632084802045 -0.548681119011331
0.0999679996494401 -0.555785766876716
0.127672790818676 -0.562890414742101
0.155377581987911 -0.569995062607486
-0.305533425692949 -0.346325667470825
-0.282025882675423 -0.364073174620624
-0.258518339657896 -0.381820681770424
-0.235010796640369 -0.399568188920223
-0.211503253622842 -0.417315696070023
-0.187995710605316 -0.435063203219823
-0.164488167587789 -0.452810710369622
-0.140980624570262 -0.470558217519422
-0.117473081552736 -0.488305724669221
-0.678800745533381 -0.73432250943528
-0.649448048330563 -0.760405965599707
-0.619093949310185 -0.785316930880468
-0.587785252292737 -0.809016994374756
-0.555570233019821 -0.831469612302399
-0.522498564716095 -0.852640164354003
-0.488621241497025 -0.872496007072758
-0.453990499739513 -0.891006524188385
-0.418659737537325 -0.908143173825129
-0.353811642981919 -0.882096902442136
-0.324939853598951 -0.840314272372901
-0.296068064215983 -0.798531642303666
-0.267196274833016 -0.756749012234431
-0.238324485450048 -0.714966382165196
-0.20945269606708 -0.673183752095961
-0.180580906684112 -0.631401122026726
-0.151709117301144 -0.589618491957491
-0.122837327918177 -0.547835861888256
-0.346117057077303 -0.938191335922554
-0.309016994374781 -0.951056516295207
-0.271440449864919 -0.962455236453691
-0.233445363855781 -0.972369920397706
-0.195090322015961 -0.980785280403264
-0.156434465040112 -0.987688340595157
-0.117537397457715 -0.993068456954941
-0.0784590957277646 -0.996917333733134
-0.0392598157590238 -0.999229036240725
-0.0392598157590827 0.999229036240722
-0.0784590957278608 0.996917333733127
-0.117537397457868 0.993068456954923
-0.156434465040275 0.987688340595131
-0.195090322016203 0.980785280403216
-0.233445363855952 0.972369920397665
-0.271440449865096 0.962455236453641
-0.309016994374946 0.951056516295154
-0.346117057077472 0.938191335922492
-0.395521967540679 0.882118247683532
-0.408687646740129 0.84114675839487
-0.421853325939579 0.800175269106208
-0.435019005139029 0.759203779817547
-0.448184684338479 0.718232290528885
-0.461350363537929 0.677260801240223
-0.474516042737379 0.636289311951562
-0.487681721936829 0.5953178226629
-0.500847401136279 0.554346333374239
-0.481236790805489 0.519531052101395
-0.44846050127525 0.525687260117214
-0.41568421174501 0.531843468133032
-0.38290792221477 0.53799967614885
-0.35013163268453 0.544155884164668
-0.317355343154291 0.550312092180487
-0.284579053624051 0.556468300196305
-0.251802764093811 0.562624508212123
-0.219026474563571 0.568780716227941
-0.417730297629403 0.90636484941598
-0.452574759949788 0.888491285689445
-0.486844986749133 0.869490721296659
-0.520497174903661 0.84938656949507
-0.553488474260423 0.828203945193909
-0.585777053709195 0.805969626228757
-0.617322165682739 0.782712012072255
-0.648084208986863 0.758461080044008
-0.678024789862456 0.73324833908782
-0.73324833908696 0.678024789863372
-0.758461080043306 0.648084208987657
-0.782712012071645 0.617322165683475
-0.805969626228268 0.585777053709821
-0.828203945193503 0.553488474260979
-0.849386569494799 0.520497174904051
-0.869490721296492 0.486844986749379
-0.88849128568937 0.452574759949892
-0.906364849415976 0.417730297629382
-0.882182071308597 0.395458143915537
-0.841274405644945 0.408559999489985
-0.800366739981293 0.421661855064434
-0.759459074317641 0.434763710638883
-0.718551408653989 0.447865566213332
-0.677643742990337 0.460967421787781
-0.636736077326685 0.47406927736223
-0.595828411663033 0.487171132936679
-0.554920745999381 0.500272988511128
-0.938191335922554 0.346117057077303
-0.951056516295207 0.309016994374781
-0.962455236453691 0.271440449864919
-0.972369920397706 0.233445363855781
-0.980785280403264 0.195090322015961
-0.987688340595157 0.156434465040112
-0.993068456954941 0.117537397457715
-0.996917333733134 0.0784590957277646
-0.999229036240725 0.0392598157590238
-0.569892389029474 0.217882289311027
-0.563683576952391 0.250714795397088
-0.557474764875308 0.283547301483149
-0.551265952798225 0.316379807569211
-0.545057140721143 0.349212313655272
-0.53884832864406 0.382044819741333
-0.532639516566977 0.414877325827394
-0.526430704489894 0.447709831913455
-0.520221892412812 0.480542337999516
-0.327621875083765 0.285367255388065
-0.354442339938451 0.271151081884884
-0.381262804793134 0.256934908381703
-0.40808326964782 0.242718734878524
-0.434903734502509 0.228502561375345
-0.4617241993572 0.214286387872168
-0.488544664211892 0.200070214368991
-0.515365129066573 0.185854040865813
-0.542185593921209 0.17163786736263
-0.3153320869519 0.270974858000233
-0.342729734673361 0.255288052055086
-0.370127382394821 0.239601246109939
-0.397525030116282 0.223914440164793
-0.424922677837746 0.208227634219648
-0.452320325559212 0.192540828274504
-0.479717973280679 0.176854022329361
-0.507115621002136 0.161167216384219
-0.534513268723551 0.145480410439073
-0.303042298820149 0.256582460612424
-0.331017129408372 0.239425022225307
-0.358991959996594 0.222267583838191
-0.386966790584816 0.205110145451075
-0.414941621173041 0.187952707063961
-0.442916451761269 0.170795268676848
-0.470891282349498 0.153637830289738
-0.498866112937717 0.136480391902628
-0.526840943525896 0.119322953515516
-0.290752510688402 0.242190063224651
-0.319304524143386 0.223561992395562
-0.34785653759837 0.204933921566472
-0.376408551053354 0.186305850737383
-0.40496056450834 0.167677779908296
-0.433512577963329 0.149049709079211
-0.462064591418319 0.130421638250128
-0.490616604873301 0.111793567421047
-0.519168618328245 0.0931654965919654
-0.278462722556675 0.227797665836861
-0.307591918878419 0.207698962565802
-0.336721115200163 0.187600259294741
-0.365850311521906 0.167501556023681
-0.394979507843652 0.147402852752623
-0.4241087041654 0.127304149481567
-0.45323790048715 0.107205446210515
-0.482367096808893 0.0871067429394646
-0.5114962931306 0.0670080396684156
-0.266172934424936 0.213405268449079
-0.295879313613442 0.191835932736049
-0.325585692801948 0.170266597023016
-0.355292071990453 0.148697261309985
-0.38499845117896 0.127127925596955
-0.41470483036747 0.105558589883929
-0.444411209555982 0.0839892541709066
-0.474117588744486 0.0624199184578868
-0.503823967932959 0.0408505827448699
-0.253883146293212 0.199012871061278
-0.284166708348478 0.175972902906279
-0.314450270403745 0.152932934751277
-0.344733832459011 0.129892966596276
-0.375017394514278 0.106852998441278
-0.405300956569548 0.0838130302862836
-0.43558451862482 0.0607730621312927
-0.465868080680087 0.0377330939763057
-0.496151642735324 0.0146931258213232
-0.241593358161464 0.184620473673478
-0.272454103083492 0.16010987307651
-0.303314848005521 0.135599272479538
-0.334175592927548 0.111088671882566
-0.365036337849576 0.086578071285598
-0.395897082771607 0.0620674706886336
-0.426757827693641 0.0375568700916737
-0.457618572615669 0.0130462694947183
-0.488479317537671 -0.0114643311022312
-0.229303570029695 0.170228076285633
-0.260741497818478 0.144246843246696
-0.292179425607264 0.118265610207756
-0.323617353396047 0.0922843771688164
-0.355055281184831 0.06630314412988
-0.386493208973619 0.0403219110909481
-0.417931136762409 0.0143406780520211
-0.449369064551194 -0.0116405549869005
-0.480806992339956 -0.0376217880258147
-0.612028356521724 0.137753542897526
-0.655050654268335 0.118085391935659
-0.69807295201494 0.0984172409737929
-0.741095249761552 0.0787490900119266
-0.784117547508169 0.0590809390500593
-0.82713984525479 0.039412788088191
-0.870162143001413 0.0197446371263236
-0.913184440748012 7.64861644651598e-05
-0.956206738494518 -0.019591664797361
-0.605411558173041 0.108968334471708
-0.648912199901992 0.0881430644495094
-0.692412841630939 0.067317794427311
-0.735913483359891 0.0464925244051124
-0.779414125088847 0.0256672543829136
-0.822914766817809 0.00484198436071456
-0.86641540854677 -0.0159832856614829
-0.909916050275711 -0.0368085556836704
-0.953416692004563 -0.0576338257058248
-0.598641042397513 0.0801952238697276
-0.642466310681717 0.0582249326110795
-0.686291578965919 0.0362546413524301
-0.730116847250124 0.0142843500937809
-0.773942115534333 -0.00768594116486782
-0.817767383818547 -0.0296562324235159
-0.861592652102762 -0.0516265236821615
-0.905417920386956 -0.0735968149407965
-0.949243188671066 -0.0955671061993974
-0.591717402663829 0.0514402366825531
-0.635714173545128 0.0283430476022106
-0.679710944426426 0.00524585852186508
-0.723707715307726 -0.0178513305584799
-0.76770448618903 -0.0409485196388235
-0.811701257070338 -0.0640457087191658
-0.855698027951648 -0.0871428977995047
-0.899694798832938 -0.110240086879832
-0.943691569714148 -0.133337275960125
-0.58464146854697 0.0227093705559978
-0.628657447642147 -0.00149059528538813
-0.672673426737327 -0.0256905611267787
-0.716689405832507 -0.0498905269681684
-0.760705384927689 -0.0740904928095558
-0.804721364022877 -0.0982904586509411
-0.848737343118066 -0.122490424492322
-0.892753322213236 -0.146690390333691
-0.936769301308331 -0.170890356175024
-0.577414304448725 -0.0059914140569232
-0.621298261776422 -0.0312640751457365
-0.665182219104123 -0.056536736234556
-0.709066176431823 -0.0818093973233743
-0.752950133759524 -0.107082058412189
-0.796834091087231 -0.132354719501002
-0.840718048414939 -0.157627380589809
-0.88460200574263 -0.182900041678603
-0.92848596307025 -0.20817270276736
-0.570037207956658 -0.0346562030868131
-0.613639211123025 -0.06096556383999
-0.657241214289398 -0.0872749245931747
-0.700843217455768 -0.113584285346358
-0.74444522062214 -0.139893646099537
-0.788047223788516 -0.166203006852712
-0.831649226954895 -0.192512367605882
-0.875251230121257 -0.218821728359038
-0.918853233287553 -0.245131089112156
-0.5625117078431 -0.0632791379667565
-0.605683353226693 -0.0905833442343697
-0.648854998610293 -0.117887550501992
-0.692026643993889 -0.145191756769613
-0.735198289377485 -0.172495963037229
-0.778369934761087 -0.19980016930484
-0.82154158014469 -0.227104375572445
-0.86471322552828 -0.254408581840035
-0.907884870911806 -0.281712788107587
-0.554839561708082 -0.0918544246660071
-0.597434203287473 -0.120105828267319
-0.640028844866873 -0.148357231868641
-0.682623486446268 -0.176608635469962
-0.725218128025663 -0.204860039071277
-0.767812769605063 -0.233111442672586
-0.810407411184465 -0.261362846273888
-0.853002052763853 -0.289614249875175
-0.895596694343183 -0.317865653476422
-0.529599324582286 -0.145335207630911
-0.571659752275976 -0.17570459984278
-0.613720179969661 -0.206073992054646
-0.655780607663352 -0.236443384266514
-0.697841035357046 -0.266812776478386
-0.739901463050744 -0.29718216869026
-0.781961890744442 -0.327551560902134
-0.824022318438125 -0.35792095311399
-0.86608274613174 -0.388290345325778
-0.512035866800634 -0.170229518341226
-0.554143717621539 -0.201758516274401
-0.596251568442441 -0.233287514207574
-0.638359419263346 -0.264816512140749
-0.680467270084256 -0.296345510073927
-0.722575120905169 -0.327874508007107
-0.764682971726083 -0.359403505940285
-0.806790822546984 -0.390932503873446
-0.848898673367821 -0.422461501806539
-0.494335022271272 -0.195053827007194
-0.536352909471485 -0.22767242861719
-0.578370796671697 -0.260291030227187
-0.62038868387191 -0.292909631837185
-0.662406571072128 -0.325528233447184
-0.70442445827235 -0.358146835057185
-0.746442345472572 -0.390765436667184
-0.788460232672783 -0.423384038277164
-0.830478119872934 -0.456002639887078
-0.476499645181614 -0.219802793819278
-0.518293036200824 -0.253435657252256
-0.560086427220032 -0.287068520685237
-0.601879818239242 -0.320701384118218
-0.643673209258455 -0.3543342475512
-0.685466600277673 -0.387967110984182
-0.727259991296893 -0.421599974417162
-0.7690533823161 -0.455232837850123
-0.810846773335254 -0.488865701283017
-0.458532797158702 -0.244471195139863
-0.499970221063624 -0.279037754904282
-0.541407644968546 -0.313604314668706
-0.582845068873468 -0.34817087443313
-0.624282492778394 -0.382737434197552
-0.665719916683324 -0.417303993961975
-0.707157340588257 -0.451870553726394
-0.748594764493179 -0.486437113490795
-0.790032188398051 -0.52100367325513
-0.440437742548165 -0.269053931557357
-0.481390992751192 -0.30446852275015
-0.52234424295422 -0.339883113942951
-0.563297493157247 -0.375297705135751
-0.604250743360277 -0.410712296328548
-0.645203993563312 -0.446126887521345
-0.68615724376635 -0.481541478714138
-0.72711049396938 -0.516956069906911
-0.768063744172362 -0.552370661099621
-0.422217943380984 -0.293546035749333
-0.462562275325456 -0.329718026144947
-0.502906607269928 -0.36589001654057
-0.5432509392144 -0.40206200693619
-0.583595271158873 -0.438233997331808
-0.623939603103353 -0.474405987727423
-0.664283935047836 -0.510577978123035
-0.704628266992311 -0.546749968518627
-0.744972598936744 -0.582921958914155
-0.403877054035118 -0.317942680141576
-0.443491377542384 -0.35477660994031
-0.483105701049653 -0.391610539739057
-0.522720024556918 -0.4284444695378
-0.562334348064185 -0.465278399336538
-0.601948671571458 -0.502112329135275
-0.641562995078736 -0.538946258934007
-0.681177318586007 -0.575780188732719
-0.720791642093241 -0.612614118531367
-0.38541891560085 -0.342239184352071
-0.424185981582544 -0.379634913372154
-0.462953047564242 -0.417030642392252
-0.501720113545936 -0.454426371412345
-0.540487179527631 -0.491822100432433
-0.579254245509333 -0.529217829452519
-0.61802131149104 -0.566613558472598
-0.656788377472741 -0.604009287492657
-0.695555443454409 -0.641405016512655
-0.198692588297283 0.136916460918922
-0.230786622585283 0.108929541325778
-0.262880656873281 0.0809426217326348
-0.294974691161281 0.0529557021394917
-0.327068725449282 0.0249687825463479
-0.359162759737284 -0.00301813704679655
-0.391256794025287 -0.0310050566399405
-0.423350828313285 -0.0589919762330783
-0.455444862601262 -0.0869788958261934
-0.180371394696804 0.117997242939991
-0.212544352617217 0.0894752692346052
-0.244717310537629 0.06095329552922
-0.276890268458041 0.0324313218238349
-0.309063226378455 0.00390934811844952
-0.341236184298871 -0.0246126255869359
-0.373409142219287 -0.0531345992923203
-0.4055821001397 -0.081656572997698
-0.437755058060094 -0.110178546703053
-0.162050201096404 0.0990780249610228
-0.194302082649221 0.0700209971434002
-0.226553964202036 0.040963969325777
-0.258805845754851 0.0119069415081542
-0.291057727307669 -0.0171500863094682
-0.323309608860488 -0.0462071141270903
-0.355561490413309 -0.0752641419447107
-0.387813371966127 -0.104321169762324
-0.420065253518928 -0.133378197579914
-0.143729007496012 0.0801588069820902
-0.176059812681232 0.0505667250522267
-0.20839061786645 0.0209746431223617
-0.240721423051668 -0.00861743880750281
-0.273052228236888 -0.0382095207373662
-0.30538303342211 -0.0678016026672288
-0.337713838607334 -0.0973936845970892
-0.370044643792557 -0.126985766526942
-0.402375448977764 -0.156577848456771
-0.125407813895636 0.0612395890031303
-0.157817542713258 0.0311124529610292
-0.190227271530877 0.000985316918925314
-0.222637000348496 -0.0291418191231776
-0.255046729166117 -0.059268955165279
-0.287456457983741 -0.089396091207379
-0.319866186801367 -0.119523227249476
-0.352275915618991 -0.149650363291566
-0.384685644436604 -0.17977749933363
-0.107086620295253 0.0423203710241845
-0.139575272745277 0.0116581808698441
-0.172063925195299 -0.0190040092845
-0.20455257764532 -0.049666199438843
-0.237041230095344 -0.0803283895931838
-0.26952988254537 -0.110990579747523
-0.302018534995398 -0.141652769901858
-0.334507187445427 -0.172314960056185
-0.366995839895445 -0.202977150210488
-0.0887654266948802 0.0234011530452128
-0.121333002777306 -0.0077960912213641
-0.153900578859729 -0.0389933354879457
-0.186468154942152 -0.070190579754526
-0.219035731024577 -0.101387824021103
-0.251603307107005 -0.132585068287678
-0.284170883189436 -0.16378231255425
-0.316738459271867 -0.194979556820812
-0.349306035354291 -0.226176801087349
-0.070444233094493 0.00448193506625548
-0.103090732809321 -0.0272503633125595
-0.135737232524146 -0.0589826616913803
-0.168383732238971 -0.0907149600701994
-0.201030231953797 -0.122447258449015
-0.233676731668627 -0.154179556827828
-0.26632323138346 -0.185911855206637
-0.298969731098295 -0.217644153585436
-0.331616230813125 -0.249376451964208
-0.0521230394940885 -0.014437282912734
-0.0848484628413154 -0.0467046354037825
-0.11757388618854 -0.0789719878948379
-0.150299309535763 -0.111239340385891
-0.183024732882988 -0.143506692876941
-0.215750156230217 -0.175774045367987
-0.248475579577449 -0.208041397859028
-0.281201002924684 -0.240308750350059
-0.313926426271916 -0.272576102841064
0.695291839261319 0.641209643708661
0.65626116908681 0.603618541885181
0.617230498912298 0.5660274400617
0.578199828737792 0.528436338238223
0.539169158563291 0.490845236414748
0.500138488388795 0.453254134591275
0.461107818214299 0.415663032767803
0.422077148039779 0.378071930944324
0.383046477865167 0.340480829120817
0.720541779777395 0.61243483851192
0.680677593954797 0.575421628694447
0.640813408132198 0.538408418876973
0.600949222309604 0.501395209059502
0.561085036487014 0.464381999242033
0.521220850664428 0.427368789424568
0.481356664841843 0.390355579607104
0.441492479019233 0.353342369789634
0.401628293196533 0.316329159972139
0.744736478498386 0.582758771679378
0.70415602611604 0.546423594049667
0.663575573733696 0.510088416419955
0.622995121351355 0.473753238790245
0.582414668969019 0.437418061160538
0.541834216586685 0.401082883530834
0.501253764204351 0.364747705901133
0.460673311821993 0.328412528271428
0.420092859439548 0.2920773506417
0.767841365611529 0.552223566649577
0.726665736848086 0.516661881007324
0.685490108084648 0.481100195365069
0.644314479321212 0.445538509722817
0.603138850557778 0.409976824080567
0.561963221794348 0.374415138438322
0.520787593030917 0.33885345279608
0.479611964267462 0.303291767153835
0.438436335503922 0.26773008151157
0.789823551714732 0.520872671589788
0.748177491126853 0.486175110160547
0.706531430538982 0.451477548731306
0.664885369951112 0.416779987302065
0.623239309363243 0.382082425872829
0.581593248775377 0.347384864443597
0.53994718818751 0.312687303014369
0.498301127599619 0.277989741585139
0.456655067011645 0.243292180155892
0.810651878529433 0.488750792402384
0.768663592704732 0.455003020089225
0.72667530688004 0.421255247776065
0.684687021055349 0.387507475462907
0.642698735230657 0.353759703149752
0.600710449405968 0.320011930836603
0.558722163581278 0.286264158523458
0.516733877756564 0.252516386210313
0.474745591931768 0.218768613897153
0.830296966944601 0.45590382379112
0.788097926816359 0.423186406085584
0.74589888668813 0.390468988380047
0.703699846559899 0.35775157067451
0.661500806431667 0.325034152968978
0.619301766303437 0.292316735263451
0.577102726175205 0.25959931755793
0.53490368604695 0.22688189985241
0.492704645918615 0.194164482146878
0.848731262316938 0.422378778495252
0.806456000445467 0.390767057251181
0.764180738574011 0.359155336007109
0.721905476702552 0.327543614763037
0.679630214831091 0.29593189351897
0.637354952959633 0.264320172274909
0.595079691088171 0.232708451030855
0.552804429216687 0.201096729786802
0.510529167345125 0.169485008542741
0.865929076958241 0.388223714799084
0.823714980091423 0.357787692060949
0.781500883224622 0.327351669322813
0.739286786357817 0.296915646584677
0.69707268949101 0.266479623846546
0.654858592624203 0.236043601108422
0.612644495757394 0.205607578370304
0.570430398890562 0.17517155563219
0.528216302023655 0.144735532894071
0.311341912698205 0.270697755539882
0.278668017706075 0.23850578378256
0.245994122713944 0.206313812025239
0.213320227721815 0.174121840267918
0.18064633272969 0.141929868510598
0.147972437737566 0.109737896753278
0.115298542745443 0.077545924995958
0.0826246477533067 0.0453539532386405
0.0499507527611268 0.0131619814813307
0.329142818081425 0.247633766512741
0.296521528789267 0.215951582870924
0.263900239497109 0.184269399229106
0.231278950204953 0.15258721558729
0.198657660912799 0.120905031945474
0.166036371620647 0.0892228483036585
0.133415082328494 0.057540664661844
0.100793793036329 0.0258584810200326
0.0681725037441204 -0.00582370262177007
0.346943723464696 0.224569777485593
0.314375039872503 0.193397381959281
0.281806356280312 0.162224986432968
0.249237672688123 0.131052590906656
0.216668989095935 0.0998801953803457
0.184100305503748 0.0687077998540359
0.151531621911561 0.0375354043277277
0.118962938319361 0.00636300880142319
0.0863942547271171 -0.0248093867248716
0.364744628847969 0.201505788458479
0.332228550955742 0.170843181047669
0.299712473063518 0.140180573636857
0.267196395171296 0.109517966226046
0.234680317279074 0.0788553588152372
0.202164239386853 0.0481927514044295
0.169648161494631 0.017530143993624
0.137132083602396 -0.0131324634171774
0.104616005710118 -0.0437950708279678
0.382545534231235 0.178441799431341
0.350082062038975 0.148288980136035
0.31761858984672 0.118136160840727
0.285155117654466 0.0879833415454207
0.252691645462211 0.057830522250116
0.220228173269958 0.0276777029548134
0.187764701077702 -0.00247511634048647
0.155301228885434 -0.0326279356357816
0.122837756693123 -0.0627807549310647
0.400346439614498 0.155377810404214
0.367935573122206 0.125734779224412
0.335524706629921 0.0960917480446069
0.303113840137636 0.0664487168648034
0.27070297364535 0.0368056856850022
0.238292107153064 0.00716265450520372
0.205881240660777 -0.0224803766745915
0.173470374168476 -0.0521234078543813
0.141059507676133 -0.0817664390341582
0.418147344997759 0.132313821377063
0.385789084205436 0.103180578312768
0.35343082341312 0.0740473352484685
0.321072562620805 0.0449140921841706
0.288714301828488 0.0157808491198757
0.256356041036171 -0.0133523939444161
0.223997780243851 -0.0424856370087041
0.191639519451518 -0.0716188800729861
0.159281258659144 -0.100752123137254
0.435948250381006 0.109249832349921
0.403642595288652 0.08062637740113
0.371336940196307 0.0520029224523352
0.339031285103962 0.0233794675035417
0.306725630011614 -0.00524398744524848
0.274419974919266 -0.033867442394035
0.242114319826915 -0.0624908973428171
0.209808664734551 -0.0911143522915925
0.177503009642145 -0.119737807240353
0.45374915576423 0.0861858433227403
0.421496106371843 0.0580721764894576
0.389243056979467 0.0299585096561703
0.35699000758709 0.00184484282288419
0.32473695819471 -0.026268824010398
0.29248390880233 -0.054382490843676
0.260230859409946 -0.0824961576769492
0.227977810017548 -0.110609824510215
0.195724760625109 -0.138723491343465
0.479095728662993 0.036842214661344
0.447488304260624 0.0107219769202644
0.415880879858253 -0.0153982608208134
0.384273455455885 -0.0415184985618924
0.352666031053521 -0.0676387363029731
0.321058606651159 -0.0937589740440552
0.289451182248798 -0.119879211785137
0.257843757846422 -0.14599944952621
0.226236333443989 -0.172119687267249
0.486641396178609 0.010562575026995
0.455626991066274 -0.0140740217373807
0.424612585953938 -0.038710618501756
0.393598180841605 -0.063347215266132
0.362583775729275 -0.0879838120305089
0.331569370616948 -0.112620408794887
0.30055496550462 -0.137257005559264
0.269540560392278 -0.161893602323632
0.23852615527988 -0.186530199087966
0.494187063694311 -0.0157170646074083
0.463765677871999 -0.0388700203950738
0.433344292049689 -0.0620229761827399
0.40292290622738 -0.0851759319704065
0.372501520405074 -0.108328887758073
0.342080134582771 -0.13148184354574
0.311658748760467 -0.154634799333406
0.281237362938148 -0.177787755121063
0.250815977115776 -0.200940710908685
0.501732731210023 -0.0419967042417899
0.471904364677734 -0.0636660190527476
0.442075998145448 -0.0853353338637074
0.412247631613164 -0.107004648674667
0.382419265080881 -0.128673963485626
0.352590898548601 -0.150343278296585
0.32276253201632 -0.172012593107542
0.292934165484025 -0.19368190791849
0.263105798951678 -0.215351222729403
0.509278398725728 -0.0682763438761942
0.480043051483464 -0.0884620177104418
0.450807704241205 -0.108647691544693
0.421572356998946 -0.128833365378943
0.392337009756689 -0.149019039213192
0.363101662514433 -0.169204713047441
0.333866315272177 -0.189390386881687
0.304630968029907 -0.209576060715923
0.275395620787585 -0.229761734550125
0.516824066241431 -0.0945559835105857
0.488181738289192 -0.113258016368125
0.45953941033696 -0.131960049225668
0.430897082384729 -0.150662082083211
0.402254754432498 -0.169364114940751
0.373612426480268 -0.188066147798291
0.344970098528038 -0.206768180655828
0.316327770575793 -0.225470213513354
0.287685442623499 -0.244172246370847
0.524369733757129 -0.120835623144997
0.496320425094918 -0.138054015025826
0.468271116432715 -0.15527240690666
0.440221807770511 -0.172490798787493
0.412172499108306 -0.189709190668323
0.384123190446103 -0.206927582549152
0.3560738817839 -0.224145974429977
0.328024573121682 -0.241364366310791
0.299975264459417 -0.258582758191572
0.531915401272809 -0.147115262779392
0.504459111900625 -0.162850013683511
0.477002822528451 -0.178584764587637
0.449546533156274 -0.194319515491762
0.422090243784097 -0.210054266395883
0.394633954411922 -0.225789017300002
0.367177665039745 -0.241523768204117
0.339721375667555 -0.257258519108221
0.312265086295318 -0.272993270012292
0.539461068788451 -0.173394902413797
0.512597798706291 -0.187646012341203
0.485734528624143 -0.201897122268618
0.458871258541992 -0.21614823219603
0.43200798845984 -0.230399342123438
0.405144718377689 -0.244650452050843
0.378281448295536 -0.258901561978244
0.351418178213371 -0.273152671905634
0.32455490813116 -0.28740378183299
0.895442517636443 0.317801596609821
0.852693699350829 0.289486136142313
0.809944881065212 0.261170675674806
0.767196062779602 0.232855215207299
0.724447244493999 0.204539754739793
0.6816984262084 0.176224294272286
0.638949607922802 0.14790883380478
0.596200789637178 0.119593373337278
0.553451971351453 0.0912779128697906
0.907716444794297 0.281635212116434
0.864376373293991 0.254253429858068
0.821036301793683 0.226871647599701
0.777696230293381 0.199489865341335
0.734356158793085 0.172108083082969
0.691016087292794 0.144726300824605
0.647676015792502 0.117344518566241
0.604335944292186 0.0899627363078836
0.560995872791772 0.0625809540495414
0.918670557759565 0.245039993996452
0.874885879065963 0.21863953812796
0.831101200372362 0.192239082259466
0.787316521678765 0.165838626390973
0.743531842985173 0.139438170522482
0.699747164291586 0.113037714653992
0.655962485597999 0.086637258785504
0.612177806904388 0.0602368029170227
0.568393128210682 0.0338363470485586
0.928289038131844 0.208068088527149
0.88420815586639 0.182690813198456
0.840127273600941 0.15731353786976
0.796046391335493 0.131936262541065
0.751965509070051 0.106558987212372
0.707884626804612 0.0811817118836814
0.663803744539173 0.0558044365549939
0.619722862273711 0.0304271612263138
0.575641980008158 0.00504988589765256
0.936558126959489 0.170772222810274
0.892330973516033 0.146454123604444
0.848103820072584 0.122136024398609
0.803876666629137 0.0978179251927761
0.759649513185692 0.0734998259869457
0.715422359742252 0.0491817267811183
0.671195206298812 0.0248636275752948
0.626968052855349 0.000545528369479631
0.582740899411798 -0.023772570836315
0.943466145954855 0.133205623470852
0.899243951314763 0.1099767819015
0.855021756674681 0.0867479403321444
0.810799562034599 0.0635190987627895
0.766577367394518 0.0402902571934382
0.722355172754443 0.0170614156240907
0.678132978114367 -0.00616742594525202
0.633910783474268 -0.0293962675145854
0.589688588834086 -0.0526251090838966
0.949003515501303 0.0954219345855728
0.90493857404779 0.0733064717133517
0.860873632594288 0.0511910088411247
0.816808691140785 0.0290755459688989
0.772743749687284 0.00696008309667755
0.728678808233786 -0.0151553797755393
0.684613866780288 -0.0372708426477506
0.640548925326769 -0.0593863055199515
0.596483983873168 -0.0815017683921286
0.953162769424286 0.0574751349674624
0.90940820511551 0.03649117420713
0.865653640806749 0.0155072134467904
0.821899076497985 -0.00547674731354776
0.778144512189221 -0.0264607080738809
0.73438994788046 -0.0474446688342087
0.6906353835717 -0.06842862959453
0.646880819262919 -0.0894125903548401
0.603126254954059 -0.110396551115125
0.955938566503641 0.0194194549344145
0.912648096766658 -0.000420905890148866
0.869357627029694 -0.0202612667147206
0.826067157292724 -0.0401016275392907
0.782776687555753 -0.0599419883638551
0.739486217818787 -0.0797823491884133
0.69619574808182 -0.0996227100129643
0.652905278344833 -0.119463070837503
0.609614808607772 -0.139303431662015
0.057099643489841 -0.956786128941388
0.0958365674528567 -0.954475621962665
0.134464611000976 -0.950781658140391
0.172929543816257 -0.945709578694694
0.211177387085709 -0.939266849800092
0.249154496732603 -0.931463051073222
0.28680764613195 -0.922309860801726
0.324084108181923 -0.911821037937199
0.360931736605257 -0.900012400879845
0.0747574084595864 -0.913903683255511
0.112849913655727 -0.911154833418587
0.150845636260849 -0.907176244165175
0.188696371547893 -0.901972663246497
0.226354138349755 -0.895550727262125
0.263771253042675 -0.887918951426852
0.30090040307111 -0.8790877164408
0.337694719900099 -0.869069252483166
0.374107851283183 -0.857877620354127
0.0924151734294246 -0.871021237569812
0.129863259858679 -0.867834044874667
0.167226661520793 -0.863570830190094
0.204463199279588 -0.858235747798413
0.241530889613849 -0.851834604724252
0.278388009352785 -0.844374851780552
0.314993160010296 -0.835865572079923
0.351305331618291 -0.826317467029159
0.387283965961114 -0.815742839828415
0.110072938399238 -0.828138791884173
0.146876606061608 -0.824513256330801
0.183607686780718 -0.819965416215061
0.220230027011267 -0.814498832350372
0.256707640877929 -0.808118482186414
0.293004765662885 -0.800830752134283
0.329085916949476 -0.792643427719071
0.364915943336478 -0.783565681575173
0.400460080639043 -0.773608059302718
0.127730703369083 -0.785256346198527
0.163889952264567 -0.78119246778693
0.199988712040668 -0.776360002240026
0.235996854742968 -0.77076191690233
0.271884392142029 -0.764402359648579
0.307621521973 -0.757286652488018
0.343178673888667 -0.749421283358225
0.378526555054675 -0.740813896121194
0.413636195316978 -0.73147327877703
0.145388468338911 -0.74237390051288
0.18090329846751 -0.737871679243059
0.216369737300605 -0.732754588264993
0.251763682474659 -0.727025001454292
0.28706114340612 -0.720686237110748
0.322238278283109 -0.713742552841759
0.357271430827854 -0.706199138997387
0.39213716677287 -0.698062110667226
0.426812309994914 -0.689338498251353
0.163046233308766 -0.699491454827219
0.197916644670478 -0.694550890699176
0.232750762560565 -0.68914917428995
0.267530510206369 -0.683288086006247
0.302237894670228 -0.676970114572913
0.336855034593233 -0.670198453195499
0.371364187767053 -0.66297699463655
0.405747778491073 -0.65531032521326
0.439988424672855 -0.647203717725682
0.180703998278597 -0.656609009141531
0.214929990873423 -0.651230102155266
0.249131787820503 -0.645543760314879
0.283297337938059 -0.639551170558173
0.317414645934318 -0.633253992035048
0.35147179090334 -0.626654353549208
0.385456944706237 -0.619754850275681
0.419358390209264 -0.612558539759262
0.453164539350786 -0.605068937199978
0.198361763248437 -0.613726563455743
0.231943337076372 -0.607909313611253
0.265512813080438 -0.601938346339702
0.299064165669741 -0.595814255109989
0.332591397198393 -0.589537869497071
0.366088547213425 -0.5831102539028
0.399549701645394 -0.576532705914693
0.432969001927421 -0.56980675430514
0.466340654028677 -0.562934156674147
0.433009122195978 -0.869135635047415
0.468831465009157 -0.851757290424739
0.504136995853396 -0.833364645202435
0.538886291917304 -0.813978771312214
0.573040788063226 -0.79362227217238
0.606562836291962 -0.772319247834958
0.639415763792992 -0.750095257825322
0.671563929491523 -0.726977281731104
0.702972779004301 -0.702993677601693
0.446850929839994 -0.828575532226274
0.483707619810142 -0.811967106585273
0.520104921363455 -0.794457080411268
0.556007792000918 -0.776064184310226
0.591381951600172 -0.756808510209528
0.626193935273037 -0.736711480377642
0.660411144965719 -0.715795814392678
0.694001899722845 -0.694085494110308
0.726935484537073 -0.671605726685543
0.460596556591362 -0.787933283162405
0.498391412825659 -0.772012630260216
0.535784304195228 -0.755303076891651
0.572744568513427 -0.737821012336926
0.609242210673193 -0.719584017032504
0.645247948897369 -0.700610835463293
0.680733259888884 -0.68092134726014
0.715670422811785 -0.660536536546757
0.750032562034643 -0.639478459583777
0.474242851555539 -0.747212727231633
0.512876542266817 -0.731901540201306
0.551165691665472 -0.715914152771227
0.589084017877239 -0.699264612895869
0.626605810810348 -0.681967989520771
0.663705971798665 -0.664040349347284
0.700360052301844 -0.64549873205899
0.736544291603352 -0.626361124047643
0.772235653447672 -0.606646430679496
0.48778681700061 -0.706417824553332
0.527157012669727 -0.69164175664735
0.566240090578328 -0.676302188408241
0.60501414916452 -0.660410826464733
0.64345776335183 -0.643980228271442
0.681550017585146 -0.627023782746162
0.719270538080848 -0.609555689625211
0.756599524241821 -0.591590937568382
0.79351777918846 -0.573145281047553
0.501225612979267 -0.665552649884224
0.541227144139832 -0.651241429111779
0.580998981091987 -0.636479408072833
0.620523602586214 -0.621275952070366
0.659783868561334 -0.605641107068075
0.698763046573259 -0.589585584200193
0.737444837595092 -0.573120743255778
0.775813401149139 -0.55625857516266
0.813853379731707 -0.53901168349834
0.514556561707991 -0.624621386335328
0.555081581110042 -0.610708923816647
0.595434329855788 -0.596458361098092
0.635601667008087 -0.581876722156895
0.675570737521055 -0.566971541465831
0.715328992061627 -0.551750852375577
0.754864206359629 -0.536223174727924
0.794164500056787 -0.520397501718745
0.833218355025322 -0.504283286031162
0.527777151695798 -0.583628318921933
0.568715300598454 -0.570052810792535
0.609538602396912 -0.556251902529888
0.650238296466404 -0.542230276785479
0.690805812776339 -0.52799295654116
0.731232785104678 -0.51354529736405
0.771511063937969 -0.498892979148677
0.811632729037359 -0.484041997358956
0.85159010165098 -0.468998653783627
0.540885041616968 -0.542577827956362
0.582123619953594 -0.529281850664144
0.623304774738128 -0.5158731733053
0.664424125658176 -0.502354137205575
0.705477387698444 -0.488727253855896
0.746460377747914 -0.474995201039828
0.787369021049859 -0.461160818704631
0.828199357484844 -0.447227104582262
0.868947547676917 -0.433197209567084
0.56089732523047 -0.468377663362439
0.603258420361085 -0.454975214314052
0.645619515491695 -0.441572765265664
0.68798061062231 -0.428170316217278
0.730341705752932 -0.414767867168893
0.772702800883559 -0.40136541812051
0.815063896014185 -0.387962969072128
0.857424991144786 -0.374560520023744
0.899786086275285 -0.36115807097535
0.567613965128488 -0.435162146884667
0.610609393824395 -0.421307852393407
0.653604822520299 -0.407453557902145
0.696600251216208 -0.393599263410886
0.739595679912121 -0.379744968919629
0.782591108608039 -0.365890674428373
0.825586537303956 -0.35203637993712
0.868581965999849 -0.338182085445866
0.911577394695644 -0.324327790954605
0.57418395900531 -0.401898982226214
0.617667075245065 -0.38754519411134
0.66115019148482 -0.373191405996465
0.704633307724577 -0.358837617881592
0.748116423964339 -0.344483829766721
0.791599540204105 -0.330130041651852
0.83508265644387 -0.315776253536987
0.878565772683612 -0.301422465422123
0.922048888923258 -0.287068677307253
0.580605549260672 -0.368593963417883
0.624427949422831 -0.353698827529463
0.668250349584992 -0.338803691641042
0.712072749747154 -0.323908555752621
0.755895149909319 -0.309013419864204
0.799717550071488 -0.29411828397579
0.843539950233657 -0.27922314808738
0.887362350395803 -0.264328012198972
0.931184750557857 -0.249432876310563
0.586877207122231 -0.335252949026465
0.630888958812944 -0.319780469781434
0.674900710503662 -0.3043079905364
0.718912462194379 -0.288835511291367
0.762924213885098 -0.273363032046338
0.806935965575821 -0.257890552801313
0.850947717266544 -0.242418073556293
0.894959468957244 -0.226945594311276
0.938971220647856 -0.21147311506626
0.592997635002397 -0.301881853121453
0.637047508240302 -0.285801949006207
0.681097381478214 -0.269722044890958
0.725147254716124 -0.253642140775709
0.769197127954035 -0.237562236660464
0.813247001191949 -0.221482332545225
0.857296874429864 -0.205402428429991
0.901346747667756 -0.189322524314763
0.945396620905564 -0.173242620199537
0.598965768499385 -0.268486636155764
0.642901468901268 -0.251775186109651
0.686837169303161 -0.235063736063534
0.730772869705051 -0.218352286017418
0.774708570106939 -0.201640835971306
0.818644270508832 -0.184929385925201
0.862579970910724 -0.168217935879101
0.906515671312596 -0.151506485833008
0.950451371714385 -0.134795035786922
0.604780778038165 -0.235073295775318
0.64844918164587 -0.217712176383582
0.692117585253587 -0.200351056991841
0.735785988861298 -0.1829899376001
0.779454392469009 -0.165628818208364
0.823122796076722 -0.148267698816635
0.866791199684435 -0.130906579424913
0.910459603292128 -0.113545460033199
0.954128006899744 -0.096184340641495
0.610442070149856 -0.20164785757093
0.653689459536311 -0.183624971009693
0.69693684892278 -0.16560208444845
0.740184238309243 -0.147579197887207
0.783431627695704 -0.12955631132597
0.826679017082167 -0.11153342476474
0.86992640646863 -0.0935105382035189
0.913173795855073 -0.0754876516423065
0.956421185241443 -0.0574647650811063
0.228102048392852 -0.54394113535819
0.260372513027057 -0.537034355030752
0.292642977661258 -0.530127574703313
0.324913442295462 -0.523220794375877
0.35718390692967 -0.516314014048443
0.389454371563881 -0.509407233721012
0.421724836198091 -0.502500453393581
0.453995300832287 -0.495593673066143
0.486265765466424 -0.488686892738675
0.240184568567656 -0.517038152946462
0.271788342774979 -0.509480184994228
0.303392116982301 -0.501922217041993
0.334995891189625 -0.494364249089761
0.366599665396952 -0.486806281137531
0.398203439604281 -0.479248313185304
0.42980721381161 -0.471690345233079
0.461410988018924 -0.464132377280848
0.493014762226182 -0.456574409328589
0.252267088742579 -0.490135170534824
0.283204172523007 -0.481926014957783
0.314141256303435 -0.473716859380741
0.345078340083865 -0.465507703803701
0.376015423864296 -0.457298548226665
0.406952507644729 -0.449089392649631
0.437889591425162 -0.4408802370726
0.468826675205581 -0.432671081495565
0.499763758985945 -0.424461925918506
0.26434960891749 -0.463232188123229
0.294620002271024 -0.454371844921378
0.32489039562456 -0.445511501719525
0.355160788978097 -0.436651158517673
0.385431182331634 -0.427790815315825
0.415701575685174 -0.418930472113981
0.445971969038713 -0.41007012891214
0.476242362392237 -0.401209785710297
0.50651275574571 -0.392349442508431
0.276432129092429 -0.436329205711624
0.306035832019067 -0.426817674884964
0.335639534945708 -0.417306144058302
0.365243237872349 -0.40779461323164
0.394846940798991 -0.398283082404983
0.424450643725633 -0.38877155157833
0.454054346652275 -0.379260020751681
0.483658049578904 -0.36974848992503
0.513261752505481 -0.360236959098362
0.288514649267351 -0.409426223300023
0.317451661767096 -0.399263504848554
0.346388674266845 -0.389100786397083
0.375325686766592 -0.378938067945612
0.40426269926634 -0.368775349494145
0.433199711766089 -0.358612631042684
0.462136724265836 -0.348449912591227
0.491073736765571 -0.338287194139771
0.520010749265255 -0.328124475688299
0.300597169442296 -0.382523240888406
0.328867491515145 -0.371709334812131
0.357137813587999 -0.360895428735853
0.385408135660852 -0.350081522659575
0.413678457733704 -0.339267616583302
0.441948779806556 -0.328453710507034
0.470219101879408 -0.317639804430772
0.498489423952246 -0.306825898354511
0.526759746025036 -0.296011992278238
0.312679689617213 -0.355620258476779
0.340283321263167 -0.344155164775696
0.367886952909129 -0.332690071074611
0.395490584555088 -0.321224977373525
0.423094216201045 -0.309759883672443
0.450697847847003 -0.298294789971368
0.478301479492959 -0.2868296962703
0.505905111138903 -0.275364602569234
0.533508742784801 -0.263899508868159
0.324762209792119 -0.328717276065086
0.351699151011173 -0.316600994739195
0.378636092230236 -0.304484713413302
0.405573033449295 -0.292368432087408
0.432509974668351 -0.280252150761518
0.459446915887408 -0.268135869435635
0.486383857106463 -0.25601958810976
0.513320798325506 -0.243903306783888
0.540257739544505 -0.231787025458011
-0.286570377607704 0.326417885844124
-0.272214193607072 0.314087404810474
-0.25785800960644 0.301756923776822
-0.243501825605809 0.289426442743173
-0.22914564160518 0.277095961709528
-0.214789457604551 0.264765480675886
-0.200433273603923 0.252434999642244
-0.186077089603295 0.240104518608583
-0.171720905602661 0.227774037574851
-0.272339344986132 0.35325234279687
-0.256493947983411 0.34151314567538
-0.24064855098069 0.32977394855389
-0.224803153977969 0.318034751432403
-0.208957756975251 0.306295554310919
-0.193112359972533 0.294556357189437
-0.177266962969817 0.282817160067954
-0.1614215659671 0.271077962946452
-0.14557616896438 0.25933876582488
-0.258108312364583 0.380086799749717
-0.24077370235977 0.368938886540376
-0.223439092354956 0.357790973331036
-0.206104482350143 0.346643060121699
-0.188769872345332 0.335495146912363
-0.171435262340523 0.324347233703029
-0.154100652335715 0.313199320493693
-0.136766042330908 0.302051407284338
-0.1194314323261 0.290903494074914
-0.24387727974307 0.406921256702545
-0.225053456736162 0.396364627405355
-0.206229633729252 0.385807998108169
-0.187405810722343 0.375251368810984
-0.168581987715436 0.364694739513799
-0.149758164708531 0.354138110216616
-0.130934341701628 0.34358148091943
-0.112110518694727 0.333024851622224
-0.0932866956878257 0.32246822232495
-0.229646247121541 0.433755713655388
-0.209333211112539 0.423790368270347
-0.189020175103535 0.413825022885313
-0.168707139094532 0.40385967750028
-0.148394103085531 0.393894332115246
-0.128081067076533 0.383928986730212
-0.107768031067538 0.373963641345175
-0.0874549950585446 0.363998295960119
-0.0671419590495525 0.354032950574994
-0.215415214500019 0.460590170608216
-0.193612965488923 0.451216109135328
-0.171810716477825 0.441842047662449
-0.150008467466728 0.432467986189569
-0.128206218455632 0.423093924716688
-0.106403969444541 0.413719863243806
-0.084601720433452 0.404345801770921
-0.0627994714223664 0.394971740298015
-0.0409972224112834 0.385597678825042
-0.201184181878478 0.48742462756106
-0.177892719865291 0.478641850000322
-0.1546012578521 0.469859072439597
-0.131309795838911 0.46107629487887
-0.108018333825724 0.45229351731814
-0.0847268718125403 0.443510739757409
-0.0614354097993607 0.434727962196674
-0.0381439477861849 0.425945184635919
-0.0148524857730133 0.417162407075096
-0.186953149256939 0.514259084513876
-0.162172474241659 0.506067590865292
-0.137391799226375 0.497876097216721
-0.112611124211092 0.489684603568148
-0.0878304491958119 0.481493109919571
-0.0630497741805359 0.473301616270992
-0.0382690991652642 0.465110122622409
-0.013488424149997 0.456918628973805
0.0112922508652644 0.448727135325134
-0.172722116635354 0.541093541466681
-0.146452228617982 0.533493331730244
-0.120182340600608 0.525893121993822
-0.0939124525832334 0.518292912257398
-0.0676425645658622 0.510692702520969
-0.0413726765484957 0.503092492784537
-0.015102788531134 0.4954922830481
0.0111670994862224 0.487892073311641
0.0374369875035715 0.480291863575117
-0.138455349263956 0.197113967445325
-0.119545976925935 0.178784378349701
-0.100636604587916 0.160454789254075
-0.0817272322498965 0.142125200158452
-0.062817859911876 0.123795611062832
-0.0439084875738546 0.105466021967214
-0.0249991152358339 0.0871364328715959
-0.0060897428978212 0.0688068437759626
0.012819629440163 0.0504772546802748
-0.110312144518439 0.229324554378539
-0.0908935170752383 0.211049540053985
-0.0714748896320377 0.192774525729431
-0.0520562621888371 0.174499511404879
-0.0326376347456362 0.156224497080329
-0.0132190073024351 0.13794948275578
0.00619962014076449 0.11967446843123
0.0256182475839553 0.101399454106665
0.0450368750271168 0.0831244397820447
-0.0821689397728885 0.261535141311816
-0.0622410572245117 0.243314701758324
-0.0423131746761336 0.225094262204834
-0.0223852921277557 0.206873822651346
-0.00245740957937837 0.188653383097858
0.0174704729689984 0.170432943544372
0.037398355517373 0.152212503990883
0.0573262380657381 0.133992064437378
0.0772541206140728 0.115771624883819
-0.0540257350273782 0.293745728245074
-0.0335885973738209 0.275579863462646
-0.0131514597202608 0.257413998680223
0.00728567793329881 0.239248133897801
0.0277228155868571 0.221082269115379
0.0481599532404142 0.202916404332957
0.0685970908939681 0.184750539550532
0.0890342285475119 0.16658467476809
0.109471366201025 0.148418809985594
-0.0258825302818425 0.325956315178338
-0.00493613752310747 0.307845025166975
0.0160102552356318 0.289733735155619
0.0369566479943703 0.271622445144263
0.0579030407531067 0.253511155132906
0.078849433511841 0.235399865121548
0.0997958262705717 0.217288575110187
0.120742219029291 0.199177285098808
0.141688611787979 0.181065995087374
0.00226067446367871 0.358166902111593
0.0237163223275931 0.340110186871296
0.0451719701915132 0.322053471631008
0.066627618055432 0.30399675639072
0.0880832659193481 0.285940041150429
0.109538913783261 0.267883325910137
0.13099456164717 0.249826610669841
0.152450209511067 0.231769895429527
0.173905857374931 0.213713180189158
0.030403879209226 0.390377489044859
0.0523687821783169 0.372375348575627
0.0743336851474149 0.354373208106407
0.0962985881165115 0.336371067637185
0.118263491085604 0.31836892716796
0.140228394054694 0.300366786698733
0.162193297023778 0.282364646229501
0.18415819999285 0.264362505760251
0.206123102961888 0.246360365290945
0.058547083954758 0.422588075978105
0.0810212420290272 0.40464051027994
0.103495400103305 0.386692944581788
0.125969558177581 0.368745378883634
0.148443716251852 0.350797813185476
0.17091787432612 0.332850247487315
0.193392032400381 0.314902681789149
0.21586619047463 0.296955116090964
0.238340348548843 0.279007550392722
0.0866902887003245 0.454798662911347
0.109673701879767 0.436905671984245
0.13265711505922 0.419012681057158
0.155640528238671 0.401119690130068
0.178623941418117 0.383226699202973
0.201607354597557 0.365333708275875
0.224590767776992 0.347440717348771
0.247574180956412 0.329547726421646
0.270557594135796 0.311654735494466
0.145216117854821 0.529122642242425
0.16989259553123 0.51135440273836
0.194499071163167 0.493448776486403
0.219030204941263 0.475408617674138
0.243480773227828 0.457236987928595
0.267845676611316 0.438937151595453
0.292119947769256 0.420512570705646
0.31629875912747 0.401966899637163
0.340377430303854 0.383303979480205
0.175598742263909 0.571236034640395
0.201459029332086 0.553537971788273
0.227179312311326 0.535565135440374
0.25274891158288 0.517323233971853
0.278157379871368 0.498818390636768
0.303394518353696 0.480057134126478
0.328450392384928 0.461046388502859
0.353315346816727 0.441793462521915
0.377980020884941 0.422306038364131
0.205981366673117 0.61334942703852
0.233025463133047 0.595721540838323
0.259859553459576 0.577681494394463
0.286467618224574 0.559237850269669
0.31283398651497 0.540399793345022
0.338943360096124 0.521177116657567
0.364780837000635 0.501580206300116
0.390331934506005 0.481620025406694
0.415582611466034 0.461308097248065
0.236363991082283 0.655462819436629
0.264591896933972 0.637905109888359
0.292539794607795 0.619797853348542
0.320186324866241 0.601152466567475
0.34751059315855 0.581981196053271
0.374492201838535 0.562297099188652
0.40111128161633 0.542114024097373
0.427348522195276 0.521446588291474
0.453185202047126 0.500310156132005
0.266746615491486 0.697576211834753
0.29615833073493 0.680088678938409
0.325220035756043 0.661914212302634
0.353905031507935 0.643067082865296
0.382187199802152 0.623562598761533
0.410041043580965 0.603417081719751
0.43744172623204 0.582647841894642
0.464365109884558 0.561273151176267
0.490787792628225 0.539312215015955
0.297129239900666 0.739689604232859
0.327724764535868 0.722272247988445
0.357900276904275 0.704030571256716
0.387623738149614 0.684981699163108
0.416863806445745 0.665144001469789
0.445589885323388 0.644537064250847
0.473772170847746 0.623181659691913
0.501381697573839 0.601099714061064
0.528390383209327 0.578314273899913
0.327511864309881 0.781802996630983
0.359291198336839 0.764455817038498
0.390580518052535 0.746146930210812
0.421342444791318 0.726896315460934
0.451540413089358 0.706725404178059
0.481138727065829 0.685657046781954
0.510102615463466 0.663715477489193
0.538398285263132 0.64092627694587
0.565992973790436 0.61731633278388
0.357894488719062 0.823916389029066
0.390857632137777 0.806639386088512
0.423260759200765 0.788263289164872
0.455061151432996 0.768810931758726
0.486217019732947 0.748306806886295
0.516687568808248 0.726777029313031
0.546433060079167 0.704249295286445
0.575414872952408 0.680752839830649
0.603595564371531 0.65631839166782
0.388277113128259 0.86602978142712
0.422424065938723 0.848822955138488
0.455941000348995 0.830379648118887
0.488779858074665 0.810725548056465
0.52089362637652 0.789888209594472
0.552236410550641 0.767897011844041
0.582763504694834 0.744783113083623
0.612431460641641 0.720579402715346
0.641198154952575 0.695320450551672
-0.138715994036558 0.611058102201326
-0.109812875122162 0.604518898708774
-0.0809218540316475 0.597825977789155
-0.0520489563558878 0.590979932911385
-0.023200179740782 0.583981593650411
0.00561851536072162 0.576832024408076
0.0344012148791564 0.569532522771895
0.0631420602476563 0.562084617514233
0.0918352574353954 0.554490066235027
-0.118940904059289 0.654188205983339
-0.0888937672499602 0.648118724822472
-0.0588708260883901 0.641741808807483
-0.0288841317563309 0.635058644876181
0.00105432045441925 0.628070892178463
0.0309326096379635 0.620780679518017
0.0607389076553703 0.613190602069878
0.0904614973729139 0.605303717378811
0.120088790728962 0.597123540644784
-0.0991658140819777 0.697318309765549
-0.067974659377721 0.691718550936345
-0.0368197981451006 0.685657639825961
-0.00571930715674664 0.679137356841105
0.0253088206496427 0.672160190706619
0.0562467039152227 0.664729334628039
0.0870766004315964 0.656848681367917
0.117780934498179 0.648522817243422
0.148342324022531 0.639757015054551
-0.0793907241047076 0.740448413547736
-0.0470555515055182 0.735318377050197
-0.0147687702018429 0.729573470844424
0.0174455174428102 0.723216068806016
0.0495633208448434 0.716249489234767
0.0815607981924636 0.708677989738055
0.113414293207809 0.700506760665956
0.145100371623434 0.691741917108035
0.176595857316096 0.682390489464324
-0.0596156341274072 0.783578517329949
-0.0261364436332885 0.778918203164075
0.00728225774143811 0.77348930186291
0.040610342042387 0.767294780770949
0.0738178210400606 0.760338787762934
0.106874892469718 0.752626644848089
0.139751985984031 0.744164839964011
0.172419808748696 0.734961016972663
0.204849390609663 0.72502396387411
-0.0398405441501226 0.826708621112138
-0.00521733576107301 0.822518029277932
0.0293332856847068 0.817405132881379
0.0637751666419531 0.81137349273587
0.0980723212352688 0.804428086291094
0.132188986746964 0.79657529995812
0.166089678760247 0.787822919262065
0.199739245873954 0.778180116837295
0.233102923903227 0.767657438283905
-0.0200654541728087 0.869838724894354
0.0157017721111687 0.866117855391813
0.0513843136279985 0.861320963899871
0.0869399912415392 0.855452204700812
0.122326821430494 0.848517384819272
0.157503081024225 0.840523955068167
0.192427371536474 0.831480998560135
0.22705868299922 0.82139921670194
0.261356457196797 0.810290912693709
-0.000290364195511246 0.912968828676519
0.0366208799833958 0.909717681505648
0.0734353415712775 0.905236794918318
0.110104815841114 0.89953091666571
0.14658132162571 0.892606683347409
0.182817175301478 0.884472610178176
0.218765064312696 0.875139077858169
0.254378120124482 0.864618316566552
0.289609990490364 0.852924387103484
0.0194847257818232 0.956098932458654
0.0575399878556547 0.953317507619441
0.095486369514583 0.949152625936714
0.133269640440711 0.943609628630548
0.170835821820942 0.936695981875477
0.208131269578742 0.928421265288105
0.245102757088923 0.918797157156113
0.281697557249744 0.907837416431063
0.317863523783927 0.895557861513148
0.283460232442644 -0.32848890884485
0.2690951963124 -0.316144260298751
0.254730160182156 -0.303799611752649
0.240365124051913 -0.291454963206551
0.226000087921671 -0.279110314660456
0.21163505179143 -0.266765666114365
0.197270015661189 -0.254421017568273
0.182904979530948 -0.242076369022163
0.168539943400702 -0.229731720475982
0.269228826836528 -0.355322925929519
0.253381595701953 -0.343560499681289
0.237534364567377 -0.331798073433058
0.221687133432803 -0.320035647184831
0.20583990229823 -0.308273220936606
0.189992671163658 -0.296510794688384
0.174145440029087 -0.28474836844016
0.158298208894517 -0.272985942191918
0.142450977759943 -0.261223515943605
0.254997421230433 -0.38215694301429
0.237667995091524 -0.370976739063917
0.220338568952615 -0.359796535113546
0.203009142813706 -0.348616331163177
0.1856797166748 -0.33743612721281
0.168350290535895 -0.326255923262444
0.151020864396991 -0.315075719312077
0.133691438258089 -0.30389551536169
0.116362012119185 -0.292715311411234
0.240766015624374 -0.408990960099043
0.221954394481128 -0.39839297844653
0.203142773337881 -0.387794996794021
0.184331152194635 -0.377197015141513
0.165519531051391 -0.366599033489006
0.146707909908149 -0.356001051836499
0.127896288764909 -0.345403070183991
0.109084667621671 -0.334805088531462
0.0902730464784327 -0.324207106878866
0.226534610018299 -0.43582497718381
0.206240793870718 -0.425809217829155
0.185946977723136 -0.415793458474507
0.165653161575554 -0.40577769911986
0.145359345427974 -0.395761939765212
0.125065529280398 -0.385746180410564
0.104771713132824 -0.375730421055914
0.0844778969852518 -0.365714661701243
0.0641840808376814 -0.355698902346504
0.212303204412231 -0.462658994268562
0.190527193260315 -0.453225457211768
0.168751182108397 -0.443791920154984
0.146975170956479 -0.4343583830982
0.125199159804564 -0.424924846041413
0.103423148652652 -0.415491308984627
0.0816471375007427 -0.406057771927836
0.0598711263488369 -0.396624234871025
0.0380951151969341 -0.387190697814148
0.198071798806144 -0.48949301135333
0.174813592649895 -0.480641696594396
0.151555386493643 -0.471790381835475
0.128297180337391 -0.462939067076551
0.105038974181143 -0.454087752317625
0.0817807680248977 -0.445236437558698
0.0585225618686563 -0.436385122799767
0.0352643557124188 -0.427533808040815
0.0120061495561858 -0.418682493281797
0.183840393200059 -0.51632702843807
0.159099992039476 -0.508057935976998
0.134359590878889 -0.49978884351594
0.109619189718302 -0.49151975105488
0.084878788557719 -0.483250658593816
0.0601383873971398 -0.47498156613275
0.0353979862365648 -0.466712473671679
0.0106575850759944 -0.458443381210587
-0.01408281608457 -0.45017428874943
0.169608987593928 -0.543161045522799
0.143386391429012 -0.535474175359583
0.117163795264093 -0.527787305196383
0.0909411990991737 -0.52010043503318
0.0647186029342578 -0.512413564869972
0.0384960067693465 -0.504726694706762
0.01227341060444 -0.497039824543546
-0.0139491855604612 -0.48935295438031
-0.0401717817253548 -0.481666084217007
0.135377231953979 -0.198984014825847
0.11657955663755 -0.180580957722067
0.097781881321123 -0.162177900618284
0.0789842060046951 -0.143774843514504
0.0601865306882662 -0.125371786410727
0.0413888553718365 -0.106968729306952
0.0225911800554074 -0.0885656722031768
0.00379350473898646 -0.0701626150993865
-0.0150041705774057 -0.0517595579955416
0.107282752675463 -0.231130871475079
0.0879617587255735 -0.212800653255082
0.0686407647756843 -0.194470435035084
0.0493197708257949 -0.176140216815089
0.0299987768759054 -0.157809998595096
0.0106777829260156 -0.139479780375105
-0.00864321102387273 -0.121149562155112
-0.0279642049737521 -0.102819343935103
-0.0472851989236018 -0.0844891257150398
0.079188273396912 -0.263277728124374
0.0593439608135663 -0.245020348788152
0.0394996482302193 -0.226762969451933
0.0196553356468725 -0.208505590115716
-0.000188976936473806 -0.190248210779499
-0.0200332895198195 -0.171990831443283
-0.0398776021031631 -0.153733452107065
-0.059721914686497 -0.135476072770831
-0.0795662272698003 -0.117218693434542
0.0510937941184015 -0.295424584773649
0.0307261629015949 -0.277240044321206
0.0103585316847856 -0.259055503868768
-0.0100090995320232 -0.24087096341633
-0.0303767307488307 -0.222686422963893
-0.0507443619656369 -0.204501882511455
-0.0711119931824402 -0.186317342059015
-0.0914796243992331 -0.168132801606558
-0.111847255615995 -0.149948261154046
0.0229993148398654 -0.327571441422931
0.00210836498960085 -0.309459739854267
-0.0187825848606678 -0.291348038285609
-0.0396735347109358 -0.273236336716952
-0.0605644845612017 -0.255124635148292
-0.0814554344114655 -0.237012933579633
-0.102346384261726 -0.21890123201097
-0.123237334111975 -0.20078953044229
-0.144128283962191 -0.182677828873554
-0.00509516443865612 -0.359718298072204
-0.0265094329223802 -0.341679435387319
-0.04792370140611 -0.323640572702444
-0.0693379698898387 -0.305601710017568
-0.0907522383735645 -0.287562847332689
-0.112166506857288 -0.26952398464781
-0.133580775341006 -0.251485121962926
-0.154995043824713 -0.233446259278024
-0.176409312308387 -0.215407396593066
-0.0331896437172038 -0.391865154721488
-0.0551272308343847 -0.373899130920382
-0.0770648179515727 -0.355933107119287
-0.0990024050687593 -0.337967083318192
-0.120939992185942 -0.320001059517093
-0.142877579303122 -0.302035035715992
-0.164815166420296 -0.284069011914886
-0.186752753537458 -0.266102988113762
-0.208690340654586 -0.248136964312582
-0.061284122995736 -0.424012011370752
-0.0837450287463754 -0.406118826453427
-0.106205934497023 -0.388225641536114
-0.12866684024767 -0.3703324566188
-0.151127745998312 -0.352439271701482
-0.173588651748949 -0.334546086784161
-0.196049557499581 -0.316652901866834
-0.2185104632502 -0.298759716949489
-0.240971369000783 -0.280866532032087
-0.0893786022743024 -0.456158868020012
-0.112362826658396 -0.438338521986463
-0.135347051042499 -0.42051817595293
-0.158331275426601 -0.402697829919393
-0.181315499810697 -0.384877483885852
-0.204299724194788 -0.367057137852308
-0.227283948578873 -0.349236791818757
-0.250268172962944 -0.331416445785186
-0.273252397346978 -0.313596099751559
-0.147591747151099 -0.530289469584638
-0.172281612087146 -0.512603048186214
-0.196901474978721 -0.494779240039897
-0.221445996016455 -0.476820899333273
-0.245909951562659 -0.458731087693371
-0.270288242205784 -0.44051306946587
-0.294575900623362 -0.422170306681704
-0.318768099241213 -0.403706453718862
-0.342860157677235 -0.385125351667545
-0.17771041274949 -0.572273214500139
-0.203582599604011 -0.554647878853031
-0.229314782369596 -0.536747769710146
-0.254896281427495 -0.51857859544664
-0.280316649502327 -0.500146479316568
-0.305565687771 -0.481457950011293
-0.330633461588578 -0.462519931592687
-0.355510315806721 -0.443339732816758
-0.38018688966128 -0.423925035863988
-0.207829078347999 -0.614256959415797
-0.234883587120982 -0.596692709519987
-0.261728089760562 -0.578716299380514
-0.288346566838612 -0.560336291560107
-0.314723347442059 -0.541561870939848
-0.340843133336265 -0.52240283055678
-0.366691022553828 -0.502869556503716
-0.392252532372249 -0.482973011914681
-0.417513621645331 -0.46272472006044
-0.237947743946468 -0.656240704331437
-0.266184574637916 -0.638737540186927
-0.294141397151497 -0.620684829050871
-0.321796852249702 -0.602093987673565
-0.349130045381769 -0.582977262563121
-0.376120578901513 -0.563347711102263
-0.402748583519067 -0.543219181414745
-0.428994748937771 -0.522606291012606
-0.45484035362938 -0.501524404256897
-0.268066409544974 -0.698224449247093
-0.297485562154883 -0.680782370853883
-0.326554704542462 -0.662653358721242
-0.355247137660819 -0.643851683787038
-0.383536743321502 -0.624392654186408
-0.41139802446678 -0.60429259164776
-0.43880614448432 -0.583568806325785
-0.465736965503304 -0.562239570110544
-0.492167085613437 -0.540324088453366
-0.298185075143456 -0.740208194162731
-0.328786549671831 -0.722827201520824
-0.358968011933409 -0.704621888391602
-0.388697423071921 -0.685609379900501
-0.417943441261224 -0.665808045809689
-0.44667547003204 -0.645237472193254
-0.47486370544957 -0.623918431236827
-0.502479182068836 -0.601872849208485
-0.529493817597496 -0.579123772649841
-0.328303740741974 -0.782191939078387
-0.36008753718881 -0.764872032187782
-0.391381319324386 -0.746590418061976
-0.422147708483049 -0.727367076013979
-0.452350139200967 -0.707223437432983
-0.481952915597317 -0.686182352738759
-0.510921266414834 -0.664268056147878
-0.539221398634379 -0.641506128306435
-0.566820549581562 -0.617923456846325
-0.358422406340457 -0.824175683994002
-0.391388524705758 -0.806916862854702
-0.423794626715332 -0.788558947732315
-0.455597993894149 -0.769124772127422
-0.486756837140687 -0.748638829056245
-0.517230361162573 -0.727127233284235
-0.546978827380079 -0.704617681058902
-0.575963615199905 -0.681139407404359
-0.604147281565615 -0.656723141042784
-0.388541071938956 -0.866159428909588
-0.422689512222713 -0.848961693521583
-0.456207934106278 -0.830527477402608
-0.489048279305241 -0.810882468240813
-0.521163535080388 -0.790054220679447
-0.552507806727802 -0.768072113829642
-0.583036388345289 -0.74496730596985
-0.612705831765388 -0.7207726865022
-0.641474013549615 -0.695522825239153
0.135913842213185 -0.612918459970563
0.107059602163982 -0.606293106641048
0.0782174599386595 -0.599514035884467
0.049393441128092 -0.592581841169734
0.0205935433781784 -0.585497352071797
-0.00817627285813298 -0.5782616329925
-0.0369100935113756 -0.570875981519356
-0.0656020600146834 -0.563341926424731
-0.0942463783372303 -0.555661225308563
0.116450102438514 -0.655841857333771
0.0864464135093561 -0.649695798540049
0.0564669202279568 -0.643242304892204
0.0265236737760684 -0.636482563328047
-0.00337133055451091 -0.629418232997473
-0.0332061718578844 -0.622051442704172
-0.0629690219951203 -0.614384787623176
-0.0926481638324933 -0.606421325299254
-0.122232009308371 -0.598164570932371
0.0969863626637999 -0.698765254697177
0.0658332248546926 -0.693098490439224
0.0347163805172217 -0.686970573900093
0.00365390642401727 -0.680383285486488
-0.0273362044872226 -0.673339113923253
-0.0582360708576532 -0.665841252415923
-0.0890279504788774 -0.657893593727053
-0.11969426765031 -0.649500724173809
-0.150217640279513 -0.64066791655619
0.0775226228891265 -0.74168865206056
0.0452200362000653 -0.73650118233838
0.0129658408065182 -0.730698842907964
-0.0192158609280067 -0.724284007644915
-0.0513010784199118 -0.717259994849024
-0.0832659698574039 -0.70963106212767
-0.115086878962621 -0.701402399830929
-0.146740371468118 -0.692580123048366
-0.178203271250651 -0.683171262180014
0.058058883114423 -0.78461204942397
0.0246068475454112 -0.77990387423756
-0.00878469890420856 -0.77442711191586
-0.0420856282800506 -0.768184729803365
-0.0752659523526173 -0.761180875774815
-0.108295868857167 -0.753420871839435
-0.141145807446374 -0.744911205934822
-0.173786475285933 -0.735659521922939
-0.206188902221792 -0.725674607803852
0.0385951433397352 -0.827535446787354
0.00399365889077116 -0.82330656613672
-0.030535238614923 -0.818155380923739
-0.0649553956320838 -0.812085451961803
-0.0992308262853139 -0.805101756700598
-0.133325767856924 -0.797210681551196
-0.167204735930121 -0.788420012038714
-0.200832579103743 -0.778738920797516
-0.234174533192931 -0.768177953427698
0.0191314035650183 -0.870458844150766
-0.0166195297638949 -0.866709258035905
-0.0522857783256605 -0.861883649931641
-0.0878251629841369 -0.85598617412026
-0.123195700218027 -0.8490226376264
-0.158355666856694 -0.841000491262974
-0.193263664413879 -0.831928818142621
-0.227878682921561 -0.821818319672105
-0.262160164164074 -0.810681299051554
-0.000332336209682226 -0.913382241514127
-0.0372327184185465 -0.910111949935042
-0.0740363180363851 -0.905611918939498
-0.110694930336179 -0.899886896278676
-0.147160574150732 -0.892943518552161
-0.183385565856457 -0.884790300974714
-0.219322592897632 -0.875437624246493
-0.254924786739375 -0.864897718546662
-0.290145795135215 -0.85318464467538
-0.0197960759844193 -0.956305638877457
-0.0578459070732293 -0.953514641834138
-0.095786857747136 -0.949340187947303
-0.133564697688242 -0.943787618437031
-0.171125448083452 -0.936864399477852
-0.20841546485623 -0.928580110686373
-0.24538152138139 -0.918946430350274
-0.281970890557189 -0.907977117421117
-0.318131426106351 -0.895687990299096
-0.0574003381243802 0.956579788787164
-0.0961211755343166 0.954279220277128
-0.134733132529357 0.950595194923541
-0.173181978791558 0.945533053946531
-0.211413735507931 0.939100263520615
-0.249374758601745 0.931306403262432
-0.287011821448013 0.922163151459624
-0.324272196944907 0.911684267063783
-0.361103738815161 0.899885568475116
-0.0753587977286645 0.913491002947062
-0.113419129818646 0.910762030047513
-0.15138267931761 0.906803317731474
-0.189201241498494 0.90161961375017
-0.226826835194198 0.895217554703172
-0.264211776780959 0.887605655805272
-0.301308753703235 0.878794297756595
-0.338070897426066 0.868795710736334
-0.374451855702991 0.85762395554467
-0.0933172573330419 0.870402217107139
-0.130717084103058 0.867244839818056
-0.168032226105934 0.863011440539543
-0.20522050420549 0.857706173553923
-0.242239934880513 0.851334845885822
-0.279048794960211 0.843904908348183
-0.315605685958484 0.835425444053615
-0.35186959790724 0.825907154408912
-0.387799972590824 0.815362342614229
-0.111275716937394 0.827313431267276
-0.148015038387447 0.823727649588652
-0.184681772894239 0.81921956334766
-0.22123976691247 0.813792733357718
-0.257653034566815 0.807452137068508
-0.293885813139453 0.800204160891125
-0.329902618213725 0.792056590350662
-0.36566829838841 0.783018598081511
-0.401148089478657 0.773100729683803
-0.129234176541779 0.784224645427406
-0.165312992671865 0.780210459359243
-0.201331319682569 0.775427686155774
-0.237259029619472 0.769879293161513
-0.273066134253135 0.763569428251197
-0.30872283131871 0.75650341343407
-0.344199550468979 0.748687736647712
-0.37946699886959 0.740130041754117
-0.414496206366495 0.730839116753387
-0.147192636146146 0.741135859587535
-0.182610946956268 0.736693269129835
-0.217980866470887 0.731635808963891
-0.253278292326464 0.725965852965312
-0.288479233939448 0.71968671943389
-0.323559849497961 0.712802665977022
-0.358496482724229 0.705318882944772
-0.393265699350767 0.697241485426732
-0.427844323254334 0.688577503822982
-0.16515109575054 0.698047073747649
-0.199908901240696 0.693176078900416
-0.234630413259226 0.687843931771998
-0.269297555033474 0.682052412769104
-0.303892333625777 0.675804010616579
-0.338396867677225 0.669101918519973
-0.372793414979489 0.661950029241833
-0.407064399831954 0.654352929099351
-0.441192440142179 0.646315890892582
-0.183109555354909 0.654958287907737
-0.2172068555251 0.649658888670968
-0.251279960047544 0.644052054580077
-0.285316817740465 0.638138972572866
-0.319305433312088 0.631921301799237
-0.353233885856474 0.625401171062892
-0.387090347234736 0.618581175538861
-0.420863100313127 0.611464372771938
-0.454540557030013 0.60405427796215
-0.201068014959289 0.611869502067724
-0.234504809809508 0.606141698441417
-0.26792950683586 0.600260177388049
-0.301336080447448 0.594225532376519
-0.334718532998384 0.588038592981783
-0.368070904035702 0.581700423605695
-0.401387279489955 0.575212321835771
-0.434661800794267 0.568575816444401
-0.467888673917807 0.561792665031591
-0.433149446287119 0.869030430504978
-0.468956197534616 0.851663775275906
-0.504246136813172 0.833282819447206
-0.538979841311398 0.813908634950589
-0.573118745891638 0.793563825204359
-0.606625202554691 0.772272490260541
-0.639462538490039 0.750060189644509
-0.671595112622888 0.726953902943895
-0.702988370569984 0.702981988208088
-0.447131578022277 0.8283651231414
-0.48395708486106 0.811780076287607
-0.520323203283008 0.79429342890081
-0.556194890789107 0.775923911586976
-0.591537867256996 0.756691616273487
-0.626318667798496 0.736617965228809
-0.660504694359814 0.715725678031053
-0.694064265985575 0.694038736535892
-0.726966667668438 0.671582347898335
-0.461017528864786 0.787617669535093
-0.498765610402036 0.771732084813717
-0.536111727074558 0.755057599625964
-0.57302521669571 0.737610603252051
-0.609476084158429 0.719408676128442
-0.645435047685558 0.700470562740043
-0.680873583980026 0.680816142717702
-0.71576397220588 0.660466400185132
-0.75007933673169 0.639443391402964
-0.474804147920104 0.746791909061884
-0.513375472368653 0.731527479605974
-0.551602255504579 0.715586849750311
-0.589458215453616 0.698984067449369
-0.626917642123995 0.681734201648688
-0.663955436849583 0.663853319049617
-0.700547151090033 0.64535845933574
-0.736669024128811 0.62626760889881
-0.772298019710402 0.60659967310508
-0.488488437456317 0.705891801841146
-0.527780675297022 0.691174180903184
-0.566785795377211 0.675893059632096
-0.605481896134991 0.660060144656608
-0.643847552493889 0.643687993431338
-0.681861848898794 0.626789994874079
-0.719504411566084 0.609380348721148
-0.756755439898644 0.591474043632341
-0.793595737016872 0.573086834079531
-0.502067557526115 0.664921422629601
-0.541975539292586 0.65068033821878
-0.581653826850646 0.635988453541459
-0.621084898950779 0.620855133900617
-0.660251615531805 0.605290425259951
-0.699137244149637 0.589305038753694
-0.737725485777376 0.572910334170903
-0.776000499937328 0.55611830243941
-0.813946929125803 0.538941547136715
-0.515538830345981 0.623884954538267
-0.555954708788254 0.610054317774816
-0.596198316574224 0.595885580811489
-0.636256512766747 0.581385767625521
-0.676116442319938 0.566562412689686
-0.715765555900734 0.551423549354661
-0.755191629238959 0.535977697462237
-0.79438278197634 0.520233850208287
-0.833327495985099 0.504201460275933
-0.528899744424929 0.582786682582435
-0.569713160802126 0.56930468960187
-0.610411730075125 0.555597296488056
-0.650986691619158 0.541669185892479
-0.691429475403635 0.527525380796994
-0.731731715206515 0.513171236768717
-0.771885261514346 0.498612433702178
-0.811882194088277 0.483854967061289
-0.851714834176439 0.468905138634793
-0.54214795843724 0.541630987074427
-0.583246212682724 0.528440214324646
-0.624287043376118 0.515136741508239
-0.665266070205024 0.501722909950951
-0.706179008154151 0.48820123114371
-0.74702167411248 0.474574382870078
-0.787789993323283 0.460845205077319
-0.828480005667128 0.447016695497387
-0.869087871768059 0.433092005024646
-0.562414421311664 0.467263666391983
-0.604606950211036 0.453984994784757
-0.646799479110402 0.440706323177531
-0.688992008009773 0.427427651570306
-0.731184536909151 0.414148979963084
-0.773377065808534 0.400870308355863
-0.815569594707917 0.387591636748642
-0.857762123607274 0.37431296514142
-0.899954652506529 0.361034293534188
-0.569244916379465 0.433986198368127
-0.612059128269708 0.420262564823149
-0.654873340159948 0.40653893127817
-0.697687552050192 0.392815297733193
-0.740501763940442 0.379091664188217
-0.783315975830696 0.365368030643244
-0.826130187720949 0.351644397098273
-0.868944399611178 0.337920763553301
-0.911758611501308 0.324197130008322
-0.575928765426068 0.400661082163589
-0.619218014285739 0.386444838500119
-0.66250726314541 0.372228594836646
-0.705796512005083 0.358012351173175
-0.749085760864761 0.343796107509707
-0.792375009724442 0.329579863846241
-0.835664258584124 0.315363620182779
-0.878953507443781 0.301147376519317
-0.922242756303343 0.286931132855851
-0.582464210851212 0.367294111809174
-0.626080093058867 0.352543403877278
-0.669695975266523 0.337792695945379
-0.713311857474181 0.323041988013482
-0.756927739681842 0.308291280081588
-0.800543621889507 0.293540572149697
-0.844159504097171 0.27878986421781
-0.887775386304813 0.264039156285926
-0.931391268512362 0.249288448354039
-0.588849723882553 0.333891145871672
-0.632642307044341 0.318569978088285
-0.676434890206134 0.303248810304894
-0.720227473367927 0.287927642521505
-0.764020056529722 0.272606474738119
-0.80781263969152 0.257285306954738
-0.851605222853319 0.241964139171362
-0.895397806015094 0.226642971387989
-0.939190389176781 0.211321803604617
-0.595084006932501 0.300458098420576
-0.638902061067061 0.284536389272094
-0.682720115201628 0.268614680123609
-0.726538169336194 0.252692970975124
-0.77035622347076 0.236771261826644
-0.81417427760533 0.220849552678168
-0.857992331739899 0.204927843529699
-0.901810385874446 0.189006134381234
-0.945628440008909 0.173084425232773
-0.601165995599271 0.267000929908802
-0.644857226323389 0.250454558334575
-0.688548457047517 0.233908186760342
-0.732239687771642 0.21736181518611
-0.775930918495766 0.200815443611883
-0.819622149219893 0.184269072037662
-0.86331337994402 0.167722700463447
-0.907004610668126 0.151176328889239
-0.950695841392151 0.134629957315037
-0.607094860307833 0.233525637982272
-0.650506143663353 0.216336480567542
-0.693917427018884 0.199147323152805
-0.73732871037441 0.181958165738069
-0.780739993729936 0.164769008323339
-0.824151277085464 0.147579850908615
-0.867562560440992 0.130390693493898
-0.910973843796499 0.113201536079189
-0.954385127151929 0.0960123786644896
-0.612870007589305 0.200038248231801
-0.655847626149155 0.182194207152689
-0.698825244709018 0.164350166073572
-0.741802863268876 0.146506124994454
-0.784780481828732 0.128662083915342
-0.82775810038859 0.110818042836238
-0.870735718948447 0.0929740017571422
-0.913713337508284 0.0751299606780553
-0.956690956068049 0.0572859195989806
-0.231114993428588 0.541878609882422
-0.263237982204649 0.535063468562112
-0.295360970980706 0.5282483272418
-0.327483959756766 0.521433185921491
-0.35960694853283 0.514618044601185
-0.391729937308897 0.507802903280882
-0.423852926084963 0.500987761960578
-0.455975914861015 0.494172620640269
-0.488098903637008 0.487357479319928
-0.243203512293738 0.514976503537168
-0.274673200315568 0.507502428912319
-0.306142888337397 0.500028354287469
-0.337612576359227 0.492554279662623
-0.369082264381061 0.485080205037778
-0.400551952402897 0.477606130412937
-0.432021640424732 0.470132055788098
-0.463491328446553 0.462657981163253
-0.494961016468318 0.45518390653838
-0.255292031159008 0.488074397192002
-0.286108418426593 0.479941389262605
-0.316924805694179 0.471808381333207
-0.347741192961765 0.46367537340381
-0.378557580229354 0.455542365474417
-0.409373967496944 0.447409357545028
-0.440190354764535 0.439276349615641
-0.471006742032111 0.431143341686249
-0.501823129299631 0.423010333756834
-0.267380550024265 0.46117229084688
-0.297543636537608 0.45238034961293
-0.327706723050952 0.443588408378979
-0.357869809564296 0.43479646714503
-0.388032896077641 0.426004525911083
-0.418195982590989 0.417212584677141
-0.448359069104335 0.408420643443202
-0.478522155617668 0.39962870220926
-0.508685242130948 0.390836760975297
-0.279469068889551 0.434270184501748
-0.308978854648648 0.424819309963248
-0.338488640407748 0.415368435424745
-0.367998426166847 0.405917560886244
-0.397508211925946 0.396466686347746
-0.427017997685048 0.387015811809253
-0.456527783444149 0.377564937270764
-0.486037569203235 0.368114062732273
-0.515547354962271 0.358663188193765
-0.29155758775482 0.40736807815662
-0.320414072759674 0.397258270313568
-0.349270557764532 0.387148462470515
-0.378127042769389 0.377038654627463
-0.406983527774245 0.366928846784414
-0.435840012779103 0.35681903894137
-0.46469649778396 0.346709231098332
-0.493552982788803 0.336599423255293
-0.522409467793597 0.326489615412239
-0.303646106620112 0.380465971811476
-0.331849290870721 0.369697230663876
-0.360052475121335 0.358928489516275
-0.388255659371947 0.348159748368673
-0.416458843622558 0.337391007221075
-0.444662027873171 0.326622266073483
-0.472865212123782 0.315853524925897
-0.501068396374379 0.305084783778312
-0.529271580624929 0.294316042630716
-0.315734625485376 0.353563865466322
-0.34328450898174 0.342136191014173
-0.370834392478112 0.330708516562021
-0.398384275974481 0.31928084210987
-0.425934159470849 0.307853167657722
-0.453484042967217 0.296425493205581
-0.481033926463584 0.284997818753446
-0.508583809959938 0.273570144301314
-0.536133693456245 0.262142469849174
-0.327823144350628 0.326661759121102
-0.354719727092743 0.314575151364403
-0.381616309834867 0.302488543607702
-0.408512892576986 0.290401935851
-0.435409475319104 0.278315328094302
-0.462306058061221 0.266228720337611
-0.489202640803338 0.254142112580928
-0.516099223545441 0.242055504824248
-0.5429958062875 0.229968897067563

q	18 19 22 21
q	19 2 10 22
q	22 10 11 20
q	21 22 20 17
q	5 23 26 4
q	23 17 24 26
q	26 24 16 25
q	4 26 25 0
q	3 13 28 27
q	13 14 15 28
q	28 15 0 25
q	27 28 25 16
q	18 21 30 29
q	21 17 23 30
q	30 23 5 6
q	29 30 6 1
q	16 24 31 27
q	24 17 20 31
q	31 20 11 12
q	27 31 12 3
q	1 7 32 29
q	7 8 9 32
q	32 9 2 19
q	29 32 19 18

e	18 19
e	19 22
e	22 21
e	21 18
e	19 2
e	2 10
e	10 22
e	10 11
e	11 20
e	20 22
e	20 17
e	17 21
e	5 23
e	23 26
e	26 4
e	4 5
e	23 17
e	17 24
e	24 26
e	24 16
e	16 25
e	25 26
e	25 0
e	0 4
e	3 13
e	13 28
e	28 27
e	27 3
e	13 14
e	14 15
e	15 28
e	15 0
e	25 28
e	16 27
e	21 30
e	30 29
e	29 18
e	23 30
e	5 6
e	6 30
e	6 1
e	1 29
e	24 31
e	31 27
e	20 31
e	11 12
e	12 31
e	12 3
e	1 7
e	7 32
e	32 29
e	7 8
e	8 9
e	9 32
e	9 2
e	19 32

domain
boundary
2 1 16
23
15
38
40
48
51
52
54
5
7
45
47
24
28
29
31
