#!geo

mesh
4
header
 dimension	2
 nodes		60
 edges	60
end header

1 0
0 -1
-1 0
0 1
0.99452189536837 -0.104528463266732
0.978147600734191 -0.207911690815947
0.951056516296012 -0.309016994372305
0.913545457643939 -0.406736643072795
0.866025403785716 -0.499999999997788
0.809016994376016 -0.587785252291002
0.743144825478119 -0.669130606358053
0.669130606359085 -0.74314482547719
0.587785252292055 -0.809016994375251
0.499999999998842 -0.866025403785107
0.406736643073829 -0.913545457643479
0.309016994373149 -0.951056516295738
0.207911690816526 -0.978147600734068
0.104528463267027 -0.994521895368339
-0.104528463266732 -0.99452189536837
-0.207911690815947 -0.978147600734191
-0.309016994372305 -0.951056516296012
-0.406736643072795 -0.913545457643939
-0.499999999997788 -0.866025403785716
-0.587785252291002 -0.809016994376016
-0.669130606358053 -0.743144825478119
-0.74314482547719 -0.669130606359085
-0.809016994375251 -0.587785252292055
-0.866025403785107 -0.499999999998842
-0.913545457643479 -0.406736643073829
-0.951056516295738 -0.309016994373149
-0.978147600734068 -0.207911690816526
-0.994521895368339 -0.104528463267027
-0.99452189536837 0.104528463266732
-0.978147600734191 0.207911690815947
-0.951056516296012 0.309016994372305
-0.913545457643939 0.406736643072795
-0.866025403785716 0.499999999997788
-0.809016994376016 0.587785252291002
-0.743144825478119 0.669130606358053
-0.669130606359085 0.74314482547719
-0.587785252292055 0.809016994375251
-0.499999999998842 0.866025403785107
-0.406736643073829 0.913545457643479
-0.309016994373149 0.951056516295738
-0.207911690816526 0.978147600734068
-0.104528463267027 0.994521895368339
0.104528463266732 0.99452189536837
0.207911690815947 0.978147600734191
0.309016994372305 0.951056516296012
0.406736643072795 0.913545457643939
0.499999999997788 0.866025403785716
0.587785252291002 0.809016994376016
0.669130606358053 0.743144825478119
0.74314482547719 0.669130606359085
0.809016994375251 0.587785252292055
0.866025403785107 0.499999999998842
0.913545457643479 0.406736643073829
0.951056516295738 0.309016994373149
0.978147600734068 0.207911690816526
0.994521895368339 0.104528463267027

0 4
4 5
5 6
6 7
7 8
8 9
9 10
10 11
11 12
12 13
13 14
14 15
15 16
16 17
17 1
1 18
18 19
19 20
20 21
21 22
22 23
23 24
24 25
25 26
26 27
27 28
28 29
29 30
30 31
31 2
2 32
32 33
33 34
34 35
35 36
36 37
37 38
38 39
39 40
40 41
41 42
42 43
43 44
44 45
45 3
3 46
46 47
47 48
48 49
49 50
50 51
51 52
52 53
53 54
54 55
55 56
56 57
57 58
58 59
59 0

