#!geo

mesh
4
header
 dimension 2
 nodes	145
 triangles	256
 edges	400
end header

1 0
0 1
-1 0
0 -1
0.9238795 0.3826834
0.7071068 0.7071068
0.3826834 0.9238795
-0.3826834 0.9238795
-0.7071068 0.7071068
-0.9238795 0.3826834
-0.9238795 -0.3826834
-0.7071068 -0.7071068
-0.3826834 -0.9238795
0.3826834 -0.9238795
0.7071068 -0.7071068
0.9238795 -0.3826834
0 0
-0.4836377 -0.1047426
0.0980227 -0.4771535
0.4772521 0.1049343
-0.1047426 0.4836377
-0.5083748 0.3312042
-0.3321785 -0.5014648
0.5007411 -0.3303767
0.330596 0.5083931
-0.634629 -0.3743262
0.6335666 0.3752755
0.7285414 -0.0999809
0.1000357 0.7304131
-0.7304106 0.1001167
-0.1011426 -0.7286247
0.3733337 -0.6335242
-0.3752475 0.6344991
-0.2164412 0.1242423
0.2155198 -0.111991
-0.1175142 -0.2164973
0.1160217 0.2174357
0.1514801 -0.7586236
-0.7598736 -0.1526452
0.7586313 0.1528155
-0.1527789 0.7598566
-0.5555702 -0.8314696
-0.357431 -0.7126722
-0.5196427 -0.6042858
0.5555702 0.8314696
0.3566397 0.7161363
0.5188514 0.6077499
-0.8314696 0.5555702
-0.7161272 0.3569438
-0.6077408 0.5191555
0.8314696 -0.5555702
0.7123103 -0.3565301
0.603924 -0.5187418
0.346386 -0.0035283
0.2966369 0.161185
0.1657707 0.0527223
-0.3005759 -0.1606199
-0.1669777 -0.0461275
-0.3500394 0.0097499
-0.1605919 0.30394
-0.0502098 0.170839
0.0056395 0.3505367
0.0490028 -0.1642441
-0.0097457 -0.3468254
0.1567713 -0.2945723
0.2993819 -0.4037651
0.3581305 -0.2211839
-0.3065587 0.4074209
-0.362408 0.2277233
-0.4079081 -0.3031037
-0.2248464 -0.358981
0.4039241 0.3066637
0.2233089 0.3629144
-0.241913 -0.8262521
-0.2166606 -0.6150448
0.2413595 0.8271463
0.2153159 0.6194031
-0.8271451 0.2414001
-0.6193927 0.2156605
0.8262105 -0.2413321
0.6146413 -0.2151788
-0.4418112 0.4828516
-0.5411772 0.6708029
0.4370374 -0.4819505
0.5402202 -0.6703155
-0.4834038 -0.4378955
-0.6708679 -0.5407165
0.4820813 0.4418343
0.6703367 0.5411911
0.4889966 -0.1127212
0.6028968 0.0024767
-0.4960063 0.1132308
-0.6070242 -0.0023129
-0.2399951 0.5590684
0.1129267 0.4960154
-0.0023535 0.6070254
-0.1170779 -0.4893092
-0.00156 -0.6028891
-0.5591333 -0.2395344
0.5554094 0.2401049
0.2356782 -0.5553389
-0.1082206 0.0621212
-0.0587571 -0.1082486
0.1077599 -0.0559955
0.0580108 0.1087178
-0.5555702 0.8314696
-0.3789655 0.7791893
0.5555702 -0.8314696
0.3780086 -0.7787019
-0.8314696 -0.5555702
-0.7792543 -0.3785048
0.8314696 0.5555702
0.7787231 0.3789795
-0.8652053 0.0500584
-0.9807853 0.1950903
0.8642707 -0.0499904
0.9807853 -0.1950903
-0.0505713 -0.8643124
-0.1950903 -0.9807853
0.0500178 0.8652065
0.1950903 0.9807853
0.1950903 -0.9807853
0.2670818 -0.8412516
0.0757401 -0.8793118
0.9807853 0.1950903
0.8412554 0.2677495
0.8793157 0.0764077
-0.9807853 -0.1950903
-0.8418766 -0.2676643
-0.8799368 -0.0763226
-0.1950903 0.9807853
-0.2677312 0.8418681
-0.0763894 0.8799283
0.6960989 0.2640455
-0.6972513 -0.2634857
0.7435863 0.0264173
-0.0263716 0.7451348
0.0251687 -0.7436242
-0.7451421 -0.0262642
0.2624069 -0.6960739
-0.2640132 0.6971778
-0.6217556 -0.1286939
0.6179417 0.1288749
0.1247514 -0.6178886
-0.1287608 0.6217471

t	11 41 43
t	41 42 43
t	43 42 22
t	41 12 42
t	5 44 46
t	44 45 46
t	46 45 24
t	44 6 45
t	8 47 49
t	47 48 49
t	49 48 21
t	47 9 48
t	14 50 52
t	50 51 52
t	52 51 23
t	50 15 51
t	34 53 55
t	53 54 55
t	55 54 36
t	53 19 54
t	17 56 58
t	56 57 58
t	58 57 33
t	56 35 57
t	20 59 61
t	59 60 61
t	61 60 36
t	59 33 60
t	34 62 64
t	62 63 64
t	64 63 18
t	62 35 63
t	18 65 64
t	65 66 64
t	64 66 34
t	65 23 66
t	20 67 59
t	67 68 59
t	59 68 33
t	67 21 68
t	17 69 56
t	69 70 56
t	56 70 35
t	69 22 70
t	19 71 54
t	71 72 54
t	54 72 36
t	71 24 72
t	12 73 42
t	73 74 42
t	42 74 22
t	73 30 74
t	6 75 45
t	75 76 45
t	45 76 24
t	75 28 76
t	9 77 48
t	77 78 48
t	48 78 21
t	77 29 78
t	15 79 51
t	79 80 51
t	51 80 23
t	79 27 80
t	8 49 82
t	49 81 82
t	82 81 32
t	49 21 81
t	14 52 84
t	52 83 84
t	84 83 31
t	52 23 83
t	11 43 86
t	43 85 86
t	86 85 25
t	43 22 85
t	5 46 88
t	46 87 88
t	88 87 26
t	46 24 87
t	19 89 90
t	89 80 90
t	90 80 27
t	89 23 80
t	17 91 92
t	91 78 92
t	92 78 29
t	91 21 78
t	20 93 67
t	93 81 67
t	67 81 21
t	93 32 81
t	20 94 95
t	94 76 95
t	95 76 28
t	94 24 76
t	18 96 97
t	96 74 97
t	97 74 30
t	96 22 74
t	17 98 69
t	98 85 69
t	69 85 22
t	98 25 85
t	19 99 71
t	99 87 71
t	71 87 24
t	99 26 87
t	18 100 65
t	100 83 65
t	65 83 23
t	100 31 83
t	16 101 102
t	101 57 102
t	102 57 35
t	101 33 57
t	16 103 104
t	103 55 104
t	104 55 36
t	103 34 55
t	16 102 103
t	102 62 103
t	103 62 34
t	102 35 62
t	16 104 101
t	104 60 101
t	101 60 33
t	104 36 60
t	17 58 91
t	58 68 91
t	91 68 21
t	58 33 68
t	19 53 89
t	53 66 89
t	89 66 23
t	53 34 66
t	18 63 96
t	63 70 96
t	96 70 22
t	63 35 70
t	20 61 94
t	61 72 94
t	94 72 24
t	61 36 72
t	7 105 106
t	105 82 106
t	106 82 32
t	105 8 82
t	13 107 108
t	107 84 108
t	108 84 31
t	107 14 84
t	10 109 110
t	109 86 110
t	110 86 25
t	109 11 86
t	4 111 112
t	111 88 112
t	112 88 26
t	111 5 88
t	2 113 114
t	113 77 114
t	114 77 9
t	113 29 77
t	0 115 116
t	115 79 116
t	116 79 15
t	115 27 79
t	3 117 118
t	117 73 118
t	118 73 12
t	117 30 73
t	1 119 120
t	119 75 120
t	120 75 6
t	119 28 75
t	3 121 123
t	121 122 123
t	123 122 37
t	121 13 122
t	0 124 126
t	124 125 126
t	126 125 39
t	124 4 125
t	2 127 129
t	127 128 129
t	129 128 38
t	127 10 128
t	1 130 132
t	130 131 132
t	132 131 40
t	130 7 131
t	4 112 125
t	112 133 125
t	125 133 39
t	112 26 133
t	10 110 128
t	110 134 128
t	128 134 38
t	110 25 134
t	0 126 115
t	126 135 115
t	115 135 27
t	126 39 135
t	1 132 119
t	132 136 119
t	119 136 28
t	132 40 136
t	3 123 117
t	123 137 117
t	117 137 30
t	123 37 137
t	2 129 113
t	129 138 113
t	113 138 29
t	129 38 138
t	13 108 122
t	108 139 122
t	122 139 37
t	108 31 139
t	7 106 131
t	106 140 131
t	131 140 40
t	106 32 140
t	17 92 141
t	92 138 141
t	141 138 38
t	92 29 138
t	19 90 142
t	90 135 142
t	142 135 39
t	90 27 135
t	19 142 99
t	142 133 99
t	99 133 26
t	142 39 133
t	17 141 98
t	141 134 98
t	98 134 25
t	141 38 134
t	18 143 100
t	143 139 100
t	100 139 31
t	143 37 139
t	20 144 93
t	144 140 93
t	93 140 32
t	144 40 140
t	18 97 143
t	97 137 143
t	143 137 37
t	97 30 137
t	20 95 144
t	95 136 144
t	144 136 40
t	95 28 136

e	11 41
e	41 12
e	12 42
e	42 22
e	22 43
e	43 11
e	5 44
e	44 6
e	6 45
e	45 24
e	24 46
e	46 5
e	8 47
e	47 9
e	9 48
e	48 21
e	21 49
e	49 8
e	14 50
e	50 15
e	15 51
e	51 23
e	23 52
e	52 14
e	34 53
e	53 19
e	19 54
e	54 36
e	36 55
e	55 34
e	17 56
e	56 35
e	35 57
e	57 33
e	33 58
e	58 17
e	20 59
e	59 33
e	33 60
e	60 36
e	36 61
e	61 20
e	34 62
e	62 35
e	35 63
e	63 18
e	18 64
e	64 34
e	18 65
e	65 23
e	23 66
e	66 34
e	20 67
e	67 21
e	21 68
e	68 33
e	17 69
e	69 22
e	22 70
e	70 35
e	19 71
e	71 24
e	24 72
e	72 36
e	12 73
e	73 30
e	30 74
e	74 22
e	6 75
e	75 28
e	28 76
e	76 24
e	9 77
e	77 29
e	29 78
e	78 21
e	15 79
e	79 27
e	27 80
e	80 23
e	21 81
e	81 32
e	32 82
e	82 8
e	23 83
e	83 31
e	31 84
e	84 14
e	22 85
e	85 25
e	25 86
e	86 11
e	24 87
e	87 26
e	26 88
e	88 5
e	19 89
e	89 23
e	27 90
e	90 19
e	17 91
e	91 21
e	29 92
e	92 17
e	20 93
e	93 32
e	20 94
e	94 24
e	28 95
e	95 20
e	18 96
e	96 22
e	30 97
e	97 18
e	17 98
e	98 25
e	19 99
e	99 26
e	18 100
e	100 31
e	16 101
e	101 33
e	35 102
e	102 16
e	16 103
e	103 34
e	36 104
e	104 16
e	7 105
e	105 8
e	32 106
e	106 7
e	13 107
e	107 14
e	31 108
e	108 13
e	10 109
e	109 11
e	25 110
e	110 10
e	4 111
e	111 5
e	26 112
e	112 4
e	2 113
e	113 29
e	9 114
e	114 2
e	0 115
e	115 27
e	15 116
e	116 0
e	3 117
e	117 30
e	12 118
e	118 3
e	1 119
e	119 28
e	6 120
e	120 1
e	3 121
e	121 13
e	13 122
e	122 37
e	37 123
e	123 3
e	0 124
e	124 4
e	4 125
e	125 39
e	39 126
e	126 0
e	2 127
e	127 10
e	10 128
e	128 38
e	38 129
e	129 2
e	1 130
e	130 7
e	7 131
e	131 40
e	40 132
e	132 1
e	26 133
e	133 39
e	25 134
e	134 38
e	39 135
e	135 27
e	40 136
e	136 28
e	37 137
e	137 30
e	38 138
e	138 29
e	31 139
e	139 37
e	32 140
e	140 40
e	38 141
e	141 17
e	39 142
e	142 19
e	18 143
e	143 37
e	20 144
e	144 40
e	41 42
e	42 43
e	43 41
e	44 45
e	45 46
e	46 44
e	47 48
e	48 49
e	49 47
e	50 51
e	51 52
e	52 50
e	53 54
e	54 55
e	55 53
e	56 57
e	57 58
e	58 56
e	59 60
e	60 61
e	61 59
e	62 63
e	63 64
e	64 62
e	65 66
e	66 64
e	64 65
e	67 68
e	68 59
e	59 67
e	69 70
e	70 56
e	56 69
e	71 72
e	72 54
e	54 71
e	73 74
e	74 42
e	42 73
e	75 76
e	76 45
e	45 75
e	77 78
e	78 48
e	48 77
e	79 80
e	80 51
e	51 79
e	49 81
e	81 82
e	82 49
e	52 83
e	83 84
e	84 52
e	43 85
e	85 86
e	86 43
e	46 87
e	87 88
e	88 46
e	89 80
e	80 90
e	90 89
e	91 78
e	78 92
e	92 91
e	93 81
e	81 67
e	67 93
e	94 76
e	76 95
e	95 94
e	96 74
e	74 97
e	97 96
e	98 85
e	85 69
e	69 98
e	99 87
e	87 71
e	71 99
e	100 83
e	83 65
e	65 100
e	101 57
e	57 102
e	102 101
e	103 55
e	55 104
e	104 103
e	102 62
e	62 103
e	103 102
e	104 60
e	60 101
e	101 104
e	58 68
e	68 91
e	91 58
e	53 66
e	66 89
e	89 53
e	63 70
e	70 96
e	96 63
e	61 72
e	72 94
e	94 61
e	105 82
e	82 106
e	106 105
e	107 84
e	84 108
e	108 107
e	109 86
e	86 110
e	110 109
e	111 88
e	88 112
e	112 111
e	113 77
e	77 114
e	114 113
e	115 79
e	79 116
e	116 115
e	117 73
e	73 118
e	118 117
e	119 75
e	75 120
e	120 119
e	121 122
e	122 123
e	123 121
e	124 125
e	125 126
e	126 124
e	127 128
e	128 129
e	129 127
e	130 131
e	131 132
e	132 130
e	112 133
e	133 125
e	125 112
e	110 134
e	134 128
e	128 110
e	126 135
e	135 115
e	115 126
e	132 136
e	136 119
e	119 132
e	123 137
e	137 117
e	117 123
e	129 138
e	138 113
e	113 129
e	108 139
e	139 122
e	122 108
e	106 140
e	140 131
e	131 106
e	92 138
e	138 141
e	141 92
e	90 135
e	135 142
e	142 90
e	142 133
e	133 99
e	99 142
e	141 134
e	134 98
e	98 141
e	143 139
e	139 100
e	100 143
e	144 140
e	140 93
e	93 144
e	97 137
e	137 143
e	143 97
e	95 136
e	136 144
e	144 95
