#!geo

mesh
4
header
 dimension 2
 order     2
 nodes	113
 quadrangles	24
 edges	56
end header

1 0
0 1
-1 0
0 -1
0.923879532511309 0.382683432365036
0.707106781187053 0.707106781186042
0.382683432364887 0.923879532511371
-0.380862804754285 0.919484148641447
-0.707106781186042 0.707106781187053
-0.919484148641474 0.380862804754177
-0.923879532511309 -0.382683432365036
-0.707106781187053 -0.707106781186042
-0.382683432364887 -0.923879532511371
0.380862804754285 -0.919484148641447
0.707106781186042 -0.707106781187053
0.919484148641474 -0.380862804754177
0.310574479174823 -0.314581762604223
-0.00099749891406353 -0.000554094288333438
-0.313668381227968 0.312505193837261
-0.576101201106556 0.185049783224966
-0.329040968710476 -0.328578160321025
-0.184998671242392 0.183287544378793
-0.505149777797869 -0.0912311104301228
0.326267508007121 0.326463504439937
0.181746067915542 -0.18531305416417
0.573276987096299 -0.186907073097425
0.503750504839915 0.0907257330134568
0.183082373157147 -0.577099710472871
0.512453923767492 -0.514543783445991
-0.186250185033332 0.57493692424376
0.0913408251611613 0.504847666000606
-0.0939655385352088 -0.506053231819021
-0.514013080335729 0.513374844085577
-0.444884791167262 0.248777488531114
-0.540625489452212 0.0469093363974216
-0.34507422452013 0.0460282169743351
-0.24933352623518 0.247896369108027
-0.788050600553278 0.092524891612483
-0.980785280403214 -0.195090322016212
-0.714514655154589 -0.23695727139758
-0.831469612302799 -0.555570233019222
-0.518073874948765 -0.517842470753534
-0.417095373254172 -0.209904635375574
-0.16501923381227 -0.164566127304679
-0.0929980850782276 0.0913667250452298
0.516687144597087 0.516785142812989
0.415009006423518 0.208594618726697
0.713815018675612 0.236704582689247
0.831469612302799 0.555570233019222
0.162635004546529 0.162954705075802
0.090374284500739 -0.0929335742262515
0.342748286377728 -0.0472936605753564
0.246160273545182 -0.249947408384196
0.441925733135561 -0.250744417850824
0.538513745968107 -0.0480906700419843
0.78663849354815 -0.0934535365487127
0.980785280403214 0.195090322016212
0.195090322016212 -0.980785280403214
0.447405106054361 -0.718816760209092
0.34776814846232 -0.545821746959431
0.0915411865785734 -0.788549855236436
0.553488474260407 -0.828203945193919
0.82820394519362 -0.553488474260803
0.71777183036987 -0.448450035893539
0.980785280403233 -0.195090322016114
0.542865455431896 -0.350725428271708
0.246828426165985 -0.445840736538547
-0.0468289230406152 0.344067605189699
-0.0474546799360853 0.539892295122183
-0.24995928313065 0.44372105904051
0.208804166584141 0.415655585220271
0.555570233019607 0.831469612302542
0.237012128763024 0.714363599255988
0.195090322016114 0.980785280403233
-0.0931250925166659 0.78746846212188
0.0438902646901664 -0.345683142991595
0.044558417310969 -0.541576471145946
-0.211503253622842 -0.417315696070023
-0.555570233019607 -0.831469612302542
-0.238324485450048 -0.714966382165196
-0.195090322016114 -0.980785280403233
-0.195090322016212 0.980785280403214
-0.448184684338479 0.718232290528885
-0.35013163268453 0.544155884164668
-0.553488474260407 0.828203945193919
-0.82820394519362 0.553488474260803
-0.718551408653989 0.447865566213332
-0.980785280403233 0.195090322016114
-0.545057140721143 0.349212313655272
-0.394979507843696 0.147402852752724
-0.760705384927713 -0.0740904928093953
-0.624282492778486 -0.382737434197398
-0.2550467291662 -0.0592689551651721
0.623239309363159 0.382082425872959
0.252691645462128 0.0578305222502226
0.392337009756645 -0.14901903921309
0.75964951318566 0.0734998259871139
0.271884392141953 -0.764402359648788
0.643457763351806 -0.64398022827151
0.762924213885039 -0.273363032046589
0.39484694079894 -0.398283082405128
-0.148394103085633 0.393894332115105
0.0579030407529567 0.253511155132751
0.382187199801874 0.623562598761407
0.0738178210400145 0.760338787762708
0.145359345428076 -0.395761939765071
-0.0605644845610517 -0.255124635148137
-0.383536743321225 -0.624392654186283
-0.0752659523525727 -0.76118087577459
-0.273066134253059 0.763569428251406
-0.643847552493865 0.643687993431406
-0.764020056529662 0.272606474738371
-0.397508211925896 0.396466686347891

q	18 19 22 21
q	19 2 10 22
q	22 10 11 20
q	21 22 20 17
q	5 23 26 4
q	23 17 24 26
q	26 24 16 25
q	4 26 25 0
q	3 13 28 27
q	13 14 15 28
q	28 15 0 25
q	27 28 25 16
q	18 21 30 29
q	21 17 23 30
q	30 23 5 6
q	29 30 6 1
q	16 24 31 27
q	24 17 20 31
q	31 20 11 12
q	27 31 12 3
q	1 7 32 29
q	7 8 9 32
q	32 9 2 19
q	29 32 19 18

e	18 19
e	19 22
e	22 21
e	21 18
e	19 2
e	2 10
e	10 22
e	10 11
e	11 20
e	20 22
e	20 17
e	17 21
e	5 23
e	23 26
e	26 4
e	4 5
e	23 17
e	17 24
e	24 26
e	24 16
e	16 25
e	25 26
e	25 0
e	0 4
e	3 13
e	13 28
e	28 27
e	27 3
e	13 14
e	14 15
e	15 28
e	15 0
e	25 28
e	16 27
e	21 30
e	30 29
e	29 18
e	23 30
e	5 6
e	6 30
e	6 1
e	1 29
e	24 31
e	31 27
e	20 31
e	11 12
e	12 31
e	12 3
e	1 7
e	7 32
e	32 29
e	7 8
e	8 9
e	9 32
e	9 2
e	19 32

domain
boundary
2 1 16
23
15
38
40
48
51
52
54
5
7
45
47
24
28
29
31
