#!geo

mesh
4
header
 dimension	2
 order		5
 nodes		841
 triangles	64
end header

1 0
0 1
-1 0
0 -1
0.923879532512616 0.382683432361881
0.707106781187053 0.707106781186042
0.382683432362906 0.923879532512191
-0.382683432361881 0.923879532512616
-0.707106781186042 0.707106781187053
-0.923879532512191 0.382683432362906
-0.923879532512616 -0.382683432361881
-0.707106781187053 -0.707106781186042
-0.382683432362906 -0.923879532512191
0.382683432361881 -0.923879532512616
0.707106781186042 -0.707106781187053
0.923879532512191 -0.382683432362906
3.98670173841024e-19 -5.58815869735237e-18
-0.483637695214964 -0.104742625756417
0.0980227186570841 -0.477153544330395
0.477252129982405 0.104934301690635
-0.104742625756417 0.483637695214964
-0.508374834333097 0.331204197222061
-0.332178530241152 -0.501464821203262
0.500741128878453 -0.330376728257483
0.330596048152293 0.508393089183975
-0.634628976676307 -0.374326192055646
0.633566570366785 0.37527551791097
0.728541394202321 -0.0999808625452546
0.100035661989125 0.730413064274065
-0.730410630293948 0.100116748531761
-0.101142647214217 -0.728624741758694
0.373333712132427 -0.633524182960542
-0.375247527139624 0.634499065607095
-0.216441168233749 0.124242335876581
0.215519821457507 -0.111990992434026
-0.117514179344433 -0.216497269420686
0.116021663870218 0.217435688747808
0.151480122937197 -0.758623616899203
-0.759873594650614 -0.152645227697864
0.758631300299453 0.152815479401337
-0.152778883914746 0.759856597705402
0.99691733373318 0.078459095727184
0.987688340595341 0.156434465038944
0.972369920398138 0.233445363853984
0.951056516295991 0.309016994372369
0.891006524189706 0.453990499736921
0.852640164355316 0.522498564713952
0.809016994375991 0.587785252291037
0.760405965600848 0.649448048329227
0.649448048330158 0.760405965600053
0.587785252291976 0.809016994375308
0.522498564714947 0.852640164354706
0.453990499737968 0.891006524189172
0.30901699437312 0.951056516295747
0.233445363854549 0.972369920398002
0.156434465039354 0.987688340595277
0.078459095727414 0.996917333733162
-0.078459095727184 0.99691733373318
-0.156434465038944 0.987688340595341
-0.233445363853984 0.972369920398138
-0.309016994372369 0.951056516295991
-0.453990499736921 0.891006524189706
-0.522498564713952 0.852640164355316
-0.587785252291037 0.809016994375991
-0.649448048329227 0.760405965600848
-0.760405965600053 0.649448048330158
-0.809016994375308 0.587785252291976
-0.852640164354706 0.522498564714947
-0.891006524189172 0.453990499737968
-0.951056516295747 0.30901699437312
-0.972369920398002 0.233445363854549
-0.987688340595277 0.156434465039354
-0.996917333733162 0.078459095727414
-0.99691733373318 -0.078459095727184
-0.987688340595341 -0.156434465038944
-0.972369920398138 -0.233445363853984
-0.951056516295991 -0.309016994372369
-0.891006524189706 -0.453990499736921
-0.852640164355316 -0.522498564713952
-0.809016994375991 -0.587785252291037
-0.760405965600848 -0.649448048329227
-0.649448048330158 -0.760405965600053
-0.587785252291976 -0.809016994375308
-0.522498564714947 -0.852640164354706
-0.453990499737968 -0.891006524189172
-0.30901699437312 -0.951056516295747
-0.233445363854549 -0.972369920398002
-0.156434465039354 -0.987688340595277
-0.078459095727414 -0.996917333733162
0.078459095727184 -0.99691733373318
0.156434465038944 -0.987688340595341
0.233445363853984 -0.972369920398138
0.309016994372369 -0.951056516295991
0.453990499736921 -0.891006524189706
0.522498564713952 -0.852640164355316
0.587785252291037 -0.809016994375991
0.649448048329227 -0.760405965600848
0.760405965600053 -0.649448048330158
0.809016994375308 -0.587785252291976
0.852640164354706 -0.522498564714947
0.891006524189172 -0.453990499737968
0.951056516295747 -0.30901699437312
0.972369920398002 -0.233445363854549
0.987688340595277 -0.156434465039354
0.996917333733162 -0.078459095727414
-0.372582451938555 -0.839396590250405
-0.362481471514204 -0.75491364798862
-0.352380491089853 -0.670430705726834
-0.342279510665503 -0.585947763465048
-0.407164180430332 -0.542593213199818
-0.482149830619512 -0.583721605196374
-0.557135480808693 -0.62484999719293
-0.632121130997873 -0.665978389189486
0.372265955520784 0.840782243846548
0.361848478678661 0.757684955180905
0.351431001836538 0.674587666515261
0.341013524994416 0.591490377849618
0.405898194759245 0.548135827584388
0.481200341366197 0.587878565984802
0.556502487973149 0.627621304385215
0.631804634580101 0.667364042785628
-0.840778592876372 0.372387585334737
-0.757677653240554 0.362091738306568
-0.674576713604735 0.351795891278399
-0.591475773968916 0.34150004425023
-0.548121223703686 0.406384714015059
-0.587867613074275 0.481565230808058
-0.627614002444864 0.556745747601056
-0.667360391815453 0.631926264394055
0.839251851785443 -0.372222091541821
0.754624171058696 -0.361760750720737
0.669996490331948 -0.351299409899652
0.5853688096052 -0.340838069078568
0.54201425933997 -0.405722738843397
0.583287389801488 -0.481068749429311
0.624560520263006 -0.556414760015225
0.665833650724524 -0.631760770601139
0.267866283162486 -0.0686059336090939
0.320212744867466 -0.0252208747841617
0.372559206572446 0.0181641840407704
0.424905668277425 0.0615492428657025
0.405006036759967 0.127434579102069
0.33275994353753 0.149934856513504
0.260513850315093 0.172435133924939
0.188267757092656 0.194935411336373
0.135921295387676 0.151550352511441
0.155820926905134 0.0856650162750743
0.175720558422591 0.0197796800387075
0.195620189940049 -0.0461056561976593
-0.410412992040858 -0.127093554489271
-0.337188288866752 -0.149444483222125
-0.263963585692645 -0.171795411954978
-0.190738882518539 -0.194146340687832
-0.137299577122296 -0.148349348361233
-0.157084974900159 -0.0802014273017792
-0.176870372678023 -0.0120535062423258
-0.196655770455886 0.0560944148171276
-0.269880473629992 0.0784453435499813
-0.323319779026235 0.0326483512233817
-0.376759084422478 -0.013148641103218
-0.430198389818721 -0.0589456334298176
-0.127082334251884 0.411758623347288
-0.14942204274735 0.339879551479611
-0.171761751242817 0.268000479611934
-0.194101459738283 0.196121407744258
-0.149948601812956 0.142881006450826
-0.0834560353921623 0.161519677025072
-0.0169634689713688 0.180158347599317
0.0495290974494248 0.198797018173562
0.0718688059448912 0.270676090041239
0.027715948019564 0.32391649133467
-0.016436909905763 0.377156892628102
-0.0605897678310902 0.430397293921533
0.148913021297119 -0.132892247831358
0.082306221136731 -0.15379350322869
0.0156994209763432 -0.174694758626022
-0.0509073791840447 -0.195596014023354
-0.0744067997441292 -0.268628524402628
-0.0312994201438258 -0.32075977938457
0.0118079594564775 -0.372891034366511
0.0549153390567808 -0.425022289348453
0.121522139217169 -0.404121033951121
0.145021559777253 -0.331088523571847
0.168520980337338 -0.258056013192574
0.192020400897422 -0.1850235028133
0.178566400701358 -0.447798181115813
0.259110082745632 -0.41844281790123
0.339653764789905 -0.389087454686648
0.420197446834179 -0.359732091472065
0.443696867394264 -0.286699581092791
0.386652605910074 -0.2430224339281
0.329608344425885 -0.199345286763409
0.272564082941696 -0.155668139598717
-0.185469067471753 0.453150995616384
-0.266195509187089 0.422664296017803
-0.346921950902425 0.392177596419222
-0.427648392617761 0.361690896820641
-0.449988101113228 0.289811824952965
-0.391601367893358 0.248419452683869
-0.333214634673488 0.207027080414773
-0.274827901453619 0.165634708145677
-0.453345862220202 -0.184087064845786
-0.423054029225439 -0.263431503935155
-0.392762196230677 -0.342775943024524
-0.362470363235914 -0.422120382113893
-0.289245660061808 -0.444471310846747
-0.246312789882464 -0.387477800490232
-0.20337991970312 -0.330484290133717
-0.160447049523776 -0.273490779777201
0.447920913616382 0.185626059189303
0.41858969725036 0.266317816687971
0.389258480884338 0.347009574186639
0.359927264518316 0.427701331685307
0.287681171295878 0.450201609096742
0.244766294439463 0.392010129009508
0.201851417583048 0.333818648922275
0.158936540726633 0.275627168835041
-0.326375275333168 -0.884828574361492
-0.27006711830343 -0.845777616210792
-0.213758961273693 -0.806726658060093
-0.157450804243955 -0.767675699909393
-0.147349823819604 -0.683192757647608
-0.193557000424991 -0.637760773536521
-0.239764177030378 -0.592328789425435
-0.285971353635765 -0.546896805314349
0.32615387828815 0.885186238864566
0.269624324213394 0.846492945216941
0.213094770138637 0.807799651569315
0.156565216063881 0.76910635792169
0.146147739221759 0.686009069256047
0.192259816454392 0.641605074238029
0.238371893687026 0.597201079220011
0.284483970919659 0.552797084201993
-0.885185752068543 0.326170095596677
-0.846491971624894 0.269656758830448
-0.807798191181245 0.213143422064219
-0.769104410737596 0.15663008529799
-0.686003471101778 0.146334238269821
-0.641596311909608 0.192551728007881
-0.597189152717437 0.238769217745941
-0.552781993525267 0.284986707484001
0.884811904850217 -0.326142918399376
0.845744277188243 -0.269602404435845
0.806676649526269 -0.213061890472315
0.767609021864295 -0.156521376508785
0.682981341137547 -0.1460600356877
0.637421288072773 -0.192139208830146
0.591861235008 -0.238218381972591
0.546301181943226 -0.284297555115037
-0.481749372894403 0.391863170899068
-0.455123911455708 0.452522144576074
-0.428498450017013 0.513181118253081
-0.401872988578319 0.573840091930088
-0.441619377948908 0.649020608723087
-0.507991228758191 0.663542151839078
-0.574363079567475 0.67806369495507
-0.640734930376758 0.692585238071062
0.475259645529248 -0.391006219198095
0.449778162180043 -0.451635710138707
0.424296678830837 -0.512265201079318
0.398815195481632 -0.57289469201993
0.44008832594315 -0.648240702605844
0.506842939753873 -0.662957222251147
0.573597553564596 -0.677673741896449
0.640352167375319 -0.692390261541751
-0.392668619528183 -0.476037095373739
-0.453158708815214 -0.450609369544216
-0.513648798102245 -0.425181643714693
-0.574138887389276 -0.39975391788517
-0.649124537578456 -0.440882309881725
-0.663620098480606 -0.507438427707805
-0.678115659382755 -0.573994545533884
-0.692611220284904 -0.640550663359963
0.391190152595192 0.481769574929374
0.45178425703809 0.455146060674773
0.512378361480988 0.428522546420172
0.572972465923887 0.401899032165571
0.648274612530839 0.441641770565985
0.662982654694892 0.508008023220999
0.677690696858946 0.574374275876013
0.692398739023 0.640740528531027
0.481949929761614 0.0178720957010112
0.486647729540824 -0.0691901102886123
0.491345529320034 -0.156252316278236
0.496043329099243 -0.243314522267859
0.678283541358337 -0.0589978296980767
0.628025688514354 -0.0180147968508989
0.577767835670371 0.0229682359962789
0.527509982826388 0.0639512688434568
-0.488585123038591 -0.0175532611607216
-0.493532550862217 0.069636103434974
-0.498479978685844 0.15682546803067
-0.50342740650947 0.244014832626365
-0.681056043278151 0.0591448736741251
-0.631701456262354 0.0181729988164895
-0.582346869246558 -0.0227988760411461
-0.532992282230761 -0.0637707508987817
-0.158843606033059 0.51380996929339
-0.2129445863097 0.543982243371817
-0.267045566586341 0.574154517450243
-0.321146546862983 0.604326791528669
-0.0176748909746752 0.488588774008766
0.0693928438070669 0.493539852802569
0.156460578588809 0.498490931596371
0.243528313370551 0.503442010390173
0.0590800044400165 0.681057990462245
0.0181243468909081 0.631702916650425
-0.0228313106582004 0.582347842838605
-0.0637869682073088 0.532992769026784
0.0119824688774369 -0.482015799704968
-0.0740577809022103 -0.486878055079542
-0.160098030681857 -0.491740310454115
-0.246138280461505 -0.496602565828689
-0.0613095740399569 -0.678330502273034
-0.0214765008656966 -0.628036262787374
0.0183565723085636 -0.577742023301715
0.0581896454828239 -0.527447783816055
-0.513835951507233 -0.158659339016263
-0.544034207799501 -0.212576052276109
-0.57423246409177 -0.266492765535955
-0.604430720384039 -0.320409478795801
0.508515018059281 0.159002544934702
0.539777906136157 0.213070788178769
0.571040794213033 0.267139031422836
0.602303682289909 0.321207274666903
0.153084917352153 -0.508427672056424
0.208147116047221 -0.539701799782454
0.26320931474229 -0.570975927508483
0.318271513437359 -0.602250055234513
-0.0432882336467499 0.0248484671753162
-0.0865764672934997 0.0496969343506324
-0.12986470094025 0.0745454015259486
-0.173152934586999 0.0993938687012648
-0.094011343475546 -0.173197815536549
-0.0705085076066595 -0.129898361652412
-0.047005671737773 -0.0865989077682744
-0.0235028358688865 -0.0432994538841372
0.0431039642915013 -0.0223981984868052
0.0862079285830027 -0.0447963969736104
0.129311892874504 -0.0671945954604156
0.172415857166005 -0.0895927939472208
0.0928173310961746 0.173948550998246
0.069612998322131 0.130461413248685
0.0464086655480873 0.0869742754991231
0.0232043327740436 0.0434871377495615
-0.376734708184076 0.692375158988199
-0.378221889228527 0.750251252369303
-0.379709070272978 0.808127345750408
-0.38119625131743 0.866003439131512
0.375203656178318 -0.691595252870957
0.377073600224209 -0.749666322781372
0.378943544270099 -0.807737392691786
0.38081348831599 -0.865808462602201
-0.692479087843569 -0.375997640116893
-0.750329199010831 -0.37766908817814
-0.808179310178092 -0.379340536239387
-0.866029421345354 -0.381011984300634
0.691629162795951 0.376757100801152
0.749691755225117 0.378238683691335
0.807754347654284 0.379720266581517
0.86581694008345 0.381201849471699
-0.94608212605879 0.0200233497063521
-0.892164252117579 0.0400466994127043
-0.838246378176369 0.0600700491190564
-0.784328504235158 0.0800933988254085
0.945708278840464 -0.0199961725090509
0.891416557680928 -0.0399923450181018
0.837124836521392 -0.0599885175271528
0.782833115361857 -0.0799846900362037
-0.0202285294428434 -0.945724948351739
-0.0404570588856869 -0.891449896703478
-0.0606855883285303 -0.837174845055216
-0.0809141177713738 -0.782899793406955
0.020007132397825 0.946082612854813
0.04001426479565 0.892165225709626
0.060021397193475 0.838247838564439
0.0800285295913 0.784330451419252
0.336442770476944 -0.890828349389933
0.290202108592007 -0.857777166267251
0.24396144670707 -0.824725983144568
0.197720784822133 -0.791674800021885
0.121184098349757 -0.806898893519362
0.0908880737623179 -0.855174170139522
0.0605920491748786 -0.903449446759681
0.0302960245874393 -0.95172472337984
0.890829886069983 0.336709841769772
0.857780239627351 0.290736251177663
0.824730593184718 0.244762660585555
0.791680946742086 0.198789069993446
0.806905040239563 0.12225238352107
0.855178780179672 0.0916892876408024
0.903452520119781 0.0611261917605349
0.951726260059891 0.0305630958802675
-0.891078344940216 -0.336675791429077
-0.858277157367815 -0.290668150496274
-0.825475969795415 -0.244660509563471
-0.792674782223015 -0.198652868630668
-0.807898875720491 -0.122116182158291
-0.855924156790369 -0.0915871366187186
-0.903949437860246 -0.0610580910791457
-0.951974718930123 -0.0305290455395729
-0.336702522672454 0.891074945551173
-0.290721612983027 0.85827035858973
-0.2447407032936 0.825465771628287
-0.198759793604173 0.792661184666845
-0.122223107131797 0.807885278164321
-0.0916673303488477 0.855913958623241
-0.0611115535658985 0.903942639082161
-0.0305557767829492 0.95197131954108
0.658579516353318 0.330783510209044
0.683592462339852 0.286291502507117
0.708605408326386 0.241799494805191
0.73361835431292 0.197307487103264
-0.659677900271169 -0.32998999918409
-0.68472682386603 -0.285653806312534
-0.709775747460891 -0.241317613440977
-0.734824671055753 -0.196981420569421
0.752613319080027 0.102256211012019
0.7465953378606 0.0516969426227006
0.740577356641174 0.00113767423338219
0.734559375421747 -0.0494215941559362
-0.102215974733972 0.753967891019134
-0.0516530655531977 0.748079184332867
-0.00109015637242352 0.7421904776466
0.0494727528083507 0.736301770960332
0.100955568906914 -0.752623841871101
0.050431014876631 -0.746624066842999
-9.35391536516921e-05 -0.740624291814897
-0.0506180931839344 -0.734624516786796
-0.753981001779281 -0.102092832451939
-0.748088408907948 -0.0515404372060143
-0.742195816036614 -0.000988041960089342
-0.736303223165281 0.0495643532858357
0.328962994293381 -0.658544069748274
0.284592276454335 -0.683563956536006
0.240221558615289 -0.708583843323738
0.195850840776243 -0.733603730111471
-0.330753798494649 0.659570572026756
-0.286260069849673 0.684642078446418
-0.241766341204697 0.709713584866079
-0.197272612559722 0.73478509128574
-0.704626414763484 -0.143064707309575
-0.649379234876354 -0.133484186921285
-0.594132054989224 -0.123903666532996
-0.538884875102094 -0.114323146144707
0.702355466236044 0.143239243859197
0.646079632172634 0.133663008317056
0.589803798109224 0.124086772774916
0.533527964045814 0.114510537232775
0.108714199513107 -0.533447558844157
0.119405680369129 -0.589741573357918
0.130097161225152 -0.64603558787168
0.140788642081174 -0.702329602385441
-0.114349877388083 0.538881475713052
-0.123957129019749 0.594125256211139
-0.133564380651415 0.649369036709227
-0.14317163228308 0.704612817207314
-0.574353084854776 -0.719113974709422
-0.445020099409999 -0.807502633502447
-0.421741095475673 -0.63318349772845
-0.512086118951695 -0.766768589632848
-0.434315926754502 -0.721525045771053
-0.498715029280936 -0.677061398804954
0.574036588437004 0.720499628305565
0.444703602992227 0.808888287098589
0.420791606222357 0.637340458516878
0.511769622533924 0.76815424322899
0.433682933918958 0.724296352963338
0.498082036445392 0.67983270599724
-0.720495977335389 0.574158218250958
-0.808884636128414 0.444825232806181
-0.637329505606351 0.421156495664218
-0.768150592258815 0.511891252347877
-0.724289051022987 0.433926193546865
-0.679825404056888 0.498325296073299
0.71896923624446 -0.573992724458042
0.807357895037485 -0.444659739013265
0.632749282333564 -0.420660014285471
0.766623851167886 -0.511725758554962
0.721235568841129 -0.433595205961034
0.67677192187503 -0.497994308487468
0.247966651645036 -0.00272059737272555
0.352659575054996 0.0840495202771373
0.20816738861013 0.12905007510001
0.300313113350016 0.0406644614522059
0.280413481832563 0.106549797688574
0.228067020127583 0.0631647388636428
-0.356973686644629 -0.0812965621626714
-0.210524280296421 -0.125998419628379
-0.250095075852164 0.010297422490528
-0.283748983470526 -0.103647490895525
-0.230309678074294 -0.0578504985689256
-0.303534381248398 -0.0354995698360714
-0.0829294763265567 0.358518222053871
-0.12760889331749 0.214760078318521
0.00537623952409738 0.252037419467029
-0.105269184822023 0.286639150186197
-0.0611163268966963 0.233398748892777
-0.0387766184012294 0.305277820760451
0.125413600737041 -0.205924758210643
-0.00779999958373275 -0.247727269005307
0.0784147596168809 -0.351989778969207
0.0588068005766542 -0.226826013607975
0.0353073800165748 -0.299858523987258
0.101914180176962 -0.278957268589926
0.202065821261449 -0.374765670736551
0.363153185349996 -0.31605494430739
0.249064662381626 -0.228700649978021
0.282609503305722 -0.345410307521971
0.306108923865812 -0.272377797142707
0.225565241821538 -0.301733160357287
-0.207808775967226 0.38127192374872
-0.369261659397897 0.320298524551562
-0.252488192958168 0.237513780013384
-0.288535217682562 0.350785224150141
-0.310874926178033 0.278906152282475
-0.230148484462697 0.309392851881053
-0.380121159046108 -0.206437993578646
-0.319537493056587 -0.365126871757384
-0.233671752697913 -0.251139851044363
-0.349829326051348 -0.285782432668015
-0.276604622877251 -0.308133361400874
-0.306896455872012 -0.228788922311505
0.375674820393958 0.208126336600744
0.317012387661916 0.369509851598079
0.2311826339491 0.253126891423622
0.346343604027938 0.288818094099412
0.27409751080551 0.311318371510851
0.30342872717153 0.230626614012183
-0.316274294908832 -0.800345632099736
-0.203657980849359 -0.722243715798343
-0.29607233406015 -0.631379747576205
-0.259966137879096 -0.76129467394904
-0.249865157454756 -0.676811731687277
-0.306173314484493 -0.715862689837973
0.315736401446042 0.802088950198952
0.202677293296532 0.724702362903708
0.294901447761817 0.635894372867707
0.259206847371287 0.763395656551331
0.248789370529176 0.680298367885711
0.305318924603931 0.718991661533332
-0.802084812432753 0.315874248568522
-0.724697251545462 0.202847575036067
-0.635882933161157 0.295282554512204
-0.763391031989109 0.259360911802295
-0.680290092353313 0.249065064774138
-0.718983872796958 0.305578401540365
0.800184224123499 -0.315681577578306
0.722048968799557 -0.202600549651248
0.630928862670044 -0.294758895936157
0.761116596461529 -0.259141063614777
0.676488915734804 -0.248679722793704
0.715556543396774 -0.305220236757232
-0.600988541006192 0.617404721278091
-0.521495762265019 0.467043687692098
-0.468244839387656 0.588361635046145
-0.561242151635606 0.542224204485095
-0.49487030082634 0.527702661369125
-0.534616690196926 0.602883178162121
0.599079036913824 -0.617044250955864
0.516532775990793 -0.466352229784041
0.465569809292409 -0.587611211665298
0.557805906452309 -0.541698240369953
0.491051292641603 -0.526981720724672
0.532324423103118 -0.602327731310584
-0.617625570095751 -0.599422271363429
-0.467654269717395 -0.517165487370322
-0.58863444829149 -0.466310035711302
-0.542639919906574 -0.558293879366876
-0.528144359004446 -0.491737761540815
-0.603130009193624 -0.532866153537368
0.617096592416075 0.600997790130637
0.466492299202176 0.521512313329815
0.587680508088005 0.468265284820639
0.541794445809126 0.561255051730226
0.527086403645094 0.494888799075229
0.602388550252043 0.53463153747564
0.532207782605622 -0.0231109371461662
0.541603382164043 -0.197235349125411
0.632723488293621 -0.105077002840522
0.536905582384833 -0.110173143135789
0.587163435228835 -0.151156175982966
0.582465635449624 -0.0640939699933438
-0.537939710054412 0.0234186136969135
-0.547834565701667 0.197797342888303
-0.636648884086039 0.105362363412184
-0.54288713787804 0.110607978292608
-0.592241724893856 0.151579853150244
-0.587294297070228 0.0643904885545488
-0.239570047748406 0.483323269694826
-0.347772008301689 0.543667817851681
-0.401022931179095 0.422349870497688
-0.293671028025048 0.513495543773254
-0.374397469740393 0.483008844174687
-0.320296489463752 0.452836570096259
0.0232807665744328 0.537943847820611
0.197416236137915 0.547846005408217
0.105192081672649 0.636653995444285
0.110348501356174 0.542894926614415
0.151304158905282 0.592250000426254
0.064236424123541 0.58729892163245
-0.027850604296823 -0.532310039190652
-0.199931103856116 -0.542034549939802
-0.107516750645343 -0.632898518162005
-0.113890854076469 -0.537172294565228
-0.15372392725073 -0.587466534050906
-0.0676836774710831 -0.582604278676331
-0.483544118512487 -0.238003778105644
-0.543940631097027 -0.345837204625335
-0.422960452522985 -0.396692656284398
-0.513742374804757 -0.29192049136549
-0.483450541810008 -0.371264930454868
-0.453252285517738 -0.317348217195022
0.479183801693275 0.239694302433382
0.541709577847029 0.347830788921515
0.420521368961254 0.401077817430734
0.510446689770153 0.293762545677449
0.481115473404143 0.374454303176126
0.449852585327266 0.320386059932059
0.233628599396438 -0.479072308841859
0.343752996786575 -0.54162056429392
0.394715963485001 -0.420361582412717
0.288690798091507 -0.51034643656789
0.36923448013579 -0.48099107335332
0.314172281440721 -0.449716945627289
-0.0667910695156385 -0.018450986708825
-0.153367536809138 0.0312459476418073
-0.113796741253415 -0.105049894477105
-0.110079303162388 0.00639748046649108
-0.133582139031276 -0.0369019734176495
-0.0902939053845268 -0.0617504405929657
0.0663082970655471 0.0210889392627604
0.152516225648549 -0.0237074577108499
0.112716962613638 0.108063214761889
0.109412261357048 -0.00130925922404474
0.132616594131094 0.0421778785255202
0.0895126298395925 0.0645760770123255
0.0196011284226189 -0.0656976523709445
-0.0274045433151541 -0.152296560139218
0.105809057005627 -0.110494049344558
-0.00390170744626757 -0.108997106255081
0.0392022568452371 -0.131395304741888
0.0627050927141236 -0.0880958508577514
-0.0200839008727102 0.06833560492488
0.026324764675377 0.155309880424003
-0.106660368166216 0.118032539275516
0.00312043190133335 0.111822742674441
-0.0401678017454198 0.13667120984976
-0.0633721345194636 0.0931840721001981
-0.435145817642368 0.0282437311658818
-0.328267206849885 0.11983771581908
-0.445040673289649 0.202622460357279
-0.381706512246127 0.0740407234924808
-0.386653940069769 0.16123008808818
-0.44009324546601 0.115433095761581
0.429603468056655 -0.0255129631239248
0.324910544646698 -0.112283080773788
0.438999067615101 -0.199637375103177
0.377257006351677 -0.0688980219488563
0.381954806130902 -0.155960227938483
0.43430126783588 -0.112575169113552
-0.0311249107228704 -0.429884544723046
-0.117339669923476 -0.325622034759166
-0.203205410282171 -0.439609055472221
-0.074232290323173 -0.377753289741107
-0.160272540102824 -0.382615545115696
-0.117165160502521 -0.434746800097636
0.0264779669506558 0.435348372715355
0.114783682801309 0.328867570128496
0.200613436514146 0.445250530302987
0.0706308248759822 0.382107971421926
0.157698559657728 0.387059050215744
0.113545701732401 0.440299451509173
-0.452394005406261 0.832966831914535
-0.583548068959578 0.747303609112964
-0.447036141487814 0.713369105190743
-0.52024966499861 0.793676288172225
-0.516026177465904 0.731652812982002
-0.450302654496919 0.774134324681625
0.452011242404821 -0.832771855385224
0.583165305958138 -0.747108632583653
0.445887852483496 -0.712784175602811
0.519866901997171 -0.793481311642914
0.515260651463026 -0.731262859923381
0.449537128494041 -0.773744371623004
-0.832992814128377 -0.452209738389465
-0.747329591326806 -0.583363801942782
-0.713447051832271 -0.446483340437427
-0.793702270386067 -0.520065397981815
-0.731704777409687 -0.515657643432313
-0.77418628910931 -0.449934120463328
0.832780332866473 0.45239960356053
0.747117110064902 0.583553667113847
0.712809608046557 0.447052935950622
0.793489789124163 0.52025526315288
0.731279814885878 0.516037373774443
0.773761326585501 0.450313850805458
-0.942806481738621 0.098444059712325
-0.830505791533137 0.137760315000796
-0.913854470712777 0.25239651076199
-0.887773790817496 0.118275232981914
-0.873677295005097 0.195252821365724
-0.932473989272085 0.176170354912492
0.942432634520296 -0.0984168825150238
0.829384249878161 -0.137678783408892
0.913480623494452 -0.252369333564689
0.887026096380845 -0.118220878587312
0.872929600568446 -0.195198466971121
0.932100142053759 -0.17614317771519
-0.0986492394488163 -0.942449304031571
-0.13837585421027 -0.829434258411985
-0.252601690498482 -0.913497293005726
-0.118685592454897 -0.887059435403394
-0.195663180838707 -0.872962939590995
-0.176375534648983 -0.932116811565034
0.0984278424037979 0.942806968534645
0.137711663075214 0.830507251921207
0.252380293453463 0.913854957508801
0.11824279836486 0.887774764409543
0.19522038674867 0.873678268597144
0.176154137603964 0.932474476068108
0.108716734593178 -0.948449079059688
0.262669185642473 -0.919497068033946
0.168578339643835 -0.847433583496374
0.186443029793153 -0.938116586593178
0.215798171127472 -0.884962489647295
0.138820582743858 -0.899058985459644
0.948450615739738 0.108983805886006
0.919498604713996 0.262936256935302
0.847438193536525 0.16937955352232
0.938118123273229 0.186710101085981
0.884965563007395 0.216332313713128
0.899062058819744 0.139354725329514
-0.94869907460997 -0.108949755545311
-0.919747063584228 -0.262902206594607
-0.848183570147221 -0.169277402500236
-0.938366582143461 -0.186676050745287
-0.885462480747859 -0.216264213031739
-0.899558976560209 -0.139286624648125
-0.108976486788687 0.948695675220928
-0.262928937837983 0.919743664195186
-0.169357596230365 0.848173371980094
-0.186702781988663 0.938363182754418
-0.216317675518492 0.885455681969775
-0.139340087134878 0.899552177782124
0.832767293640852 0.335228258879601
0.716642108782525 0.332265093099239
0.766668000755634 0.243281077695399
0.774704701211689 0.333746675989421
0.741655054769084 0.28777308539732
0.799717647198246 0.289254668287501
-0.833228233772988 -0.335004343367842
-0.717528011438471 -0.33166144724535
-0.767625858628235 -0.242989061502251
-0.77537812260573 -0.333332895306596
-0.742576935033357 -0.287325254373802
-0.800427046200615 -0.288996702435047
0.89743453890039 0.0105669233712147
0.800887059020178 0.0716931151317494
0.788851096581368 -0.0294254216468898
0.849160798960285 0.041130019251482
0.794869077800777 0.0211338467424296
0.843142817740883 -0.00942924913783787
-0.0105486443851224 0.898053932395929
-0.0716601979510206 0.801996571478096
0.0294656204105302 0.790219158105604
-0.0411044211680715 0.850025251937013
-0.0210972887702449 0.796107864791854
0.00945848801270425 0.84413654525077
0.010067495144594 -0.897449671731615
0.0706595443194723 -0.800899118491302
-0.0303895637410955 -0.788899568435141
0.0403635197320332 -0.84917439511146
0.0201349902891882 -0.794899343463226
-0.0101610342982511 -0.843174620083382
-0.898056844988948 -0.0105056958332189
-0.8020062828492 -0.0715637869123644
-0.790221097106576 0.029541003579488
-0.850031563919075 -0.0410347413727916
-0.796113689977892 -0.0210113916664379
-0.844138971047765 0.00951765387313491
0.334572826431064 -0.832757279479553
0.330832938339285 -0.716615139658729
0.242091502661206 -0.766654913234235
0.332702882385175 -0.774686209569142
0.286462220500247 -0.741635026446486
0.288332164546136 -0.799706096356897
-0.335215341628014 0.833198852170103
-0.332240979539114 0.717446665407901
-0.243253522249176 0.767589678247265
-0.333728160583564 0.775322758789003
-0.287747250894146 0.742518171827587
-0.289234431938595 0.800394265208688
-0.588239462117916 -0.0733512712870762
-0.686948636149511 0.00859247842819396
-0.69873382189221 -0.0925123120636622
-0.637594049133714 -0.0323793964294413
-0.692841229020864 -0.0419599168177347
-0.643486642005065 -0.0829317916753698
0.583785816889822 0.0735275043856025
0.68430152257779 -0.00843856130875221
0.696337485016676 0.0926799754698907
0.634043669733807 0.0325444715384253
0.690319503797236 0.0421207070805699
0.640061650953252 0.0831037399277472
0.564790852122713 0.168578780476852
0.677342520249534 0.187731251561133
0.627316628276496 0.276715266964999
0.621066686186124 0.178155016018993
0.652329574263018 0.232223259263067
0.596053740199606 0.222647023720926
-0.569083131394385 -0.168239859404562
-0.679577491168647 -0.187400900181141
-0.629479643978954 -0.276073285924266
-0.624330311281517 -0.177820379792852
-0.654528567573803 -0.231737093052705
-0.599281387686671 -0.222156572664415
0.163776398208184 -0.564721686570208
0.185159359920229 -0.677309715597733
0.273900795598334 -0.627269942022298
0.174467879064207 -0.621015701083971
0.229530077759283 -0.652289828810018
0.21883859690326 -0.595995814296255
-0.168450857664734 0.5690537497915
-0.187665360928065 0.679541310787677
-0.27665281821803 0.629398297948384
-0.1780581092964 0.624297530289589
-0.232159089573049 0.654469804368033
-0.222551837941383 0.599226023869944
0.0688811263388513 -0.583741798329841
-0.0107850200096683 -0.684330277301162
0.0902640880509032 -0.696329827357398
0.0290480531645916 -0.634036037815502
0.039739534020618 -0.690330052329283
0.0795726071948779 -0.640035812843622
-0.0733942198389798 0.588236549524897
0.00851709525923616 0.686946697148539
-0.0926087231023184 0.698724110521106
-0.0324385622898719 0.637591623336718
-0.0420458139215417 0.692835403834825
-0.0830014714706497 0.643480330023004

t	p5 11 12 22 81 82 83 84 105 106 107 108 109 110 111 112 457 460 458 462 461 459
t	p5 5 6 24 49 50 51 52 113 114 115 116 117 118 119 120 463 466 464 468 467 465
t	p5 8 9 21 65 66 67 68 121 122 123 124 125 126 127 128 469 472 470 474 473 471
t	p5 14 15 23 97 98 99 100 129 130 131 132 133 134 135 136 475 478 476 480 479 477
t	p5 34 19 36 137 138 139 140 141 142 143 144 145 146 147 148 481 484 482 486 485 483
t	p5 17 35 33 149 150 151 152 153 154 155 156 157 158 159 160 487 490 488 492 491 489
t	p5 20 33 36 161 162 163 164 165 166 167 168 169 170 171 172 493 496 494 498 497 495
t	p5 34 35 18 173 174 175 176 177 178 179 180 181 182 183 184 499 502 500 504 503 501
t	p5 18 23 34 185 186 187 188 189 190 191 192 184 183 182 181 505 508 506 510 509 507
t	p5 20 21 33 193 194 195 196 197 198 199 200 164 163 162 161 511 514 512 516 515 513
t	p5 17 22 35 201 202 203 204 205 206 207 208 152 151 150 149 517 520 518 522 521 519
t	p5 19 24 36 209 210 211 212 213 214 215 216 144 143 142 141 523 526 524 528 527 525
t	p5 12 30 22 217 218 219 220 221 222 223 224 108 107 106 105 529 532 530 534 533 531
t	p5 6 28 24 225 226 227 228 229 230 231 232 116 115 114 113 535 538 536 540 539 537
t	p5 9 29 21 233 234 235 236 237 238 239 240 124 123 122 121 541 544 542 546 545 543
t	p5 15 27 23 241 242 243 244 245 246 247 248 132 131 130 129 547 550 548 552 551 549
t	p5 8 21 32 128 127 126 125 249 250 251 252 253 254 255 256 553 556 554 558 557 555
t	p5 14 23 31 136 135 134 133 257 258 259 260 261 262 263 264 559 562 560 564 563 561
t	p5 11 22 25 112 111 110 109 265 266 267 268 269 270 271 272 565 568 566 570 569 567
t	p5 5 24 26 120 119 118 117 273 274 275 276 277 278 279 280 571 574 572 576 575 573
t	p5 19 23 27 281 282 283 284 248 247 246 245 285 286 287 288 577 580 578 582 581 579
t	p5 17 21 29 289 290 291 292 240 239 238 237 293 294 295 296 583 586 584 588 587 585
t	p5 20 32 21 297 298 299 300 252 251 250 249 196 195 194 193 589 592 590 594 593 591
t	p5 20 24 28 301 302 303 304 232 231 230 229 305 306 307 308 595 598 596 600 599 597
t	p5 18 22 30 309 310 311 312 224 223 222 221 313 314 315 316 601 604 602 606 605 603
t	p5 17 25 22 317 318 319 320 268 267 266 265 204 203 202 201 607 610 608 612 611 609
t	p5 19 26 24 321 322 323 324 276 275 274 273 212 211 210 209 613 616 614 618 617 615
t	p5 18 31 23 325 326 327 328 260 259 258 257 188 187 186 185 619 622 620 624 623 621
t	p5 16 33 35 329 330 331 332 156 155 154 153 333 334 335 336 625 628 626 630 629 627
t	p5 16 34 36 337 338 339 340 148 147 146 145 341 342 343 344 631 634 632 636 635 633
t	p5 16 35 34 336 335 334 333 176 175 174 173 340 339 338 337 637 640 638 642 641 639
t	p5 16 36 33 344 343 342 341 168 167 166 165 332 331 330 329 643 646 644 648 647 645
t	p5 17 33 21 160 159 158 157 200 199 198 197 292 291 290 289 649 652 650 654 653 651
t	p5 19 34 23 140 139 138 137 192 191 190 189 284 283 282 281 655 658 656 660 659 657
t	p5 18 35 22 180 179 178 177 208 207 206 205 312 311 310 309 661 664 662 666 665 663
t	p5 20 36 24 172 171 170 169 216 215 214 213 304 303 302 301 667 670 668 672 671 669
t	p5 7 8 32 61 62 63 64 256 255 254 253 345 346 347 348 673 676 674 678 677 675
t	p5 13 14 31 93 94 95 96 264 263 262 261 349 350 351 352 679 682 680 684 683 681
t	p5 10 11 25 77 78 79 80 272 271 270 269 353 354 355 356 685 688 686 690 689 687
t	p5 4 5 26 45 46 47 48 280 279 278 277 357 358 359 360 691 694 692 696 695 693
t	p5 2 29 9 361 362 363 364 236 235 234 233 69 70 71 72 697 700 698 702 701 699
t	p5 0 27 15 365 366 367 368 244 243 242 241 101 102 103 104 703 706 704 708 707 705
t	p5 3 30 12 369 370 371 372 220 219 218 217 85 86 87 88 709 712 710 714 713 711
t	p5 1 28 6 373 374 375 376 228 227 226 225 53 54 55 56 715 718 716 720 719 717
t	p5 3 13 37 89 90 91 92 377 378 379 380 381 382 383 384 721 724 722 726 725 723
t	p5 0 4 39 41 42 43 44 385 386 387 388 389 390 391 392 727 730 728 732 731 729
t	p5 2 10 38 73 74 75 76 393 394 395 396 397 398 399 400 733 736 734 738 737 735
t	p5 1 7 40 57 58 59 60 401 402 403 404 405 406 407 408 739 742 740 744 743 741
t	p5 4 26 39 360 359 358 357 409 410 411 412 388 387 386 385 745 748 746 750 749 747
t	p5 10 25 38 356 355 354 353 413 414 415 416 396 395 394 393 751 754 752 756 755 753
t	p5 0 39 27 392 391 390 389 417 418 419 420 368 367 366 365 757 760 758 762 761 759
t	p5 1 40 28 408 407 406 405 421 422 423 424 376 375 374 373 763 766 764 768 767 765
t	p5 3 37 30 384 383 382 381 425 426 427 428 372 371 370 369 769 772 770 774 773 771
t	p5 2 38 29 400 399 398 397 429 430 431 432 364 363 362 361 775 778 776 780 779 777
t	p5 13 31 37 352 351 350 349 433 434 435 436 380 379 378 377 781 784 782 786 785 783
t	p5 7 32 40 348 347 346 345 437 438 439 440 404 403 402 401 787 790 788 792 791 789
t	p5 17 29 38 296 295 294 293 432 431 430 429 441 442 443 444 793 796 794 798 797 795
t	p5 19 27 39 288 287 286 285 420 419 418 417 445 446 447 448 799 802 800 804 803 801
t	p5 19 39 26 448 447 446 445 412 411 410 409 324 323 322 321 805 808 806 810 809 807
t	p5 17 38 25 444 443 442 441 416 415 414 413 320 319 318 317 811 814 812 816 815 813
t	p5 18 37 31 449 450 451 452 436 435 434 433 328 327 326 325 817 820 818 822 821 819
t	p5 20 40 32 453 454 455 456 440 439 438 437 300 299 298 297 823 826 824 828 827 825
t	p5 18 30 37 316 315 314 313 428 427 426 425 452 451 450 449 829 832 830 834 833 831
t	p5 20 28 40 308 307 306 305 424 423 422 421 456 455 454 453 835 838 836 840 839 837

domain
boundary
1 1 16
e	p5 0 4 41 42 43 44 
e	p5 4 5 45 46 47 48 
e	p5 5 6 49 50 51 52 
e	p5 6 1 53 54 55 56 
e	p5 1 7 57 58 59 60 
e	p5 7 8 61 62 63 64 
e	p5 8 9 65 66 67 68 
e	p5 9 2 69 70 71 72 
e	p5 2 10 73 74 75 76 
e	p5 10 11 77 78 79 80 
e	p5 11 12 81 82 83 84 
e	p5 12 3 85 86 87 88 
e	p5 3 13 89 90 91 92 
e	p5 13 14 93 94 95 96 
e	p5 14 15 97 98 99 100 
e	p5 15 0 101 102 103 104 

