#!geo

mesh
4
header
 dimension 2
 order     5
 nodes	80
 edges	16
end header

1 0
0 1
-1 0
0 -1
0.923879532512616 0.382683432361881
0.707106781187053 0.707106781186042
0.382683432362906 0.923879532512191
-0.382683432361881 0.923879532512616
-0.707106781186042 0.707106781187053
-0.923879532512191 0.382683432362906
-0.923879532512616 -0.382683432361881
-0.707106781187053 -0.707106781186042
-0.382683432362906 -0.923879532512191
0.382683432361881 -0.923879532512616
0.707106781186042 -0.707106781187053
0.923879532512191 -0.382683432362906
0.99691733373318 0.078459095727184
0.987688340595341 0.156434465038944
0.972369920398138 0.233445363853984
0.951056516295991 0.309016994372369
0.891006524189706 0.453990499736921
0.852640164355316 0.522498564713952
0.809016994375991 0.587785252291037
0.760405965600848 0.649448048329227
0.649448048330158 0.760405965600053
0.587785252291976 0.809016994375308
0.522498564714947 0.852640164354706
0.453990499737968 0.891006524189172
0.30901699437312 0.951056516295747
0.233445363854549 0.972369920398002
0.156434465039354 0.987688340595277
0.078459095727414 0.996917333733162
-0.078459095727184 0.99691733373318
-0.156434465038944 0.987688340595341
-0.233445363853984 0.972369920398138
-0.309016994372369 0.951056516295991
-0.453990499736921 0.891006524189706
-0.522498564713952 0.852640164355316
-0.587785252291037 0.809016994375991
-0.649448048329227 0.760405965600848
-0.760405965600053 0.649448048330158
-0.809016994375308 0.587785252291976
-0.852640164354706 0.522498564714947
-0.891006524189172 0.453990499737968
-0.951056516295747 0.30901699437312
-0.972369920398002 0.233445363854549
-0.987688340595277 0.156434465039354
-0.996917333733162 0.078459095727414
-0.99691733373318 -0.078459095727184
-0.987688340595341 -0.156434465038944
-0.972369920398138 -0.233445363853984
-0.951056516295991 -0.309016994372369
-0.891006524189706 -0.453990499736921
-0.852640164355316 -0.522498564713952
-0.809016994375991 -0.587785252291037
-0.760405965600848 -0.649448048329227
-0.649448048330158 -0.760405965600053
-0.587785252291976 -0.809016994375308
-0.522498564714947 -0.852640164354706
-0.453990499737968 -0.891006524189172
-0.30901699437312 -0.951056516295747
-0.233445363854549 -0.972369920398002
-0.156434465039354 -0.987688340595277
-0.078459095727414 -0.996917333733162
0.078459095727184 -0.99691733373318
0.156434465038944 -0.987688340595341
0.233445363853984 -0.972369920398138
0.309016994372369 -0.951056516295991
0.453990499736921 -0.891006524189706
0.522498564713952 -0.852640164355316
0.587785252291037 -0.809016994375991
0.649448048329227 -0.760405965600848
0.760405965600053 -0.649448048330158
0.809016994375308 -0.587785252291976
0.852640164354706 -0.522498564714947
0.891006524189172 -0.453990499737968
0.951056516295747 -0.30901699437312
0.972369920398002 -0.233445363854549
0.987688340595277 -0.156434465039354
0.996917333733162 -0.078459095727414

e	0 4
e	4 5
e	5 6
e	6 1
e	1 7
e	7 8
e	8 9
e	9 2
e	2 10
e	10 11
e	11 12
e	12 3
e	3 13
e	13 14
e	14 15
e	15 0

