#!geo

mesh
4
header
 dimension	2
 order		10
 nodes		120
 edges	12
end header

1 0
0 -1
-1 0
0 1
0.866025403785716 -0.499999999997788
0.499999999998842 -0.866025403785107
-0.499999999997788 -0.866025403785716
-0.866025403785107 -0.499999999998842
-0.866025403785716 0.499999999997788
-0.499999999998842 0.866025403785107
0.499999999997788 0.866025403785716
0.866025403785107 0.499999999998842
0.998629534754586 -0.0523359562427176
0.994521895368323 -0.104528463267183
0.987688340595243 -0.156434465039564
0.978147600733994 -0.207911690816875
0.965925826289376 -0.258819045101374
0.951056516295602 -0.309016994373567
0.933580426497818 -0.358367949543695
0.913545457643417 -0.406736643073968
0.891006524189403 -0.453990499737516
0.838670567946677 -0.544639035013098
0.809016994376151 -0.587785252290817
0.777145961458086 -0.629320391048461
0.743144825478442 -0.669130606357695
0.707106781187483 -0.707106781185612
0.669130606359462 -0.743144825476851
0.629320391050057 -0.777145961456793
0.587785252292243 -0.809016994375115
0.544639035014318 -0.838670567945885
0.4539904997385 -0.891006524188901
0.406736643074861 -0.913545457643019
0.358367949544473 -0.933580426497519
0.309016994374264 -0.951056516295376
0.258819045101953 -0.965925826289221
0.207911690817299 -0.978147600733903
0.156434465039903 -0.98768834059519
0.104528463267421 -0.994521895368298
0.0523359562428158 -0.998629534754581
-0.0523359562427176 -0.998629534754586
-0.104528463267183 -0.994521895368323
-0.156434465039564 -0.987688340595243
-0.207911690816875 -0.978147600733994
-0.258819045101374 -0.965925826289376
-0.309016994373567 -0.951056516295602
-0.358367949543695 -0.933580426497818
-0.406736643073968 -0.913545457643417
-0.453990499737516 -0.891006524189403
-0.544639035013098 -0.838670567946677
-0.587785252290817 -0.809016994376151
-0.629320391048461 -0.777145961458086
-0.669130606357695 -0.743144825478442
-0.707106781185612 -0.707106781187483
-0.743144825476851 -0.669130606359462
-0.777145961456793 -0.629320391050057
-0.809016994375115 -0.587785252292243
-0.838670567945885 -0.544639035014318
-0.891006524188901 -0.4539904997385
-0.913545457643019 -0.406736643074861
-0.933580426497519 -0.358367949544473
-0.951056516295376 -0.309016994374264
-0.965925826289221 -0.258819045101953
-0.978147600733903 -0.207911690817299
-0.98768834059519 -0.156434465039903
-0.994521895368298 -0.104528463267421
-0.998629534754581 -0.0523359562428158
-0.998629534754586 0.0523359562427176
-0.994521895368323 0.104528463267183
-0.987688340595243 0.156434465039564
-0.978147600733994 0.207911690816875
-0.965925826289376 0.258819045101374
-0.951056516295602 0.309016994373567
-0.933580426497818 0.358367949543695
-0.913545457643417 0.406736643073968
-0.891006524189403 0.453990499737516
-0.838670567946677 0.544639035013098
-0.809016994376151 0.587785252290817
-0.777145961458086 0.629320391048461
-0.743144825478442 0.669130606357695
-0.707106781187483 0.707106781185612
-0.669130606359462 0.743144825476851
-0.629320391050057 0.777145961456793
-0.587785252292243 0.809016994375115
-0.544639035014318 0.838670567945885
-0.4539904997385 0.891006524188901
-0.406736643074861 0.913545457643019
-0.358367949544473 0.933580426497519
-0.309016994374264 0.951056516295376
-0.258819045101953 0.965925826289221
-0.207911690817299 0.978147600733903
-0.156434465039903 0.98768834059519
-0.104528463267421 0.994521895368298
-0.0523359562428158 0.998629534754581
0.0523359562427176 0.998629534754586
0.104528463267183 0.994521895368323
0.156434465039564 0.987688340595243
0.207911690816875 0.978147600733994
0.258819045101374 0.965925826289376
0.309016994373567 0.951056516295602
0.358367949543695 0.933580426497818
0.406736643073968 0.913545457643417
0.453990499737516 0.891006524189403
0.544639035013098 0.838670567946677
0.587785252290817 0.809016994376151
0.629320391048461 0.777145961458086
0.669130606357695 0.743144825478442
0.707106781185612 0.707106781187483
0.743144825476851 0.669130606359462
0.777145961456793 0.629320391050057
0.809016994375115 0.587785252292243
0.838670567945885 0.544639035014318
0.891006524188901 0.4539904997385
0.913545457643019 0.406736643074861
0.933580426497519 0.358367949544473
0.951056516295376 0.309016994374264
0.965925826289221 0.258819045101953
0.978147600733903 0.207911690817299
0.98768834059519 0.156434465039903
0.994521895368298 0.104528463267421
0.998629534754581 0.0523359562428158

e	p10 0 4 12 13 14 15 16 17 18 19 20
e	p10 4 5 21 22 23 24 25 26 27 28 29
e	p10 5 1 30 31 32 33 34 35 36 37 38
e	p10 1 6 39 40 41 42 43 44 45 46 47
e	p10 6 7 48 49 50 51 52 53 54 55 56
e	p10 7 2 57 58 59 60 61 62 63 64 65
e	p10 2 8 66 67 68 69 70 71 72 73 74
e	p10 8 9 75 76 77 78 79 80 81 82 83
e	p10 9 3 84 85 86 87 88 89 90 91 92
e	p10 3 10 93 94 95 96 97 98 99 100 101
e	p10 10 11 102 103 104 105 106 107 108 109 110
e	p10 11 0 111 112 113 114 115 116 117 118 119

