#!geo

mesh
4
header
 dimension 3
 nodes	36
 quadrangles	25
 edges	60
end header

0 1 0
0.2 1 0
0.4 1 0
0.6 1 0
0.8 1 0
1 1 0
0 1 0.2
0.2 1 0.2
0.4 1 0.2
0.6 1 0.2
0.8 1 0.2
1 1 0.2
0 1 0.4
0.2 1 0.4
0.4 1 0.4
0.6 1 0.4
0.8 1 0.4
1 1 0.4
0 1 0.6
0.2 1 0.6
0.4 1 0.6
0.6 1 0.6
0.8 1 0.6
1 1 0.6
0 1 0.8
0.2 1 0.8
0.4 1 0.8
0.6 1 0.8
0.8 1 0.8
1 1 0.8
0 1 1
0.2 1 1
0.4 1 1
0.6 1 1
0.8 1 1
1 1 1

q	6 7 1 0
q	12 13 7 6
q	18 19 13 12
q	24 25 19 18
q	30 31 25 24
q	7 8 2 1
q	13 14 8 7
q	19 20 14 13
q	25 26 20 19
q	31 32 26 25
q	8 9 3 2
q	14 15 9 8
q	20 21 15 14
q	26 27 21 20
q	32 33 27 26
q	9 10 4 3
q	15 16 10 9
q	21 22 16 15
q	27 28 22 21
q	33 34 28 27
q	10 11 5 4
q	16 17 11 10
q	22 23 17 16
q	28 29 23 22
q	34 35 29 28

e	1 7
e	6 7
e	6 0
e	0 1
e	7 13
e	12 13
e	12 6
e	13 19
e	18 19
e	18 12
e	19 25
e	24 25
e	24 18
e	25 31
e	30 31
e	30 24
e	2 8
e	7 8
e	1 2
e	8 14
e	13 14
e	14 20
e	19 20
e	20 26
e	25 26
e	26 32
e	31 32
e	3 9
e	8 9
e	2 3
e	9 15
e	14 15
e	15 21
e	20 21
e	21 27
e	26 27
e	27 33
e	32 33
e	4 10
e	9 10
e	3 4
e	10 16
e	15 16
e	16 22
e	21 22
e	22 28
e	27 28
e	28 34
e	33 34
e	5 11
e	10 11
e	4 5
e	11 17
e	16 17
e	17 23
e	22 23
e	23 29
e	28 29
e	29 35
e	34 35

domain
boundary
2 2 25
0
1
2
3
4
5
6
7
8
9
10
11
12
13
14
15
16
17
18
19
20
21
22
23
24
