#!geo

mesh
4
header
 dimension	3
 order		9
 nodes		10
 edges	1
end header

0 0 0
1 0 0
0.130864197530864 0.0148148148148148 0.00987654320987654
0.25679012345679 0.0259259259259259 0.0172839506172839
0.377777777777778 0.0333333333333333 0.0222222222222222
0.493827160493827 0.037037037037037 0.0246913580246914
0.604938271604938 0.037037037037037 0.0246913580246914
0.711111111111111 0.0333333333333333 0.0222222222222222
0.812345679012346 0.0259259259259259 0.0172839506172839
0.908641975308642 0.0148148148148148 0.00987654320987655

e	p9 0 1 2 3 4 5 6 7 8 9

