#!geo

mesh
4
header
 dimension	2
 order		9
 nodes		10
 edges	1
end header

0 0
1 0
0.209876543209877 0.0493827160493827
0.395061728395062 0.0864197530864197
0.555555555555556 0.111111111111111
0.691358024691358 0.123456790123457
0.802469135802469 0.123456790123457
0.888888888888889 0.111111111111111
0.950617283950617 0.0864197530864197
0.987654320987654 0.0493827160493827

e	p9 0 1 2 3 4 5 6 7 8 9

