#!geo

mesh
4
header
 dimension 3
 nodes	158
 tetrahedra	183
 prisms	88
 hexahedra	16
 triangles	510
 quadrangles	208
 edges	588
end header

0 0 0
1 0 0
1 0.5 0
0 0.5 0
0 0 0.5
1 0 0.5
1 0.5 0.5
0 0.5 0.5
0 1 0
0 1 0.5
1 1 0.5
1 1 0
0 0 1
1 0 1
1 0.5 1
0 0.5 1
1 1 1
0 1 1
0.2499999999994 0 0
0.499999999999022 0 0
0.749999999999337 0 0
1 0.249999999999511 0
0.750000000000347 0.5 0
0.500000000001388 0.5 0
0.250000000001041 0.5 0
0 0.250000000000694 0
0.2499999999994 0 0.5
0.499999999999022 0 0.5
0.749999999999337 0 0.5
1 0.249999999999511 0.5
0.750000000000347 0.5 0.5
0.500000000001388 0.5 0.5
0.250000000001041 0.5 0.5
0 0.250000000000694 0.5
0 0 0.249999999999511
1 0 0.249999999999511
1 0.5 0.249999999999511
0 0.5 0.249999999999511
0 1 0.249999999999511
0.250000000001041 1 0.5
0.500000000001388 1 0.5
0.750000000000347 1 0.5
1 1 0.249999999999511
0.750000000000347 1 0
0.500000000001388 1 0
0.250000000001041 1 0
0 0.75 0
0 0.75 0.5
1 0.75 0.5
1 0.75 0
0.2499999999994 0 1
0.499999999999022 0 1
0.749999999999337 0 1
1 0.249999999999511 1
0.750000000000347 0.5 1
0.500000000001388 0.5 1
0.250000000001041 0.5 1
0 0.250000000000694 1
0 0 0.75
1 0 0.75
1 0.5 0.75
0 0.5 0.75
1 0.75 1
0.750000000000347 1 1
0.500000000001388 1 1
0.250000000001041 1 1
0 0.75 1
1 1 0.75
0 1 0.75
0.622104241986081 0.270945933522037 0
0.374517373664575 0.274324322253731 0
0.832850706997572 0.274324322253551 0
0.0937499999999801 0.15625000000026 0
0.895712676749227 0.131081080563265 0
0.161377895610833 0.280095720375781 0
0.622104241986081 0.270945933522037 0.5
0.374517373664575 0.274324322253731 0.5
0.832850706997572 0.274324322253551 0.5
0.0937499999999801 0.15625000000026 0.5
0.895712676749227 0.131081080563265 0.5
0.161377895610833 0.280095720375781 0.5
0.377895752895067 0 0.229054054053997
0.625482625481909 0 0.225675675675625
0.906249999999752 0 0.343749999999817
0.093749999999775 0 0.343749999999817
0.838622104246722 0 0.219904279279159
0.161940958815607 0 0.220467342342221
0.62210424710501 0.5 0.229054054053997
0.374517374518398 0.5 0.225675675675625
0.0937500000003903 0.5 0.343749999999817
0.90625000000013 0.5 0.343749999999817
0.161377895753478 0.5 0.219904279279159
0.838059041184306 0.5 0.220467342342221
1 0.178571428571219 0.24999999999986
1 0.360714285714097 0.324999999999825
1 0.357857142856965 0.164999999999839
0 0.250000000000198 0.321428571428362
0 0.175000000000248 0.139285714285526
0 0.335000000000228 0.14214285714268
0 0.75 0.249999999999511
0.750000000000347 0.75 0.5
0.500000000001388 0.75 0.5
0.250000000001041 0.75 0.5
1 0.75 0.249999999999511
0.750000000000347 0.75 0
0.500000000001388 0.75 0
0.250000000001041 0.75 0
0.62210424710501 1 0.229054054053997
0.374517374518398 1 0.225675675675625
0.0937500000003903 1 0.343749999999817
0.90625000000013 1 0.343749999999817
0.161377895753478 1 0.219904279279159
0.838059041184306 1 0.220467342342221
0.2499999999994 0 0.75
0.499999999999022 0 0.75
0.749999999999337 0 0.75
1 0.249999999999511 0.75
0.750000000000347 0.5 0.75
0.500000000001388 0.5 0.75
0.250000000001041 0.5 0.75
0 0.250000000000694 0.75
0.622104241986081 0.270945933522037 1
0.374517373664575 0.274324322253731 1
0.832850706997572 0.274324322253551 1
0.0937499999999801 0.15625000000026 1
0.895712676749227 0.131081080563265 1
0.161377895610833 0.280095720375781 1
1 0.75 0.75
0.250000000001041 1 0.75
0.500000000001388 1 0.75
0.750000000000347 1 0.75
0 0.75 0.75
0.750000000000347 0.75 1
0.500000000001388 0.75 1
0.250000000001041 0.75 1
0.679181277751923 0.341281235218048 0.253381252288818
0.849643766880035 0.341281235218048 0.253381252288818
0.167793720960617 0.170818746089935 0.253381252288818
0.167793720960617 0.341281235218048 0.253381252288818
0.338256239891052 0.341281235218048 0.253381252288818
0.338256239891052 0.170818746089935 0.253381252288818
0.508718729019165 0.341281235218048 0.253381252288818
0.849643766880035 0.170818746089935 0.253381252288818
0.62210424710501 0.75 0.229054054053997
0.374517374518398 0.75 0.225675675675625
0.0937500000003903 0.75 0.343749999999817
0.90625000000013 0.75 0.343749999999817
0.161377895753478 0.75 0.219904279279159
0.838059041184306 0.75 0.220467342342221
0.622104241986081 0.270945933522037 0.75
0.374517373664575 0.274324322253731 0.75
0.832850706997572 0.274324322253551 0.75
0.0937499999999801 0.15625000000026 0.75
0.895712676749227 0.131081080563265 0.75
0.161377895610833 0.280095720375781 0.75
0.750000000000347 0.75 0.75
0.500000000001388 0.75 0.75
0.250000000001041 0.75 0.75

T	84 78 4 26
T	75 141 27 140
T	136 142 135 71
T	36 95 92 2
T	94 6 90 77
T	19 140 81 82
T	35 142 83 93
T	28 5 83 79
T	138 96 37 98
T	96 78 84 137
T	138 139 74 24
T	82 142 28 85
T	89 96 37 138
T	142 21 95 93
T	140 80 76 139
T	5 35 83 93
T	20 142 82 85
T	139 32 91 138
T	136 142 71 95
T	32 139 91 88
T	141 87 135 69
T	140 141 82 69
T	95 2 22 92
T	142 85 83 28
T	73 35 1 93
T	35 85 73 1
T	2 95 22 71
T	141 82 69 135
T	140 141 27 82
T	75 31 30 135
T	141 87 31 135
T	34 96 84 137
T	96 80 138 89
T	74 98 91 24
T	142 75 135 82
T	86 140 81 18
T	98 138 91 37
T	74 137 98 97
T	139 74 24 70
T	88 139 91 24
T	80 140 26 137
T	36 94 136 95
T	135 87 92 22
T	21 142 71 73
T	142 82 135 69
T	140 19 70 69
T	136 71 22 92
T	87 30 135 92
T	135 71 69 22
T	80 89 7 32
T	36 136 92 95
T	141 87 88 31
T	136 95 71 92
T	75 140 27 76
T	139 138 91 24
T	71 95 22 92
T	20 142 71 69
T	136 94 93 95
T	140 74 70 18
T	142 20 82 69
T	86 34 97 0
T	74 138 91 98
T	81 140 70 18
T	98 3 91 24
T	32 89 91 138
T	80 96 33 89
T	19 140 82 69
T	141 23 87 69
T	30 136 90 77
T	80 32 139 138
T	23 88 24 70
T	30 75 135 77
T	142 94 77 29
T	141 75 27 82
T	95 21 71 2
T	20 19 82 69
T	23 87 69 22
T	94 36 136 90
T	75 141 31 135
T	29 5 79 93
T	80 89 33 7
T	33 96 78 4
T	142 136 135 77
T	75 142 135 77
T	140 86 81 26
T	89 96 33 7
T	142 29 77 79
T	83 142 79 93
T	28 142 77 79
T	31 87 30 135
T	136 135 90 92
T	5 83 79 93
T	136 36 92 90
T	94 142 77 136
T	32 80 139 76
T	135 30 90 92
T	32 139 88 31
T	136 94 90 77
T	96 80 78 137
T	96 89 37 7
T	86 34 84 137
T	139 141 88 31
T	136 30 90 135
T	135 136 22 92
T	142 135 71 69
T	19 81 70 18
T	137 74 72 97
T	72 74 25 97
T	139 141 31 76
T	140 139 74 137
T	72 86 0 18
T	137 138 74 98
T	96 138 137 98
T	96 80 33 78
T	6 94 29 77
T	139 138 74 137
T	86 140 18 137
T	80 89 32 138
T	19 140 70 81
T	141 75 31 76
T	84 78 26 137
T	96 34 84 4
T	6 36 94 90
T	139 80 138 137
T	138 89 91 37
T	140 80 139 137
T	20 142 73 71
T	141 140 76 139
T	80 96 138 137
T	81 140 26 27
T	78 80 26 137
T	86 140 137 26
T	74 98 25 97
T	87 135 69 22
T	86 137 18 72
T	136 135 22 71
T	141 140 139 70
T	139 141 70 88
T	74 3 98 24
T	74 3 25 98
T	141 23 69 70
T	6 30 90 77
T	23 141 87 88
T	21 142 73 93
T	75 82 28 27
T	140 27 76 26
T	80 140 76 26
T	137 74 18 72
T	140 139 70 74
T	142 94 93 136
T	142 94 29 93
T	85 20 73 1
T	85 35 73 93
T	3 98 91 37
T	138 74 91 24
T	35 142 85 83
T	142 85 73 93
T	75 142 28 82
T	78 96 84 4
T	142 136 93 95
T	142 35 85 93
T	84 86 137 26
T	96 34 97 137
T	137 86 97 72
T	34 86 97 137
T	88 139 24 70
T	137 140 18 74
T	72 86 97 0
T	97 72 0 25
T	96 137 97 98
T	136 30 135 77
T	142 29 79 93
T	142 75 28 77
T	141 23 70 88
T	140 141 69 70
T	75 141 135 82
T	21 73 1 93
T	142 21 71 95
T	142 28 83 79
T	142 20 73 85
T	141 75 76 140
T	82 140 81 27
T	32 139 31 76
P	23 87 22 105 143 104
P	105 143 104 44 107 43
P	30 87 31 100 143 101
P	100 143 101 41 107 40
P	23 24 88 105 106 144
P	105 106 144 44 45 108
P	32 31 88 102 101 144
P	102 101 144 39 40 108
P	88 31 87 144 101 143
P	144 101 143 108 40 107
P	88 87 23 144 143 105
P	144 143 105 108 107 44
P	7 32 89 47 102 145
P	47 102 145 9 39 109
P	7 89 37 47 145 99
P	47 145 99 9 109 38
P	6 90 30 48 146 100
P	48 146 100 10 110 41
P	6 36 90 48 103 146
P	48 103 146 10 42 110
P	3 91 24 46 147 106
P	46 147 106 8 111 45
P	3 37 91 46 99 147
P	46 99 147 8 38 111
P	2 22 92 49 104 148
P	49 104 148 11 43 112
P	2 92 36 49 148 103
P	49 148 103 11 112 42
P	92 90 36 148 146 103
P	148 146 103 112 110 42
P	30 92 87 100 148 143
P	100 148 143 41 112 107
P	22 87 92 104 143 148
P	104 143 148 43 107 112
P	92 30 90 148 100 146
P	148 100 146 112 41 110
P	91 37 89 147 99 145
P	147 99 145 111 38 109
P	32 88 91 102 144 147
P	102 144 147 39 108 111
P	24 91 88 106 147 144
P	106 147 144 45 111 108
P	91 89 32 147 145 102
P	147 145 102 111 109 39
P	75 27 28 149 114 115
P	149 114 115 121 51 52
P	76 31 32 150 118 119
P	150 118 119 122 55 56
P	26 27 76 113 114 150
P	113 114 150 50 51 122
P	76 27 75 150 114 149
P	150 114 149 122 51 121
P	30 31 75 117 118 149
P	117 118 149 54 55 121
P	75 31 76 149 118 150
P	149 118 150 121 55 122
P	29 6 77 116 60 151
P	116 60 151 53 14 123
P	77 6 30 151 60 117
P	151 60 117 123 14 54
P	78 4 26 152 58 113
P	152 58 113 124 12 50
P	33 4 78 120 58 152
P	120 58 152 57 12 124
P	79 5 29 153 59 116
P	153 59 116 125 13 53
P	28 5 79 115 59 153
P	115 59 153 52 13 125
P	80 7 33 154 61 120
P	154 61 120 126 15 57
P	32 7 80 119 61 154
P	119 61 154 56 15 126
P	29 77 79 116 151 153
P	116 151 153 53 123 125
P	77 30 75 151 117 149
P	151 117 149 123 54 121
P	75 28 77 149 115 151
P	149 115 151 121 52 123
P	79 77 28 153 151 115
P	153 151 115 125 123 52
P	78 80 33 152 154 120
P	152 154 120 124 126 57
P	80 26 76 154 113 150
P	154 113 150 126 50 122
P	76 32 80 150 119 154
P	150 119 154 122 56 126
P	26 80 78 113 154 152
P	113 154 152 50 126 124
H	100 30 6 48 155 117 60 127
H	155 117 60 127 132 54 14 62
H	41 100 48 10 130 155 127 67
H	130 155 127 67 63 132 62 16
H	101 31 30 100 156 118 117 155
H	156 118 117 155 133 55 54 132
H	40 101 100 41 129 156 155 130
H	129 156 155 130 64 133 132 63
H	102 32 31 101 157 119 118 156
H	157 119 118 156 134 56 55 133
H	39 102 101 40 128 157 156 129
H	128 157 156 129 65 134 133 64
H	47 7 32 102 131 61 119 157
H	131 61 119 157 66 15 56 134
H	9 47 102 39 68 131 157 128
H	68 131 157 128 17 66 134 65

t	84 4 78
t	84 26 4
t	84 78 26
t	78 4 26
t	75 27 141
t	75 140 27
t	75 141 140
t	141 27 140
t	136 135 142
t	136 71 135
t	136 142 71
t	142 135 71
t	36 92 95
t	36 2 92
t	36 95 2
t	95 92 2
t	94 90 6
t	94 77 90
t	94 6 77
t	6 90 77
t	19 81 140
t	19 82 81
t	19 140 82
t	140 81 82
t	35 83 142
t	35 93 83
t	35 142 93
t	142 83 93
t	28 83 5
t	28 79 83
t	28 5 79
t	5 83 79
t	138 37 96
t	138 98 37
t	138 96 98
t	96 37 98
t	96 84 78
t	96 137 84
t	96 78 137
t	78 84 137
t	138 74 139
t	138 24 74
t	138 139 24
t	139 74 24
t	82 28 142
t	82 85 28
t	82 142 85
t	142 28 85
t	89 37 96
t	89 138 37
t	89 96 138
t	142 95 21
t	142 93 95
t	142 21 93
t	21 95 93
t	140 76 80
t	140 139 76
t	140 80 139
t	80 76 139
t	5 83 35
t	5 93 83
t	5 35 93
t	20 82 142
t	20 85 82
t	20 142 85
t	139 91 32
t	139 138 91
t	139 32 138
t	32 91 138
t	136 95 71
t	136 142 95
t	142 71 95
t	32 88 91
t	32 139 88
t	139 91 88
t	141 135 87
t	141 69 135
t	141 87 69
t	87 135 69
t	140 82 141
t	140 69 82
t	140 141 69
t	141 82 69
t	95 22 2
t	95 92 22
t	2 22 92
t	142 83 85
t	142 28 83
t	85 83 28
t	73 1 35
t	73 93 1
t	73 35 93
t	35 1 93
t	35 73 85
t	35 85 1
t	85 73 1
t	2 71 22
t	2 95 71
t	95 22 71
t	141 82 135
t	82 69 135
t	140 82 27
t	141 27 82
t	75 30 31
t	75 135 30
t	75 31 135
t	31 30 135
t	141 31 87
t	141 135 31
t	87 31 135
t	34 84 96
t	34 137 84
t	34 96 137
t	96 138 80
t	96 80 89
t	80 138 89
t	74 91 98
t	74 24 91
t	74 98 24
t	98 91 24
t	142 135 75
t	142 82 135
t	142 75 82
t	75 135 82
t	86 81 140
t	86 18 81
t	86 140 18
t	140 81 18
t	98 91 138
t	98 37 91
t	138 91 37
t	74 98 137
t	74 97 98
t	74 137 97
t	137 98 97
t	139 70 24
t	139 74 70
t	74 24 70
t	88 24 91
t	88 139 24
t	139 91 24
t	80 26 140
t	80 137 26
t	80 140 137
t	140 26 137
t	36 136 94
t	36 95 136
t	36 94 95
t	94 136 95
t	135 92 87
t	135 22 92
t	135 87 22
t	87 92 22
t	21 71 142
t	21 73 71
t	21 142 73
t	142 71 73
t	142 69 135
t	142 82 69
t	140 70 19
t	140 69 70
t	140 19 69
t	19 70 69
t	136 22 71
t	136 92 22
t	136 71 92
t	71 22 92
t	87 135 30
t	87 30 92
t	30 135 92
t	135 69 71
t	135 22 69
t	135 71 22
t	71 69 22
t	80 7 89
t	80 32 7
t	80 89 32
t	89 7 32
t	36 92 136
t	136 92 95
t	141 88 87
t	141 31 88
t	87 88 31
t	95 71 92
t	75 76 27
t	75 140 76
t	140 27 76
t	138 91 24
t	20 71 142
t	20 69 71
t	20 142 69
t	142 71 69
t	136 93 94
t	136 95 93
t	94 93 95
t	140 70 74
t	140 18 70
t	140 74 18
t	74 70 18
t	20 82 69
t	86 97 34
t	86 0 97
t	86 34 0
t	34 97 0
t	74 91 138
t	74 138 98
t	81 70 140
t	81 18 70
t	98 91 3
t	98 3 24
t	3 91 24
t	32 91 89
t	32 89 138
t	89 91 138
t	80 33 96
t	80 89 33
t	96 33 89
t	19 69 82
t	141 87 23
t	141 23 69
t	23 87 69
t	30 90 136
t	30 77 90
t	30 136 77
t	136 90 77
t	80 139 32
t	80 138 139
t	80 32 138
t	23 24 88
t	23 70 24
t	23 88 70
t	88 24 70
t	30 77 135
t	30 75 77
t	75 135 77
t	142 77 94
t	142 29 77
t	142 94 29
t	94 77 29
t	141 75 82
t	75 27 82
t	95 71 21
t	95 21 2
t	21 71 2
t	20 82 19
t	20 19 69
t	23 22 69
t	23 87 22
t	87 69 22
t	94 90 136
t	94 36 90
t	36 136 90
t	75 31 141
t	75 141 135
t	29 79 5
t	29 93 79
t	29 5 93
t	5 79 93
t	80 7 33
t	89 33 7
t	33 78 96
t	33 4 78
t	33 96 4
t	96 78 4
t	142 77 135
t	142 136 77
t	136 135 77
t	75 142 77
t	140 26 81
t	140 86 26
t	86 81 26
t	89 96 7
t	96 33 7
t	142 79 77
t	142 29 79
t	29 77 79
t	83 79 142
t	83 93 79
t	142 79 93
t	28 77 142
t	28 79 77
t	28 142 79
t	31 30 87
t	136 90 135
t	136 92 90
t	136 135 92
t	135 90 92
t	36 92 90
t	94 136 77
t	94 142 136
t	32 76 139
t	32 80 76
t	135 90 30
t	30 90 92
t	32 31 88
t	32 139 31
t	139 88 31
t	96 78 80
t	96 80 137
t	80 78 137
t	96 7 37
t	89 37 7
t	86 84 34
t	86 137 84
t	86 34 137
t	139 88 141
t	139 141 31
t	136 30 135
t	135 22 136
t	19 70 81
t	19 18 70
t	19 81 18
t	137 72 74
t	137 97 72
t	74 72 97
t	72 25 74
t	72 97 25
t	74 25 97
t	139 76 31
t	139 141 76
t	141 31 76
t	140 74 139
t	140 137 74
t	140 139 137
t	139 74 137
t	72 0 86
t	72 18 0
t	72 86 18
t	86 0 18
t	137 74 138
t	137 138 98
t	96 137 138
t	96 98 137
t	80 33 78
t	6 29 94
t	6 77 29
t	139 138 137
t	86 137 18
t	86 140 137
t	140 18 137
t	141 75 76
t	75 31 76
t	84 137 26
t	78 26 137
t	96 4 84
t	96 34 4
t	34 84 4
t	6 94 36
t	6 36 90
t	139 80 137
t	80 138 137
t	89 91 37
t	20 73 142
t	20 71 73
t	141 76 140
t	141 140 139
t	81 27 26
t	81 140 27
t	140 26 27
t	78 26 80
t	86 26 137
t	74 25 98
t	98 25 97
t	86 137 72
t	137 18 72
t	141 70 139
t	141 140 70
t	140 139 70
t	139 88 70
t	141 70 88
t	74 98 3
t	74 3 24
t	74 25 3
t	3 25 98
t	141 70 69
t	141 23 70
t	23 69 70
t	6 90 30
t	6 30 77
t	23 88 87
t	23 141 88
t	21 93 73
t	142 73 93
t	75 28 82
t	75 27 28
t	82 28 27
t	140 26 76
t	27 76 26
t	80 26 76
t	137 18 74
t	74 18 72
t	142 93 94
t	142 136 93
t	142 93 29
t	94 29 93
t	85 73 20
t	85 20 1
t	20 73 1
t	85 93 73
t	85 35 93
t	3 37 91
t	3 98 37
t	35 85 142
t	35 83 85
t	142 73 85
t	142 85 93
t	75 28 142
t	84 86 26
t	96 97 34
t	96 137 97
t	34 97 137
t	137 97 86
t	86 97 72
t	72 0 97
t	97 25 0
t	72 0 25
t	96 98 97
t	75 28 77
t	21 1 73
t	21 93 1
t	82 27 81
t	32 76 31
t	105 143 104
t	44 107 43
t	100 143 101
t	41 107 40
t	105 106 144
t	44 45 108
t	102 101 144
t	39 40 108
t	144 101 143
t	108 40 107
t	144 143 105
t	108 107 44
t	47 102 145
t	9 39 109
t	47 145 99
t	9 109 38
t	48 146 100
t	10 110 41
t	48 103 146
t	10 42 110
t	46 147 106
t	8 111 45
t	46 99 147
t	8 38 111
t	49 104 148
t	11 43 112
t	49 148 103
t	11 112 42
t	148 146 103
t	112 110 42
t	100 148 143
t	41 112 107
t	104 143 148
t	43 107 112
t	148 100 146
t	112 41 110
t	147 99 145
t	111 38 109
t	102 144 147
t	39 108 111
t	106 147 144
t	45 111 108
t	147 145 102
t	111 109 39
t	149 114 115
t	121 51 52
t	150 118 119
t	122 55 56
t	113 114 150
t	50 51 122
t	150 114 149
t	122 51 121
t	117 118 149
t	54 55 121
t	149 118 150
t	121 55 122
t	116 60 151
t	53 14 123
t	151 60 117
t	123 14 54
t	152 58 113
t	124 12 50
t	120 58 152
t	57 12 124
t	153 59 116
t	125 13 53
t	115 59 153
t	52 13 125
t	154 61 120
t	126 15 57
t	119 61 154
t	56 15 126
t	116 151 153
t	53 123 125
t	151 117 149
t	123 54 121
t	149 115 151
t	121 52 123
t	153 151 115
t	125 123 52
t	152 154 120
t	124 126 57
t	154 113 150
t	126 50 122
t	150 119 154
t	122 56 126
t	113 154 152
t	50 126 124
q	23 87 143 105
q	87 22 104 143
q	23 105 104 22
q	105 143 107 44
q	143 104 43 107
q	105 44 43 104
q	30 87 143 100
q	87 31 101 143
q	30 100 101 31
q	100 143 107 41
q	143 101 40 107
q	100 41 40 101
q	23 24 106 105
q	24 88 144 106
q	23 105 144 88
q	105 106 45 44
q	106 144 108 45
q	105 44 108 144
q	32 31 101 102
q	31 88 144 101
q	32 102 144 88
q	102 101 40 39
q	101 144 108 40
q	102 39 108 144
q	88 144 143 87
q	144 108 107 143
q	7 32 102 47
q	32 89 145 102
q	7 47 145 89
q	47 102 39 9
q	102 145 109 39
q	47 9 109 145
q	89 37 99 145
q	7 47 99 37
q	145 99 38 109
q	47 9 38 99
q	6 90 146 48
q	90 30 100 146
q	6 48 100 30
q	48 146 110 10
q	146 100 41 110
q	48 10 41 100
q	6 36 103 48
q	36 90 146 103
q	48 103 42 10
q	103 146 110 42
q	3 91 147 46
q	91 24 106 147
q	3 46 106 24
q	46 147 111 8
q	147 106 45 111
q	46 8 45 106
q	3 37 99 46
q	37 91 147 99
q	46 99 38 8
q	99 147 111 38
q	2 22 104 49
q	22 92 148 104
q	2 49 148 92
q	49 104 43 11
q	104 148 112 43
q	49 11 112 148
q	92 36 103 148
q	2 49 103 36
q	148 103 42 112
q	49 11 42 103
q	92 90 146 148
q	148 146 110 112
q	30 92 148 100
q	92 87 143 148
q	100 148 112 41
q	148 143 107 112
q	91 147 145 89
q	147 111 109 145
q	88 91 147 144
q	32 102 147 91
q	144 147 111 108
q	102 39 111 147
q	75 27 114 149
q	27 28 115 114
q	75 149 115 28
q	149 114 51 121
q	114 115 52 51
q	149 121 52 115
q	76 31 118 150
q	31 32 119 118
q	76 150 119 32
q	150 118 55 122
q	118 119 56 55
q	150 122 56 119
q	26 27 114 113
q	27 76 150 114
q	26 113 150 76
q	113 114 51 50
q	114 150 122 51
q	113 50 122 150
q	76 150 149 75
q	150 122 121 149
q	30 31 118 117
q	31 75 149 118
q	30 117 149 75
q	117 118 55 54
q	118 149 121 55
q	117 54 121 149
q	29 6 60 116
q	6 77 151 60
q	29 116 151 77
q	116 60 14 53
q	60 151 123 14
q	116 53 123 151
q	6 30 117 60
q	77 151 117 30
q	60 117 54 14
q	151 123 54 117
q	78 4 58 152
q	4 26 113 58
q	78 152 113 26
q	152 58 12 124
q	58 113 50 12
q	152 124 50 113
q	33 4 58 120
q	33 120 152 78
q	120 58 12 57
q	120 57 124 152
q	79 5 59 153
q	5 29 116 59
q	79 153 116 29
q	153 59 13 125
q	59 116 53 13
q	153 125 53 116
q	28 5 59 115
q	28 115 153 79
q	115 59 13 52
q	115 52 125 153
q	80 7 61 154
q	7 33 120 61
q	80 154 120 33
q	154 61 15 126
q	61 120 57 15
q	154 126 57 120
q	32 7 61 119
q	32 119 154 80
q	119 61 15 56
q	119 56 126 154
q	77 79 153 151
q	151 153 125 123
q	77 151 149 75
q	151 123 121 149
q	28 77 151 115
q	115 151 123 52
q	78 80 154 152
q	152 154 126 124
q	80 26 113 154
q	80 154 150 76
q	154 113 50 126
q	154 126 122 150
q	100 155 127 48
q	100 30 117 155
q	155 117 60 127
q	6 48 127 60
q	155 132 62 127
q	155 117 54 132
q	132 54 14 62
q	60 127 62 14
q	41 130 67 10
q	41 100 155 130
q	130 155 127 67
q	48 10 67 127
q	130 63 16 67
q	130 155 132 63
q	63 132 62 16
q	127 67 16 62
q	101 156 155 100
q	101 31 118 156
q	156 118 117 155
q	156 133 132 155
q	156 118 55 133
q	133 55 54 132
q	40 129 130 41
q	40 101 156 129
q	129 156 155 130
q	129 64 63 130
q	129 156 133 64
q	64 133 132 63
q	102 157 156 101
q	102 32 119 157
q	157 119 118 156
q	157 134 133 156
q	157 119 56 134
q	134 56 55 133
q	39 128 129 40
q	39 102 157 128
q	128 157 156 129
q	128 65 64 129
q	128 157 134 65
q	65 134 133 64
q	47 131 157 102
q	47 7 61 131
q	131 61 119 157
q	131 66 134 157
q	131 61 15 66
q	66 15 56 134
q	9 68 128 39
q	9 47 131 68
q	68 131 157 128
q	68 17 65 128
q	68 131 66 17
q	17 66 134 65
e	84 78
e	78 4
e	4 84
e	84 26
e	78 26
e	4 26
e	75 141
e	141 27
e	27 75
e	75 140
e	141 140
e	27 140
e	136 142
e	142 135
e	135 136
e	136 71
e	142 71
e	135 71
e	36 95
e	95 92
e	92 36
e	36 2
e	95 2
e	92 2
e	94 6
e	6 90
e	90 94
e	94 77
e	6 77
e	90 77
e	19 140
e	140 81
e	81 19
e	19 82
e	140 82
e	81 82
e	35 142
e	142 83
e	83 35
e	35 93
e	142 93
e	83 93
e	28 5
e	5 83
e	83 28
e	28 79
e	5 79
e	83 79
e	138 96
e	96 37
e	37 138
e	138 98
e	96 98
e	37 98
e	96 78
e	84 96
e	96 137
e	78 137
e	84 137
e	138 139
e	139 74
e	74 138
e	138 24
e	139 24
e	74 24
e	82 142
e	142 28
e	28 82
e	82 85
e	142 85
e	28 85
e	89 96
e	37 89
e	89 138
e	142 21
e	21 95
e	95 142
e	21 93
e	95 93
e	140 80
e	80 76
e	76 140
e	140 139
e	80 139
e	76 139
e	5 35
e	5 93
e	20 142
e	82 20
e	20 85
e	139 32
e	32 91
e	91 139
e	32 138
e	91 138
e	136 95
e	71 95
e	32 88
e	139 88
e	91 88
e	141 87
e	87 135
e	135 141
e	141 69
e	87 69
e	135 69
e	141 82
e	140 69
e	82 69
e	2 22
e	22 95
e	22 92
e	85 83
e	73 35
e	35 1
e	1 73
e	73 93
e	1 93
e	35 85
e	85 73
e	85 1
e	2 71
e	22 71
e	82 135
e	27 82
e	75 31
e	31 30
e	30 75
e	75 135
e	31 135
e	30 135
e	87 31
e	31 141
e	34 96
e	84 34
e	34 137
e	96 80
e	80 138
e	80 89
e	74 98
e	98 91
e	91 74
e	98 24
e	91 24
e	142 75
e	75 82
e	86 140
e	81 86
e	86 18
e	140 18
e	81 18
e	91 37
e	74 137
e	137 98
e	74 97
e	137 97
e	98 97
e	139 70
e	74 70
e	24 70
e	88 24
e	140 26
e	26 80
e	80 137
e	140 137
e	26 137
e	36 94
e	94 136
e	136 36
e	94 95
e	87 92
e	92 135
e	135 22
e	87 22
e	71 21
e	21 73
e	142 73
e	71 73
e	142 69
e	19 70
e	70 140
e	19 69
e	70 69
e	22 136
e	136 92
e	71 92
e	87 30
e	30 92
e	71 69
e	69 22
e	89 7
e	7 80
e	80 32
e	89 32
e	7 32
e	87 88
e	88 141
e	88 31
e	75 76
e	27 76
e	71 20
e	20 69
e	94 93
e	93 136
e	140 74
e	74 18
e	70 18
e	86 34
e	34 97
e	97 86
e	86 0
e	34 0
e	97 0
e	70 81
e	98 3
e	3 91
e	3 24
e	89 91
e	96 33
e	33 80
e	33 89
e	141 23
e	23 87
e	23 69
e	30 136
e	136 90
e	90 30
e	30 77
e	136 77
e	23 88
e	24 23
e	23 70
e	88 70
e	75 77
e	135 77
e	142 94
e	77 142
e	142 29
e	94 29
e	77 29
e	21 2
e	20 19
e	23 22
e	36 90
e	29 5
e	79 29
e	29 93
e	79 93
e	33 7
e	78 33
e	33 4
e	96 4
e	86 26
e	81 26
e	96 7
e	142 79
e	77 79
e	77 28
e	135 90
e	90 92
e	32 76
e	32 31
e	139 31
e	80 78
e	37 7
e	84 86
e	86 137
e	139 141
e	19 18
e	74 72
e	72 137
e	72 97
e	74 25
e	25 72
e	25 97
e	141 76
e	31 76
e	139 137
e	72 86
e	0 72
e	72 18
e	0 18
e	137 138
e	29 6
e	18 137
e	34 4
e	6 36
e	73 20
e	81 27
e	26 27
e	98 25
e	141 70
e	74 3
e	3 25
e	6 30
e	28 75
e	28 27
e	76 26
e	20 1
e	85 93
e	3 37
e	97 96
e	0 25
e	1 21
e	23 105
e	87 143
e	22 104
e	105 143
e	143 104
e	104 105
e	105 44
e	143 107
e	104 43
e	44 107
e	107 43
e	43 44
e	30 100
e	31 101
e	100 143
e	143 101
e	101 100
e	100 41
e	101 40
e	41 107
e	107 40
e	40 41
e	24 106
e	88 144
e	105 106
e	106 144
e	144 105
e	106 45
e	144 108
e	44 45
e	45 108
e	108 44
e	32 102
e	102 101
e	101 144
e	144 102
e	102 39
e	39 40
e	40 108
e	108 39
e	143 144
e	107 108
e	7 47
e	89 145
e	47 102
e	102 145
e	145 47
e	47 9
e	145 109
e	9 39
e	39 109
e	109 9
e	37 99
e	145 99
e	99 47
e	99 38
e	109 38
e	38 9
e	6 48
e	90 146
e	48 146
e	146 100
e	100 48
e	48 10
e	146 110
e	10 110
e	110 41
e	41 10
e	36 103
e	48 103
e	103 146
e	103 42
e	10 42
e	42 110
e	3 46
e	91 147
e	46 147
e	147 106
e	106 46
e	46 8
e	147 111
e	8 111
e	111 45
e	45 8
e	46 99
e	99 147
e	8 38
e	38 111
e	2 49
e	92 148
e	49 104
e	104 148
e	148 49
e	49 11
e	148 112
e	11 43
e	43 112
e	112 11
e	148 103
e	103 49
e	112 42
e	42 11
e	148 146
e	112 110
e	100 148
e	148 143
e	41 112
e	112 107
e	145 147
e	109 111
e	144 147
e	147 102
e	108 111
e	111 39
e	75 149
e	27 114
e	28 115
e	149 114
e	114 115
e	115 149
e	149 121
e	114 51
e	115 52
e	121 51
e	51 52
e	52 121
e	76 150
e	31 118
e	32 119
e	150 118
e	118 119
e	119 150
e	150 122
e	118 55
e	119 56
e	122 55
e	55 56
e	56 122
e	26 113
e	113 114
e	114 150
e	150 113
e	113 50
e	50 51
e	51 122
e	122 50
e	149 150
e	121 122
e	30 117
e	117 118
e	118 149
e	149 117
e	117 54
e	54 55
e	55 121
e	121 54
e	29 116
e	6 60
e	77 151
e	116 60
e	60 151
e	151 116
e	116 53
e	60 14
e	151 123
e	53 14
e	14 123
e	123 53
e	60 117
e	117 151
e	14 54
e	54 123
e	78 152
e	4 58
e	152 58
e	58 113
e	113 152
e	152 124
e	58 12
e	124 12
e	12 50
e	50 124
e	33 120
e	120 58
e	152 120
e	120 57
e	57 12
e	124 57
e	79 153
e	5 59
e	153 59
e	59 116
e	116 153
e	153 125
e	59 13
e	125 13
e	13 53
e	53 125
e	115 59
e	153 115
e	52 13
e	125 52
e	80 154
e	7 61
e	154 61
e	61 120
e	120 154
e	154 126
e	61 15
e	126 15
e	15 57
e	57 126
e	119 61
e	154 119
e	56 15
e	126 56
e	151 153
e	123 125
e	149 151
e	121 123
e	115 151
e	52 123
e	152 154
e	124 126
e	154 113
e	150 154
e	126 50
e	122 126
e	100 155
e	48 127
e	155 117
e	60 127
e	127 155
e	155 132
e	127 62
e	132 54
e	14 62
e	62 132
e	41 130
e	10 67
e	130 155
e	127 67
e	67 130
e	130 63
e	67 16
e	63 132
e	62 16
e	16 63
e	101 156
e	156 118
e	155 156
e	156 133
e	133 55
e	132 133
e	40 129
e	129 156
e	130 129
e	129 64
e	64 133
e	63 64
e	102 157
e	157 119
e	156 157
e	157 134
e	134 56
e	133 134
e	39 128
e	128 157
e	129 128
e	128 65
e	65 134
e	64 65
e	47 131
e	131 61
e	157 131
e	131 66
e	66 15
e	134 66
e	9 68
e	68 131
e	128 68
e	68 17
e	17 66
e	65 17

domain
boundary
2 2 168
245
229
310
162
246
376
96
243
326
415
418
397
371
372
154
173
189
353
315
198
137
390
467
469
471
473
475
477
479
481
483
485
487
489
491
493
495
497
499
501
503
505
507
509
311
356
244
385
420
21
28
59
1
346
396
94
328
202
302
270
125
407
403
45
63
88
419
92
256
61
334
347
394
242
14
54
147
194
423
425
427
429
431
433
435
437
439
441
443
445
447
449
451
453
455
457
459
461
463
465
300
272
262
345
203
408
414
373
35
401
362
416
573
566
569
512
515
522
525
558
561
672
680
687
693
699
705
711
717
625
628
600
603
589
592
640
642
575
552
554
635
638
614
617
669
673
677
681
712
715
700
703
688
691
674
678
562
564
543
545
645
648
630
632
707
710
713
716

domain
bottom
2 2 30
245
229
310
162
246
376
96
243
326
415
418
397
371
372
154
173
189
353
315
198
137
390
566
569
512
515
522
525
558
561

domain
top
2 2 30
467
469
471
473
475
477
479
481
483
485
487
489
491
493
495
497
499
501
503
505
507
509
672
680
687
693
699
705
711
717

domain
left
2 2 30
311
356
244
385
420
21
28
59
1
346
396
94
328
202
302
270
125
407
403
45
63
88
625
628
600
603
589
592
640
642

domain
front
2 2 24
419
92
256
61
334
347
394
242
14
54
147
194
573
575
552
554
635
638
614
617
669
673
677
681

domain
right
2 2 30
423
425
427
429
431
433
435
437
439
441
443
445
447
449
451
453
455
457
459
461
463
465
712
715
700
703
688
691
674
678

domain
back
2 2 24
300
272
262
345
203
408
414
373
35
401
362
416
562
564
543
545
645
648
630
632
707
710
713
716
