#!geo

mesh
4
header
 dimension	3
 order		9
 nodes		100
 quadrangles	1
end header

0 0 0
1 0 0
1 1 0
0 1 0
0.130864197530864 0.0148148148148148 0.00987654320987654
0.25679012345679 0.0259259259259259 0.0172839506172839
0.377777777777778 0.0333333333333333 0.0222222222222222
0.493827160493827 0.037037037037037 0.0246913580246914
0.604938271604938 0.037037037037037 0.0246913580246914
0.711111111111111 0.0333333333333333 0.0222222222222222
0.812345679012346 0.0259259259259259 0.0172839506172839
0.908641975308642 0.0148148148148148 0.00987654320987655
1.01975308641975 0.125925925925926 0.00987654320987654
1.03456790123457 0.248148148148148 0.0172839506172839
1.04444444444444 0.366666666666667 0.0222222222222222
1.04938271604938 0.481481481481481 0.0246913580246914
1.04938271604938 0.592592592592593 0.0246913580246914
1.04444444444444 0.7 0.0222222222222222
1.03456790123457 0.803703703703704 0.0172839506172839
1.01975308641975 0.903703703703704 0.00987654320987655
0.908641975308642 1.01481481481481 0.00987654320987655
0.812345679012346 1.02592592592593 0.0172839506172839
0.711111111111111 1.03333333333333 0.0222222222222222
0.604938271604938 1.03703703703704 0.0246913580246914
0.493827160493827 1.03703703703704 0.0246913580246914
0.377777777777778 1.03333333333333 0.0222222222222222
0.25679012345679 1.02592592592593 0.0172839506172839
0.130864197530864 1.01481481481481 0.00987654320987655
0.0197530864197531 0.903703703703704 0.00987654320987655
0.0345679012345679 0.803703703703704 0.0172839506172839
0.0444444444444444 0.7 0.0222222222222222
0.0493827160493827 0.592592592592593 0.0246913580246914
0.0493827160493827 0.481481481481481 0.0246913580246914
0.0444444444444445 0.366666666666667 0.0222222222222222
0.0345679012345679 0.248148148148148 0.0172839506172839
0.0197530864197531 0.125925925925926 0.00987654320987655
0.150617283950617 0.140740740740741 0.0197530864197531
0.928395061728395 0.140740740740741 0.0197530864197531
0.928395061728395 0.918518518518519 0.0197530864197531
0.150617283950617 0.918518518518519 0.0197530864197531
0.276543209876543 0.151851851851852 0.0271604938271605
0.397530864197531 0.159259259259259 0.0320987654320988
0.51358024691358 0.162962962962963 0.0345679012345679
0.624691358024691 0.162962962962963 0.0345679012345679
0.730864197530864 0.159259259259259 0.0320987654320988
0.832098765432099 0.151851851851852 0.0271604938271605
0.94320987654321 0.262962962962963 0.0271604938271605
0.953086419753086 0.381481481481481 0.0320987654320988
0.958024691358025 0.496296296296296 0.0345679012345679
0.958024691358025 0.607407407407407 0.0345679012345679
0.953086419753086 0.714814814814815 0.0320987654320988
0.94320987654321 0.818518518518518 0.0271604938271605
0.832098765432099 0.92962962962963 0.0271604938271605
0.730864197530864 0.937037037037037 0.0320987654320988
0.624691358024691 0.940740740740741 0.0345679012345679
0.51358024691358 0.940740740740741 0.0345679012345679
0.397530864197531 0.937037037037037 0.0320987654320988
0.276543209876543 0.92962962962963 0.0271604938271605
0.165432098765432 0.818518518518518 0.0271604938271605
0.175308641975309 0.714814814814815 0.0320987654320988
0.180246913580247 0.607407407407407 0.0345679012345679
0.180246913580247 0.496296296296296 0.0345679012345679
0.175308641975309 0.381481481481481 0.0320987654320988
0.165432098765432 0.262962962962963 0.0271604938271605
0.291358024691358 0.274074074074074 0.0345679012345679
0.846913580246914 0.274074074074074 0.0345679012345679
0.846913580246914 0.82962962962963 0.0345679012345679
0.291358024691358 0.82962962962963 0.0345679012345679
0.412345679012346 0.281481481481481 0.0395061728395062
0.528395061728395 0.285185185185185 0.0419753086419753
0.639506172839506 0.285185185185185 0.0419753086419753
0.745679012345679 0.281481481481481 0.0395061728395062
0.85679012345679 0.392592592592593 0.0395061728395062
0.861728395061728 0.507407407407407 0.0419753086419753
0.861728395061728 0.618518518518519 0.0419753086419753
0.85679012345679 0.725925925925926 0.0395061728395062
0.745679012345679 0.837037037037037 0.0395061728395062
0.639506172839506 0.840740740740741 0.0419753086419753
0.528395061728395 0.840740740740741 0.0419753086419753
0.412345679012346 0.837037037037037 0.0395061728395062
0.301234567901235 0.725925925925926 0.0395061728395062
0.306172839506173 0.618518518518519 0.0419753086419753
0.306172839506173 0.507407407407407 0.0419753086419753
0.301234567901235 0.392592592592593 0.0395061728395062
0.422222222222222 0.4 0.0444444444444445
0.755555555555556 0.4 0.0444444444444445
0.755555555555556 0.733333333333333 0.0444444444444445
0.422222222222222 0.733333333333333 0.0444444444444445
0.538271604938272 0.403703703703704 0.0469135802469136
0.649382716049383 0.403703703703704 0.0469135802469136
0.760493827160494 0.514814814814815 0.0469135802469136
0.760493827160494 0.625925925925926 0.0469135802469136
0.649382716049383 0.737037037037037 0.0469135802469136
0.538271604938272 0.737037037037037 0.0469135802469136
0.427160493827161 0.625925925925926 0.0469135802469136
0.427160493827161 0.514814814814815 0.0469135802469136
0.54320987654321 0.518518518518518 0.0493827160493827
0.654320987654321 0.518518518518518 0.0493827160493827
0.654320987654321 0.62962962962963 0.0493827160493827
0.54320987654321 0.62962962962963 0.0493827160493827

q	p9 0 1 2 3 4 5 6 7 8 9 10 11 12 13 14 15 16 17 18 19 20 21 22 23 24 25 26 27 28 29 30 31 32 33 34 35 36 40 41 42 43 44 45 37 63 64 68 69 70 71 65 46 62 83 84 88 89 85 72 47 61 82 95 96 97 90 73 48 60 81 94 99 98 91 74 49 59 80 87 93 92 86 75 50 58 67 79 78 77 76 66 51 39 57 56 55 54 53 52 38

