#!geo

mesh
4
header
 dimension	3
 order		2
 nodes		691
 tetrahedra	323
end header

1 0 0
0 1 0
0 0 1
-1 0 0
0 -1 0
0 0 -1
0.923879532512616 0.382683432361881 0
0.707106781187053 0.707106781186042 0
0.382683432362906 0.923879532512191 0
-0.382683432361881 0.923879532512616 0
-0.707106781186042 0.707106781187053 0
-0.923879532512191 0.382683432362906 0
-0.923879532512616 -0.382683432361881 0
-0.707106781187053 -0.707106781186042 0
-0.382683432362906 -0.923879532512191 0
0.382683432361881 -0.923879532512616 0
0.707106781186042 -0.707106781187053 0
0.923879532512191 -0.382683432362906 0
0.923879532512616 0 -0.382683432361881
0.707106781187053 0 -0.707106781186042
0.382683432362906 0 -0.923879532512191
-0.382683432361881 0 -0.923879532512616
-0.707106781186042 0 -0.707106781187053
-0.923879532512191 0 -0.382683432362906
-0.923879532512616 0 0.382683432361881
-0.707106781187053 0 0.707106781186042
-0.382683432362906 0 0.923879532512191
0.382683432361881 0 0.923879532512616
0.707106781186042 0 0.707106781187053
0.923879532512191 0 0.382683432362906
0 -0.923879532512616 -0.382683432361881
0 -0.707106781187053 -0.707106781186042
0 -0.382683432362906 -0.923879532512191
0 0.382683432361881 -0.923879532512616
0 0.707106781186042 -0.707106781187053
0 0.923879532512191 -0.382683432362906
0 0.923879532512616 0.382683432361881
0 0.707106781187053 0.707106781186042
0 0.382683432362906 0.923879532512191
0 -0.382683432361881 0.923879532512616
0 -0.707106781186042 0.707106781187053
0 -0.923879532512191 0.382683432362906
0.45574246962202 0.821911236867145 0.341702677915087
0.276825228006361 0.631683342883021 0.724115976528179
0.515389057654762 0.304558471622122 0.801010771845756
0.254368695474278 0.29355368351193 0.921478595334309
0.830278440864581 0.474711049680683 0.292039603387186
0.589470502024449 0.542331049400695 0.598666484863638
0.742938049901037 0.264965860472059 0.614683777883837
0.213054412587554 0.9587037531212 0.188400984679743
-0.507360492149046 0.294743540480555 0.809760196818333
-0.302040559938663 0.767136965697798 0.565926122397539
-0.780566165551747 0.306420456944391 0.544814615040596
-0.811384616867116 0.5088275301658 0.287662211728922
-0.927441768257505 0.263036802051077 0.265825896515247
-0.60029560433651 0.544537663802709 0.585767803924518
-0.281240199482151 0.915293249532674 0.288343922348222
-0.308215190725898 0.50331448026191 0.807265712243795
-0.249758400927282 0.239764375010879 0.938154457241392
-0.572909208497584 0.762599939628519 0.3003604016798
-0.596160865390271 -0.570953099228349 0.564450866824267
-0.858795713970595 -0.35224389775486 0.372013653190578
-0.509349971784358 -0.820108024784267 0.260740165543633
-0.763952730375741 -0.599011935127111 0.239918584788099
-0.338360003448372 -0.763954019653752 0.549442229830664
-0.241558729721847 -0.939825283547145 0.241615017125789
-0.298400779599445 -0.524721195619802 0.797260711186604
-0.535714707167819 -0.309428074831434 0.785661516831651
-0.247686632285719 -0.255173789210224 0.934632371302779
0.557822522397464 -0.550351821085069 0.621246252732746
0.283842161494722 -0.528670844405966 0.799962977664021
0.352415683921432 -0.225859619029397 0.908179838037646
0.561816666150701 -0.364311015057304 0.742724388951399
0.827537201472136 -0.326451410532163 0.456740250844204
0.312272327055072 -0.754639441497465 0.577066120208079
0.644354610145519 -0.702365710735847 0.302472386783891
0.318620909970173 -0.9078708741139 0.272490718494121
0.959828615447035 -0.179517577976906 0.21564430937619
0.294743540484635 0.809760196601486 -0.50736049249277
0.767136965769091 0.565926121594726 -0.302040561261801
0.306420456936496 0.544814614272159 -0.780566166091195
0.508827530145336 0.287662211305416 -0.811384617030096
0.263036802044027 0.265825896125596 -0.927441768371187
0.544537663801562 0.585767803347317 -0.600295604900782
0.91529324953966 0.288343919424015 -0.281240202457484
0.503314480280088 0.807265712080393 -0.308215191124192
0.239764375013542 0.938154457195642 -0.249758401096571
0.762599939557889 0.300360400392352 -0.572909209266573
-0.294743540446587 0.809760198595759 -0.507360489331963
-0.767136965112783 0.56592612897817 -0.302040549094541
-0.3064204570086 0.544814621338856 -0.780566161130522
-0.508827530332666 0.287662215200189 -0.811384615531796
-0.26303680210835 0.265825899708916 -0.927441767325883
-0.544537663811326 0.585767808655646 -0.600295599712063
-0.915293249475068 0.288343946315771 -0.281240175096695
-0.503314480112074 0.807265713583509 -0.308215187461651
-0.239764374988537 0.93815445761648 -0.249758399539803
-0.762599940206709 0.300360412232186 -0.572909202195631
-0.621246252192865 -0.55035182109015 -0.557822522993716
-0.799962977389959 -0.528670844441912 -0.283842162200171
-0.908179837494319 -0.225859619046057 -0.352415685310917
-0.742724387603371 -0.364311015076856 -0.561816667920121
-0.456740250424687 -0.326451410525081 -0.827537201706473
-0.577066120082856 -0.754639441508277 -0.312272327260349
-0.302472386620193 -0.702365710726319 -0.644354610232749
-0.272490696324328 -0.907870873794671 -0.318620929839808
-0.215644309257643 -0.179517577975753 -0.959828615473884
0.294743540502141 -0.507360493979563 -0.809760195663553
0.767136966077259 -0.302040566985129 -0.565926118122393
0.306420456902053 -0.780566168424644 -0.544814610948355
0.50882753005613 -0.811384617735441 -0.287662209473698
0.263036802013103 -0.927441768863027 -0.265825894440212
0.544537663796203 -0.600295607341715 -0.585767800850827
0.915293249569695 -0.281240215327522 -0.288343906775706
0.503314480358562 -0.308215192847037 -0.80726571137368
0.239764375024999 -0.249758401828833 -0.938154456997769
0.762599939251885 -0.572909212593334 -0.300360394823797
0.358362555503845 0.182562485337257 0.00676251947879791
0.0174375027418137 0.523487508296967 0.00676251947879791
-0.323487520217896 0.182562485337257 0.00676251947879791
0.0174375027418137 0.182562485337257 0.347687542438507
0.0174375027418137 -0.499287545681 0.00676251947879791
-0.323487520217896 -0.158362522721291 0.00676251947879791
0.0174375027418137 -0.158362522721291 0.347687542438507
0.0174375027418137 0.182562485337257 -0.334162473678589
-0.323487520217896 0.182562485337257 -0.334162473678589
0.0174375027418137 -0.158362522721291 -0.334162473678589
0.980785280403548 0.195090322014531 0
0.831469612303665 0.555570233017927 0
0.555570233018922 0.831469612303 0
0.195090322014974 0.98078528040346 0
-0.195090322014531 0.980785280403548 0
-0.555570233017927 0.831469612303665 0
-0.831469612303 0.555570233018922 0
-0.98078528040346 0.195090322014974 0
-0.980785280403548 -0.195090322014531 0
-0.831469612303665 -0.555570233017927 0
-0.555570233018922 -0.831469612303 0
-0.195090322014974 -0.98078528040346 0
0.195090322014531 -0.980785280403548 0
0.555570233017927 -0.831469612303665 0
0.831469612303 -0.555570233018922 0
0.98078528040346 -0.195090322014974 0
0.980785280403548 0 -0.195090322014531
0.831469612303665 0 -0.555570233017927
0.555570233018922 0 -0.831469612303
0.195090322014974 0 -0.98078528040346
-0.195090322014531 0 -0.980785280403548
-0.555570233017927 0 -0.831469612303665
-0.831469612303 0 -0.555570233018922
-0.98078528040346 0 -0.195090322014974
-0.980785280403548 0 0.195090322014531
-0.831469612303665 0 0.555570233017927
-0.555570233018922 0 0.831469612303
-0.195090322014974 0 0.98078528040346
0.195090322014531 0 0.980785280403548
0.555570233017927 0 0.831469612303665
0.831469612303 0 0.555570233018922
0.98078528040346 0 0.195090322014974
0 -0.980785280403548 -0.195090322014531
0 -0.831469612303665 -0.555570233017927
0 -0.555570233018922 -0.831469612303
0 -0.195090322014974 -0.98078528040346
0 0.195090322014531 -0.980785280403548
0 0.555570233017927 -0.831469612303665
0 0.831469612303 -0.555570233018922
0 0.98078528040346 -0.195090322014974
0 0.980785280403548 0.195090322014531
0 0.831469612303665 0.555570233017927
0 0.555570233018922 0.831469612303
0 0.195090322014974 0.98078528040346
0 -0.195090322014531 0.980785280403548
0 -0.555570233017927 0.831469612303665
0 -0.831469612303 0.555570233018922
0 -0.98078528040346 0.195090322014974
0.137144784220818 0.520072510815011 0.843039673832493
0.137442438477278 0.676464252663973 0.723536931312557
0.419487537313278 0.890892064169144 0.174188220150743
0.593163441563447 0.790576889024569 0.152135841052798
0.619105199285529 0.137245670386979 0.773222075588672
0.449439559538185 0.15850570532855 0.879135952910823
0.320977148489372 0.142597698586714 0.936290321698032
0.126220946878109 0.153136523088616 0.980110951813887
0.127131255932051 0.340317045103033 0.931676957200015
0.388256213773625 0.303445256699474 0.870159806387746
0.266170179851104 0.471614290783908 0.840674369828427
0.401746700374279 0.470689972048329 0.785525644999272
0.667330515574528 0.663600248959091 0.33808976997902
0.774979243848242 0.610006323555453 0.165225472693429
0.526011386233935 0.696270969176606 0.488383823477114
0.370253360575535 0.754158719159085 0.542362494369634
0.440070990837353 0.596487746637601 0.67122268371579
0.554290234107081 0.43324313753165 0.710677648554708
0.724240140996332 0.530275860268981 0.440776281332839
0.72649512513783 0.134357130278172 0.673908743595439
0.84668677817693 0.103140812784255 0.521999494634404
0.636986354974201 0.2894085813354 0.714486568541434
0.672301710764234 0.399781029218791 0.623045374254756
0.793384297173802 0.396963946282331 0.46147695755042
0.231113641968924 0.89896842383915 0.372078294766055
0.137293859316182 0.806303059173864 0.575348392681284
0.88262810704591 0.453935368018806 0.122107765167431
0.30029584648826 0.949529536129811 0.0906425098891517
0.1061279870838 0.989583786336895 0.0972665419179398
0.106832721030611 0.952001894735263 0.286843445345478
0.335676966699967 0.901773735367118 0.27225925921655
0.888659554741867 0.21404174735807 0.405549412715505
0.937204533987365 0.246624878584386 0.246624878584386
-0.756858470878226 0.152626999928888 0.635507870881692
-0.867629917090295 0.152125096692439 0.473366963281346
-0.882483109703359 0.446055504514274 0.149191313355723
-0.77712757844656 0.615920012456195 0.129287528686047
-0.936868938700688 0.324979761837821 0.129092006312083
-0.981650561916888 0.130708862158091 0.138842960360237
-0.936026415344455 0.131700390895827 0.326358019382543
-0.87748408256926 0.388860314397963 0.280730013934922
-0.86607239385692 0.284988811430226 0.410731038464992
-0.81064962641693 0.411801137171054 0.416253536459114
-0.567624784124167 0.423818128937028 0.705818884723489
-0.696335831173963 0.429297473475202 0.57516961801809
-0.657102438957278 0.301472657477253 0.690891179209867
-0.721701725360388 0.528696297442407 0.446796200389539
-0.358430530558011 0.922654991034036 0.14225091312145
-0.130335790268242 0.979160393036583 0.155748215025397
-0.138225307892551 0.922417353617945 0.360610579437815
-0.617202737358915 0.146893091642745 0.772970374997838
-0.452453805007474 0.146366270064486 0.879694531824354
-0.317940842921864 0.120009104751847 0.940484680991027
-0.382981963260833 0.267333589777017 0.884227101820461
-0.120822241723306 0.313629816767597 0.941827119985021
-0.129735469479996 0.119165662632843 0.98436185054485
-0.407894404403656 0.40271667125062 0.819415302244843
-0.46524098731056 0.525987083171041 0.711960962457574
-0.138461492968591 0.613755218957933 0.77725989615238
-0.159626100368453 0.44329701286717 0.882047201947948
-0.284644987751298 0.374397769468409 0.882498465248038
-0.447648515968651 0.666294477375507 0.59637444241849
-0.31584081757414 0.646102826128692 0.694835027918582
-0.308690015539365 0.851737617005057 0.423383403175956
-0.119672442044898 0.856698861711697 0.501742530544195
-0.15730604119419 0.739746926781708 0.654239477348187
-0.657383984402685 0.737303465164154 0.155659555786922
-0.505103370465279 0.854866927299065 0.118630189053507
-0.700060887265624 0.645680908817658 0.304976914059524
-0.42281110328691 0.850140165428161 0.313835100113236
-0.453412183245759 0.769384879102351 0.44996033146598
-0.605516166948849 0.663452506972522 0.439523540388282
-0.897297472363769 -0.409066324169635 0.165897524152515
-0.965697362044443 -0.183055839889755 0.184171562470054
-0.896645352028335 -0.15573820727865 0.414454730313957
-0.688018766316038 -0.607502521959833 0.39695196561977
-0.646639815991339 -0.718121848583629 0.257211895062259
-0.555616921395451 -0.713068264930443 0.42757863160842
-0.744765065096043 -0.466812904850683 0.47687598983106
-0.81654825083699 -0.47852465324758 0.322897987434631
-0.737151916789224 -0.664256986451914 0.123974624515646
-0.615781494316071 -0.779168549254298 0.117087672753452
-0.85473641891427 -0.510403752409435 0.0944122010546145
-0.446287594601037 -0.884625065047587 0.135151312219946
-0.168862776710441 -0.750333720932545 0.639128054362474
-0.168280634144117 -0.862111923372445 0.47795884734056
-0.314442800518129 -0.942054912275029 0.116868590565663
-0.120105874117946 -0.984791802391702 0.125537583792534
-0.120966605545868 -0.941738556120985 0.313840042470482
-0.378809844979319 -0.889571056392619 0.255277176761385
-0.290137660111805 -0.867629563725959 0.403780978172014
-0.427741527504535 -0.808126285577356 0.404930972150849
-0.472778624837583 -0.673551886257953 0.568162149755717
-0.319224989266191 -0.655828096679152 0.684094228768377
-0.454031539384673 -0.563859523993366 0.689867957254111
-0.148146715758007 -0.461988413311019 0.874425100609814
-0.148658125123553 -0.625585853330081 0.765861019995158
-0.628316325305642 -0.140327217529414 0.765197273501982
-0.459886945168461 -0.162548647081034 0.87297304368219
-0.56816736671822 -0.451499310891447 0.687992889251794
-0.422010576670647 -0.417285981628972 0.804847490344633
-0.721277322024847 -0.369512560002132 0.58584937717244
-0.794841976444433 -0.21442763011517 0.567668057869297
-0.123986937422677 -0.320764440505243 0.93900873960571
-0.123093910251792 -0.132789914209588 0.983470756018263
-0.27319244745651 -0.394862907605175 0.877182518550335
-0.317493701623959 -0.123598212731373 0.940170852153334
-0.39565138912366 -0.28917592084011 0.871686448839715
0.128281389330401 -0.624779352675202 0.770191304561547
0.148465930690231 -0.456208463710404 0.877400538558803
0.369669001564149 -0.112481106486689 0.922330108998994
0.183261877717416 -0.11178918904809 0.976687391844216
0.171358777984162 -0.307657349663423 0.93593970126598
0.321346021610326 -0.382394785700874 0.866320357756875
0.422841281473512 -0.450284052030712 0.786415617322445
0.42803187960402 -0.541173056647824 0.723823481797255
0.564706455218935 -0.459997412272591 0.685207268012084
0.709549878388867 -0.346567739959475 0.61353872876757
0.787558010828899 -0.163347106729968 0.594197023134732
0.646501124785273 -0.182126704441343 0.740855019002174
0.889500931525133 -0.162627681881112 0.427013266657953
0.464376015293622 -0.295391612402147 0.834924374864261
0.54354921836173 -0.112937555569263 0.831744765995189
0.703008800348247 -0.442494429980673 0.556756056158348
0.122879731910796 -0.851872844031245 0.509129874479635
0.160744563804387 -0.733311535613216 0.660617421011529
0.308248374190421 -0.649698783851767 0.694891667866652
0.432244717904069 -0.660851243343255 0.61354717668302
0.755860012849897 -0.529474854768854 0.385138960820709
0.815396474503947 -0.551008655563649 0.177533238748339
0.905929090838444 -0.356975423205827 0.227730168400349
0.691905065876199 -0.706490503417967 0.148790283268365
0.543419229537173 -0.831436913962299 0.11579377820105
0.622099249290068 -0.632455938541153 0.461510573916528
0.494015223109367 -0.734412038664481 0.465390069512536
0.37391854627328 -0.918259452574237 0.13032458904957
0.177655489817557 -0.977127356737501 0.116878807543831
0.156034347009806 -0.919798096838921 0.360034364477508
0.480111802008762 -0.821149146162502 0.308555890121213
0.337889435453078 -0.84237618844123 0.419801246492224
0.953146550664168 -0.284254323543687 0.103494601326445
0.905014014008933 -0.25278134746553 0.342127497902391
0.949573686075339 -0.0897876881240412 0.300413025307881
0.989839602805294 -0.0892892360191082 0.110657096696874
0.152626999928305 0.635507870512082 -0.756858471188692
0.152125096690591 0.473366962860341 -0.867629917320314
0.446055504503076 0.149191313132475 -0.882483109746761
0.615920012440984 0.129287528492551 -0.777127578490807
0.324979761831919 0.129092006120366 -0.936868938729153
0.130708862156902 0.138842960155385 -0.981650561946021
0.131700390894898 0.326358019184347 -0.936026415413689
0.388860314384054 0.280730013521684 -0.877484082707629
0.284988811420747 0.410731037859239 -0.866072394147315
0.411801137154712 0.416253535847316 -0.810649626739378
0.42381812894252 0.705818884328688 -0.567624784610986
0.429297473468277 0.575169617340691 -0.69633583173776
0.301472657478047 0.690891178743435 -0.65710243944733
0.528696297426229 0.446796199855632 -0.721701725702774
0.922417353717899 0.360610578540346 -0.1382253095669
0.979160393076744 0.15574821104056 -0.130335794728317
0.922654990936632 0.142250911452493 -0.358430531471103
0.146893091643047 0.772970374867454 -0.617202737522133
0.146366270065289 0.879694531729339 -0.452453805191948
0.120009104752189 0.940484680962041 -0.317940843007478
0.119165662633276 0.984361850533146 -0.129735469568394
0.267333589781023 0.884227101703946 -0.382981963527045
0.313629816770018 0.941827119973586 -0.120822241806156
0.402716671260682 0.819415302051628 -0.407894404781868
0.52598708318519 0.711960962109346 -0.465240987827459
0.613755218972056 0.777259896108685 -0.138461493151272
0.443297012877499 0.882047201904654 -0.159626100578999
0.374397769477763 0.882498465148394 -0.284644988047928
0.666294477401564 0.596374441636922 -0.447648516971101
0.646102826182994 0.694835027422321 -0.315840818554806
0.851737617084736 0.423383401110448 -0.308690018152459
0.85669886175827 0.501742530334039 -0.119672442592608
0.739746926843471 0.654239477104239 -0.157306041918335
0.737303465104322 0.15565955508717 -0.657383984635483
0.854866927253691 0.118630188523269 -0.505103370666605
0.645680908762413 0.304976913094196 -0.700060887737117
0.85014016535282 0.313835097517633 -0.422811105365006
0.769384879101411 0.449960330366764 -0.453412184338203
0.663452506944378 0.43952353940029 -0.605516167696835
-0.152125096707331 0.473366966731958 -0.867629915205078
-0.152626999933415 0.635507873911068 -0.75685846833365
-0.615920012579912 0.129287530272088 -0.777127578084644
-0.446055504605111 0.149191315185574 -0.882483109348093
-0.324979761885414 0.129092007883469 -0.936868938467657
-0.130708862167577 0.138842962039293 -0.981650561678143
-0.131700390903185 0.326358021006997 -0.936026414777032
-0.388860314511264 0.280730017321958 -0.877484081435449
-0.284988811507407 0.410731043429872 -0.866072391476951
-0.411801137304297 0.416253541473605 -0.810649623774396
-0.423818128891333 0.705818887959552 -0.56762478013437
-0.301472657470221 0.690891183032895 -0.657102434940892
-0.429297473531297 0.575169623570298 -0.696335826553285
-0.528696297574179 0.446796204765753 -0.721701722554598
-0.922417352798342 0.360610586794358 -0.138225294169802
-0.979160392707337 0.155748247685675 -0.130335753713455
-0.922654991831984 0.142250926800655 -0.358430523075081
-0.146893091640005 0.772970376066501 -0.617202736021199
-0.146366270057634 0.879694532603131 -0.452453803495533
-0.120009104748787 0.94048468122863 -0.317940842220179
-0.119165662629032 0.984361850640808 -0.129735468755416
-0.267333589743662 0.884227102775553 -0.382981961079003
-0.313629816746972 0.941827120078995 -0.120822241044301
-0.402716671167443 0.819415303828713 -0.407894401303954
-0.525987083054257 0.711960965312096 -0.465240983074303
-0.613755218841226 0.777259896511235 -0.138461491471465
-0.443297012781571 0.882047202303245 -0.159626098642902
-0.374397769391042 0.882498466065002 -0.284644985320191
-0.666294477161179 0.596374448824811 -0.447648507752918
-0.646102825682829 0.694835031986574 -0.31584080953683
-0.856698861329434 0.501742532267542 -0.119672437556048
-0.851737616351494 0.42338342010565 -0.308689994122775
-0.739746926274651 0.654239479348511 -0.157306035259283
-0.737303465653696 0.155659561522352 -0.657383982495556
-0.854866927670392 0.118630193399583 -0.505103368816089
-0.645680909269656 0.304976921971697 -0.700060883401851
-0.850140166045154 0.313835121387442 -0.422811086255371
-0.769384879109369 0.449960340475803 -0.45341217429262
-0.663452507202438 0.439523548486317 -0.605516160818847
-0.877400538485217 -0.456208463729875 -0.148465931065274
-0.770191304486579 -0.624779352701087 -0.128281389654434
-0.93593970113233 -0.307657349682077 -0.171358778680654
-0.976687391705364 -0.111789189051139 -0.183261878455565
-0.922330108715796 -0.112481106488967 -0.369669002270039
-0.866320357355055 -0.382394785732694 -0.321346022655731
-0.78641561661205 -0.450284052068068 -0.422841282754949
-0.6852072670567 -0.459997412285755 -0.564706456367463
-0.723823481384891 -0.541173056670263 -0.428031880272976
-0.613538727737955 -0.346567739953648 -0.709549879282008
-0.740855018239066 -0.18212670444286 -0.646501125659327
-0.594197022934728 -0.163347106729421 -0.787558010979911
-0.427013266434122 -0.162627681879847 -0.889500931632817
-0.834924373949995 -0.295391612425146 -0.464376016922796
-0.831744765575752 -0.1129375555705 -0.543549219003301
-0.556756055642875 -0.442494429974075 -0.703008800760635
-0.509129874447197 -0.851872844038443 -0.122879731995296
-0.660617420974041 -0.733311535622618 -0.160744563915565
-0.694891667652383 -0.64969878387627 -0.308248374621809
-0.613547176385989 -0.660851243355586 -0.432244718306836
-0.38513896053249 -0.529474854757598 -0.755860013004639
-0.227730168178386 -0.356975423198736 -0.905929090897035
-0.17753323864852 -0.551008655557202 -0.815396474530036
-0.148790283184899 -0.706490503410853 -0.691905065901412
-0.115793778136424 -0.831436913956519 -0.543419229559786
-0.461510573538573 -0.632455938531498 -0.622099249580273
-0.465390069354175 -0.734412038663464 -0.494015223260064
-0.3600343577982 -0.919798097483732 -0.156034358620609
-0.116878771904487 -0.97712735601978 -0.177655517212086
-0.130324577202769 -0.918259451816093 -0.373918552264162
-0.30855587383392 -0.821149145489854 -0.480111813626648
-0.419801234110629 -0.842376188762149 -0.337889450036176
-0.300413025248146 -0.0897876881239004 -0.94957368609425
-0.110657096635865 -0.0892892360189339 -0.98983960281213
-0.103494601268998 -0.284254323542248 -0.953146550670835
-0.342127497619832 -0.252781347461326 -0.905014014116924
0.152626999925633 -0.756858472531626 -0.635507868913355
0.152125096682452 -0.867629918315274 -0.473366961039303
0.446055504453775 -0.882483109934919 -0.149191312166902
0.615920012374306 -0.777127578682875 -0.12928752765571
0.324979761805645 -0.936868938852526 -0.129092005291143
0.130708862151546 -0.981650562072059 -0.138842959269308
0.131700390890659 -0.936026415713187 -0.32635801832707
0.388860314323313 -0.877484083306372 -0.280730011734318
0.284988811379384 -0.866072395403507 -0.410731035239117
0.411801137083513 -0.810649628134324 -0.41625353320111
0.423818128965993 -0.567624786716797 -0.705818882621084
0.429297473437966 -0.696335834176583 -0.575169614410724
0.301472657481268 -0.657102441567089 -0.690891176725939
0.528696297355705 -0.721701727184046 -0.446796197546412
0.922654990515023 -0.35843053542132 -0.142250904233711
0.979160393250414 -0.130335814020426 -0.155748193804382
0.922417354150159 -0.138225316809345 -0.36061057465856
0.14689309164428 -0.617202738228135 -0.77297037430349
0.146366270068693 -0.452453805989895 -0.879694531318364
0.120009104753635 -0.317940843377799 -0.940484680836666
0.11916566263512 -0.129735469950764 -0.984361850482528
0.267333589798249 -0.382981964678553 -0.88422710119999
0.313629816780458 -0.120822242164521 -0.941827119924137
0.402716671304056 -0.40789440641785 -0.819415301215941
0.525987083246113 -0.465240990063395 -0.711960960603233
0.613755219033077 -0.138461493941466 -0.777259895919735
0.443297012922099 -0.159626101489719 -0.882047201717424
0.374397769518111 -0.284644989331013 -0.882498464717424
0.666294477513979 -0.447648521307342 -0.596374438256474
0.646102826417685 -0.31584082279673 -0.694835025275902
0.85173761742918 -0.308690029455548 -0.423383392176402
0.856698861959635 -0.119672444961752 -0.501742529425145
0.739746927110513 -0.157306045050639 -0.65423947604916
0.737303464844769 -0.65738398564324 -0.155659552060603
0.854866927056951 -0.505103371538203 -0.118630186229918
0.645680908522846 -0.700060889777016 -0.304976908918896
0.850140165026612 -0.422811114354184 -0.313835086290712
0.769384879096993 -0.453412189063844 -0.449960325612424
0.66345250682217 -0.605516170932571 -0.439523535127
0.63682790253677 -0.0493388649951324 -0.140790693648454
0.679181277751923 0.0912812426686287 0.00338125973939896
0.641121044008231 0.0912812426686287 -0.187960456441541
0.164854914898443 -0.456500982109378 0.462376831323293
0.150639832118268 -0.343516683563628 0.573825260051264
0.00871875137090683 -0.432734651953666 0.52739716181278
0.164854914898443 -0.626963493589232 0.291914319843438
0.00871875137090683 -0.711583539096595 0.194722975920852
0.00871875137090683 -0.603197163433521 0.356934650332926
-0.182622964810546 -0.0791812613606453 0.635783537475349
-0.115124564771953 -0.206768155965757 0.641159956870643
0.00871875137090683 -0.0791812613606453 0.673843771219254
0.184926593331623 -0.192111070875344 0.627933690238077
0.200060467551847 -0.0791812613606453 0.635783537475562
0.236589986181917 0.672699372582056 0.174232598696942
0.187900029122829 0.353024996817112 0.00676251947879791
0.407052512562933 0.502236861102201 0.174232598696942
0.532734668345449 0.44483463326165 0.00338125973939896
0.362272141964434 0.615297144741504 0.00338125973939896
-0.623683526365043 0.282622958850082 0.00338125973939896
-0.6254646442377 0.222799643694167 0.136294207997022
-0.661743760108948 0.0912812426686287 0.00338125973939896
-0.182622964810546 0.0912812426686287 0.635783537475349
-0.34483463922262 0.0912812426686287 0.527397161812274
-0.34483463922262 -0.0791812613606453 0.527397161812274
0.0174375027418137 0.0120999813079834 0.347687542438507
0.128600938877678 0.730820982746304 -0.121497940808886
0.20006046755236 0.723683520404579 0.00338125973939896
0.260375991510951 0.66537661018868 -0.150726335822697
0.00871875137090683 0.282622958850082 0.635783537475349
-0.145388843992042 0.342938482799583 0.577476627341151
0.00871875137090683 0.444834633262155 0.527397161812274
0.390018721149851 0.241461442864805 -0.453535841472581
0.187900029122829 0.182562485337257 -0.163699977099896
0.560481247530867 0.241461442864805 -0.283073344893887
0.532734668345449 0.0912812426686287 -0.350172130853622
0.362272141964434 0.0912812426686287 -0.520634627432315
-0.353085476289888 0.0912812426686287 -0.629021003095602
-0.293262161163123 0.224194192523087 -0.630802120502236
-0.122799649683268 0.224194192523087 -0.630802120502236
-0.153025008738041 0.182562485337257 -0.334162473678589
-0.182622964810034 0.0912812426686287 -0.629021003095602
-0.312764040078279 0.474849725517528 0.286344320938168
-0.44819836435774 0.472581212482888 0.153561460579299
-0.153025008738041 0.353024996817112 0.00676251947879791
-0.277735852877885 0.643043723962743 0.153561460579299
-0.142301528598425 0.645312236997382 0.286344320938168
-0.153025008738041 0.182562485337257 0.177225030958652
0.0174375027418137 0.353024996817112 0.177225030958652
-0.153025008738041 0.182562485337257 -0.163699977099896
0.0174375027418137 0.353024996817112 -0.163699977099896
0.0174375027418137 0.182562485337257 0.00676253437995911
0.362272141963928 -0.603197163434027 0.00338125973939896
0.470658517627002 -0.440985489021953 0.00338125973939896
0.390018720996849 -0.536098379137167 -0.1467989376725
-0.112060613490017 -0.719556414614073 0.124188768302294
-0.160461250353279 -0.631620782667376 0.278102374654731
-0.111163436123362 0.730820982956723 -0.121497940030503
0.00871875137090683 0.761743754148483 0.00338125973939896
0.00871875137090683 0.723683520404579 -0.187960456442054
0.00871875137090683 -0.270522977542098 -0.62902100309539
0.00871875137090683 -0.432734651954172 -0.520634627432315
0.156090521621978 -0.332861508350427 -0.571961334671071
0.135903099108046 0.238058084424593 0.634583068886408
0.00871875137090683 0.0912812426686287 0.673843771219254
0.636827902521753 0.235453202380636 -0.137238841489343
0.00871875137090683 0.61529714474201 0.35693465033242
0.147131365374087 0.407122914110139 0.535901759483343
0.147131365374087 0.577585425589994 0.365439248003488
0.115245957664684 0.741095630709083 0.0975817520792706
0.330896056443666 -0.430364116728569 0.325079964611199
0.287630012569639 -0.35435717190318 0.484466897585627
-0.515297150701969 0.444834633262155 0.00338125973939896
-0.567436068542506 0.345695007751529 0.14721236560386
0.641121044008018 0.0912812426686287 0.194722975920852
0.550650302702441 0.223764172904658 0.310723148681318
0.594320498184213 0.32863676750897 0.149401061432992
0.00871875137090683 -0.270522977541586 0.635783537475562
0.20006046755236 -0.0791812613606453 -0.62902100309539
0.0174375027418137 0.0120999813079834 -0.334162473678589
0.20006046755236 0.0912812426686287 -0.62902100309539
0.362272141964434 -0.0791812613606453 -0.520634627432315
0.263132516443575 0.235112348321337 -0.572773545354342
0.14023715239292 0.224194190731427 -0.630802121024888
0.236589986181917 0.502236861102201 0.344695110176797
0.303454002383132 0.362446767368976 0.473177013651072
0.473916528764147 0.362446767368976 0.302714502171218
0.187900029122829 0.182562485337257 0.177225030958652
-0.533105953910633 -0.261336768899073 -0.277527074220662
-0.615833678856107 -0.192111070883674 -0.172826582916059
-0.561725248803927 -0.343516683581601 -0.138539821360687
0.422487352106975 -0.242406966626727 0.402213896641355
0.362272141963928 -0.0791812613606453 0.52739716181278
0.289627084446257 -0.261336768889298 0.545205965694953
0.263132516398972 -0.655336081708221 -0.14044984499745
0.200060467551847 -0.711583539096808 0.00338125973939896
0.641121044008018 -0.100060473512824 0.00338125973939896
0.560481247377865 -0.195173363628038 -0.1467989376725
-0.182622964810546 -0.711583539096595 0.00338125973939896
-0.245956234521272 -0.659697785232634 0.133751342511215
-0.244961494703616 0.238653012908906 0.57872386962842
-0.291429050797348 0.363550074569983 0.466727673181512
0.00871875137090683 -0.7496437728405 0.00338125973939896
-0.127526596791257 -0.703579209737835 -0.155929205180505
-0.461891562277203 0.363550074569983 0.296265161701658
-0.552026842884821 0.244491471140824 0.275788567259697
0.128600938883407 -0.204060462275062 -0.636158465338179
-0.279814308670521 -0.626963493594639 -0.152754903890775
0.140237152377458 -0.713364657272013 -0.129531687480707
0.641121044008231 0.282622958849569 0.00338125973939896
0.266413280198288 0.24356047847969 0.574349157142131
0.260375991550188 -0.233288857784164 -0.570714092526135
0.00871875137090683 -0.711583539096808 -0.187960456441541
0.392287234409536 -0.23020154485321 -0.450044295900491
0.00871875137090683 -0.0791812613606453 -0.667081236839294
0.168029206355993 -0.70357920989745 0.139626618986459
-0.259138602213003 -0.233895298776362 0.566674529635079
-0.515297150702474 -0.0791812613606453 0.35693465033242
-0.153025008738041 -0.158362522721291 0.177225030958652
-0.429601113692857 -0.233895298776362 0.396212018155224
-0.14251744193919 -0.430364116723805 -0.489258541955669
-0.142301528598425 0.474849725517528 0.456806832418023
0.0174375027418137 -0.328825034201145 -0.163699977099896
0.161928979821933 -0.639926857052822 -0.269026045734779
0.161928979821933 -0.469464345572967 -0.439488542313472
0.00871875137090683 -0.603197163434027 -0.350172130853622
0.156090521613224 0.496161340969372 -0.420761483085679
0.156090521613224 0.666623852449226 -0.250298986506986
0.00871875137090683 0.553221008924724 -0.358422953020748
0.00871875137090683 0.282622958849569 -0.629021003095602
0.00871875137090683 0.0912812426686287 -0.667081236839294
-0.116160449092734 0.211163430174068 0.642920999839949
0.187900029122829 0.0120999813079834 -0.163699977099896
0.330896056443666 -0.600826628208424 0.154617453131344
0.501358582824682 -0.259901612699295 0.154617453131344
0.187900029122829 -0.158362530171871 0.00676251947879791
-0.182622964810034 -0.0791812613606453 -0.629021003095602
-0.0991034032579148 -0.168940050348522 -0.646995544576237
-0.219651373841436 -0.242406966623186 -0.580849837692531
-0.131901348370169 0.71939037891482 0.14755322091351
0.00871875137090683 0.723683520404791 0.194722975920339
0.562749760790552 -0.0597390408239357 -0.279581799321798
0.362272141963928 0.0912812426686287 0.52739716181278
0.532734668344943 0.0912812426686287 0.356934650332926
0.187900029122829 0.0120999813079834 0.177225030958652
-0.515297150701969 0.0912812426686287 -0.520634627432821
-0.533105953910633 -0.0908742648697996 -0.447989570799355
-0.390113885321291 -0.0719444625939117 -0.580849837692531
-0.615833678856107 -0.0216485668543999 -0.343289079494753
-0.323487520217896 0.0120999813079834 -0.163699977099896
0.280987583271688 0.384165144342287 -0.467229039289685
0.451450109652704 0.384165144342287 -0.296766542710992
0.592949878487991 -0.071944462597453 0.231751385161501
0.200060467551847 0.0912812426686287 0.635783537475562
-0.415424006183471 0.238653012908906 0.408261358148565
-0.543043730212302 0.241461448784722 -0.45353583793711
-0.623683526365043 0.0912812426686287 -0.358422953020748
-0.623683526365256 0.0912812426686287 0.194722975920339
-0.279814308670521 -0.456500982114784 -0.323217400469469
-0.301904374725526 -0.354357171905721 -0.445992498336152
0.280987583269008 -0.549791576511358 -0.289502640686015
0.280987583269008 -0.379329065031503 -0.459965137264708
0.562749760636468 0.374244303465992 -0.147639020891502
-0.14251744193919 -0.600826628203659 -0.318796045376975
0.260375991510951 0.494914098708825 -0.32118883240139
0.430838517891966 0.494914098708825 -0.150726335822697
0.65909558547544 0.00152245368017584 0.111203414427494
0.390018720996849 -0.365635867657312 -0.317261434251193
0.466365376155754 -0.219801369024406 -0.311253190227148
0.161928979839155 0.363688549804708 -0.557364319884892
-0.140481638428815 -0.341541859170546 0.572474126812555
-0.619390384846481 0.235453215826514 -0.137238827808948
-0.545312242665339 0.374244307157714 -0.147639014807872
-0.353085476289888 0.553221008924937 0.00338125973939896
-0.413401000164985 0.494914099460383 -0.150726333991427
-0.416418746001127 -0.489235273752779 0.133751342511215
-0.515297150702474 -0.432734651953666 0.00338125973939896
-0.543720125296818 -0.378687228924201 0.123340552133448
-0.323487520217896 0.182562485337257 -0.163699977099896
-0.153025008738041 0.353024996817112 -0.163699977099896
-0.545312242665339 0.374244307157714 -0.318101511386565
-0.434012592014611 0.384165146996452 -0.467229036695326
-0.619390384846481 0.235453215826514 -0.307701324387642
-0.323487520217896 0.0120999813079834 0.00676251947879791
-0.153025008738041 0.0120999813079834 0.177225030958652
-0.153025008738041 0.0120999813079834 -0.163699977099896
-0.416157525275281 0.235112350268723 -0.572773544605192
-0.314953988613248 0.363688553338057 -0.557364317404555
-0.309115530332241 0.496161341966508 -0.420761481505276
-0.138653018852387 0.666623853446363 -0.250298984926582
-0.138653018852387 0.496161341966508 -0.420761481505276
-0.182622964810034 0.723683520404791 0.00338125973939896
-0.24293848868513 0.665376610940238 -0.150726333991427
-0.413401000164985 0.494914099460383 -0.32118883057012
0.0174375027418137 -0.328825034201145 0.177225030958652
-0.153025008738041 0.0120999813079834 -0.334162473678589
-0.153025008738041 -0.158362522721291 -0.163699977099896
-0.362643442430779 -0.261336768899073 -0.447989570799355
-0.289361681324229 -0.36465781097482 0.456069204631387
-0.144491477133393 0.363688553338057 -0.557364317404555
0.0174375027418137 -0.158362522721291 0.00676253437995911
0.263132516398972 -0.484873570228366 -0.310912341576143
0.380187776321425 0.223764172904658 0.481185660161172
-0.34483463922262 -0.603197163433521 0.00338125973939896
-0.623683526365256 -0.270522977541586 0.00338125973939896
-0.459824192804083 -0.36465781097482 0.285606693151532
-0.591141617094245 -0.255303210238076 0.189388086334688
-0.153025008738041 -0.328825034201145 0.00676251947879791
-0.515297150702474 0.0912812426686287 0.35693465033242
0.0174375027418137 0.0120999813079834 0.00676253437995911
-0.160461250353279 -0.461158271187522 0.448564886134586
-0.330923761833134 -0.461158271187522 0.278102374654731
-0.623683526365256 -0.0791812613606453 0.194722975920339
-0.623683526365043 0.0912812426686287 -0.187960456442054
0.00871875137090683 0.44483463326165 -0.520634627432821
-0.47236688620538 -0.354357171905721 -0.275530001757459
-0.450276820150376 -0.456500982114784 -0.152754903890775
-0.661743760108948 -0.0791812613606453 0.00338125973939896
-0.623683526365043 -0.0791812613606453 -0.187960456442054

T	p2 18 113 0 117 449 448 143 474 472 473
T	p2 74 70 123 40 301 476 475 300 283 477
T	p2 74 121 41 40 478 479 299 300 480 173
T	p2 26 68 123 2 281 482 481 154 279 483
T	p2 71 27 123 2 285 485 484 286 155 483
T	p2 118 42 117 7 486 488 487 490 178 489
T	p2 11 119 54 3 491 492 212 134 493 213
T	p2 120 26 25 123 494 153 495 497 481 496
T	p2 86 8 118 85 341 499 498 346 345 500
T	p2 38 120 57 37 501 502 234 169 503 233
T	p2 124 87 117 19 504 506 505 508 352 507
T	p2 21 92 125 124 362 510 509 513 511 512
T	p2 51 119 59 118 514 515 245 518 516 517
T	p2 120 119 118 124 519 516 520 523 521 522
T	p2 16 121 17 116 524 525 141 466 526 467
T	p2 65 121 64 41 527 528 265 263 479 260
T	p2 118 96 1 35 529 378 530 531 377 166
T	p2 32 126 31 107 532 533 161 451 534 450
T	p2 38 120 45 2 501 535 183 170 536 182
T	p2 87 84 117 18 355 537 506 353 335 474
T	p2 37 120 118 43 503 520 538 176 539 540
T	p2 8 42 49 118 177 205 202 499 486 541
T	p2 69 75 74 123 308 309 302 543 542 475
T	p2 10 11 119 53 133 491 544 211 210 545
T	p2 46 29 48 117 206 195 198 548 546 547
T	p2 71 2 123 39 286 483 484 287 171 549
T	p2 86 118 1 35 498 530 339 338 531 166
T	p2 126 20 124 19 550 552 551 553 145 508
T	p2 81 20 124 82 321 552 554 326 323 555
T	p2 120 42 47 117 556 189 557 559 488 558
T	p2 99 101 100 122 403 410 402 562 560 561
T	p2 123 73 28 72 563 293 564 565 292 294
T	p2 121 110 16 15 566 436 524 567 435 140
T	p2 124 120 117 118 523 559 505 522 520 487
T	p2 117 113 17 116 472 447 568 569 469 467
T	p2 65 121 14 62 527 570 261 264 571 258
T	p2 120 42 118 43 556 486 520 539 190 540
T	p2 50 120 55 57 572 573 218 231 502 232
T	p2 4 121 105 14 574 575 425 138 570 424
T	p2 119 55 53 52 576 221 545 577 219 217
T	p2 115 126 32 107 578 532 452 454 534 451
T	p2 121 103 105 14 579 428 575 570 413 424
T	p2 121 110 15 111 566 435 567 580 440 437
T	p2 84 117 0 6 537 473 334 333 581 127
T	p2 44 120 43 47 582 539 186 192 557 191
T	p2 115 126 114 20 578 583 460 455 550 459
T	p2 121 4 105 30 574 425 575 584 159 426
T	p2 121 65 4 41 527 262 574 479 263 174
T	p2 126 114 20 19 583 459 550 553 458 145
T	p2 114 126 108 19 583 585 462 458 553 465
T	p2 5 115 20 126 453 455 146 586 578 550
T	p2 76 121 4 41 587 574 311 312 479 174
T	p2 67 25 123 122 272 496 588 591 589 590
T	p2 104 126 31 32 592 533 420 419 532 161
T	p2 123 69 73 72 543 298 563 565 291 292
T	p2 2 68 123 39 279 482 483 171 278 549
T	p2 120 51 55 57 593 236 573 502 237 232
T	p2 121 126 109 31 594 596 595 597 533 433
T	p2 19 87 117 18 352 506 507 144 353 474
T	p2 124 118 78 35 522 599 598 600 531 337
T	p2 33 5 124 92 163 602 601 364 363 511
T	p2 120 38 58 2 501 229 603 536 170 230
T	p2 126 124 117 19 551 505 604 553 508 507
T	p2 26 67 25 123 273 272 153 481 588 496
T	p2 71 70 39 123 288 284 287 484 476 549
T	p2 121 75 17 117 605 304 525 607 606 568
T	p2 55 119 53 59 576 545 221 246 515 243
T	p2 115 126 107 114 578 534 454 460 583 456
T	p2 126 21 106 102 608 429 609 610 409 432
T	p2 51 56 36 118 238 224 239 518 611 612
T	p2 126 108 19 117 585 465 553 604 613 507
T	p2 126 5 21 124 586 147 608 551 602 513
T	p2 42 120 118 117 556 520 486 488 559 487
T	p2 123 120 28 117 497 614 564 616 559 615
T	p2 22 125 101 102 617 618 407 408 619 406
T	p2 121 16 17 75 524 141 525 605 306 304
T	p2 76 121 74 75 587 478 314 313 605 309
T	p2 48 29 28 117 195 157 194 547 546 615
T	p2 69 70 123 74 290 476 543 302 301 475
T	p2 101 125 100 122 618 620 410 560 621 561
T	p2 87 124 117 83 504 505 506 357 622 623
T	p2 73 29 117 28 295 546 624 293 157 615
T	p2 27 120 28 123 625 614 156 485 497 564
T	p2 120 51 118 119 593 518 520 519 514 516
T	p2 37 51 36 118 240 239 168 538 518 612
T	p2 55 50 52 119 218 220 219 576 626 577
T	p2 22 97 23 125 391 392 149 617 627 628
T	p2 54 119 52 24 492 577 216 214 629 209
T	p2 115 5 32 126 453 162 452 578 586 532
T	p2 123 73 117 28 563 624 616 564 293 615
T	p2 19 108 18 117 465 464 144 507 613 474
T	p2 126 104 103 98 592 423 630 631 422 416
T	p2 126 121 109 112 594 595 596 633 632 444
T	p2 79 7 117 6 351 489 634 350 128 581
T	p2 121 104 126 31 635 592 594 597 420 533
T	p2 75 73 17 117 303 305 304 606 624 568
T	p2 126 109 107 112 596 445 534 633 444 443
T	p2 124 85 117 83 636 637 505 622 343 623
T	p2 77 117 0 17 638 473 318 315 568 142
T	p2 120 27 45 2 625 181 535 536 155 182
T	p2 118 85 7 117 500 344 490 487 637 489
T	p2 108 126 116 113 585 639 470 463 640 469
T	p2 80 81 124 82 328 554 641 327 326 555
T	p2 123 40 39 66 477 172 549 642 271 270
T	p2 80 124 83 78 641 622 330 331 598 329
T	p2 51 120 55 119 593 573 236 514 519 576
T	p2 126 108 116 112 585 470 639 633 461 471
T	p2 42 36 49 118 199 204 205 486 612 541
T	p2 11 119 94 89 491 643 372 388 644 389
T	p2 119 10 9 95 544 132 645 646 383 384
T	p2 63 62 13 122 251 256 255 649 647 648
T	p2 125 119 124 118 650 521 512 651 516 522
T	p2 104 126 32 102 592 532 419 417 610 418
T	p2 125 97 89 93 627 395 652 653 396 386
T	p2 119 125 94 89 650 654 643 644 652 389
T	p2 119 120 122 124 519 656 655 521 523 657
T	p2 71 123 28 72 484 564 297 296 565 294
T	p2 126 104 98 102 592 422 631 610 417 412
T	p2 5 126 21 106 586 608 147 430 609 429
T	p2 120 51 37 118 593 240 503 520 518 538
T	p2 121 117 17 116 607 568 525 526 569 467
T	p2 54 119 53 52 492 545 215 216 577 217
T	p2 91 125 90 93 658 659 367 371 653 370
T	p2 125 88 118 124 660 661 651 512 662 522
T	p2 50 120 57 58 572 502 231 228 603 235
T	p2 9 96 118 95 380 529 663 384 385 664
T	p2 125 88 93 95 660 368 653 665 381 382
T	p2 26 120 58 2 494 603 227 154 536 230
T	p2 121 74 123 40 478 475 666 480 300 477
T	p2 51 55 59 119 236 246 245 514 576 515
T	p2 125 126 122 101 667 668 621 618 669 560
T	p2 75 121 74 123 605 478 309 542 666 475
T	p2 60 67 66 123 274 275 269 670 588 642
T	p2 121 76 4 15 587 311 574 567 310 139
T	p2 119 9 118 95 645 663 516 646 384 664
T	p2 36 37 118 43 168 538 612 200 176 540
T	p2 125 119 118 95 650 516 651 665 646 664
T	p2 27 120 123 2 625 497 485 155 536 483
T	p2 96 88 118 95 379 661 529 385 381 664
T	p2 8 49 1 118 202 203 130 499 541 530
T	p2 88 96 118 35 379 529 661 376 377 531
T	p2 88 125 118 95 660 651 661 381 665 664
T	p2 125 88 124 90 660 662 512 659 369 671
T	p2 92 125 124 90 510 512 511 366 659 671
T	p2 95 125 89 93 665 652 387 382 653 386
T	p2 68 123 39 66 482 549 278 280 642 270
T	p2 119 125 124 122 650 512 521 655 621 657
T	p2 85 79 7 117 348 351 344 637 634 489
T	p2 104 121 30 31 635 584 421 420 597 160
T	p2 5 92 21 124 363 362 147 602 511 513
T	p2 126 121 117 123 594 607 604 672 666 616
T	p2 120 26 123 2 494 481 497 536 154 483
T	p2 110 126 116 112 673 639 468 446 633 471
T	p2 86 8 1 118 341 130 339 498 499 530
T	p2 68 26 123 67 281 481 482 282 273 588
T	p2 120 48 28 117 674 194 614 559 547 615
T	p2 75 123 73 117 542 563 303 606 616 624
T	p2 87 81 124 83 354 554 504 357 332 622
T	p2 14 121 13 62 570 675 137 258 571 256
T	p2 103 121 13 14 579 675 414 413 570 137
T	p2 75 121 123 117 605 666 542 606 607 616
T	p2 104 121 105 30 635 575 427 421 584 426
T	p2 13 99 12 122 398 397 136 648 562 676
T	p2 121 104 103 126 635 423 579 594 592 630
T	p2 121 104 105 103 635 427 575 579 423 428
T	p2 16 121 15 75 524 567 140 306 605 307
T	p2 121 76 15 75 587 310 567 605 313 307
T	p2 18 84 117 0 335 537 474 143 334 473
T	p2 63 60 122 61 250 677 649 254 253 678
T	p2 120 50 26 58 572 226 494 603 228 227
T	p2 70 123 40 39 476 477 283 284 549 172
T	p2 126 121 123 122 594 666 672 668 679 590
T	p2 50 120 25 119 572 495 225 626 519 680
T	p2 9 96 1 118 380 378 131 663 529 530
T	p2 86 85 118 78 346 500 498 340 342 599
T	p2 120 44 48 47 582 196 674 557 192 197
T	p2 69 75 123 73 308 542 543 298 303 563
T	p2 118 86 78 35 498 340 599 531 338 337
T	p2 9 119 118 59 645 516 663 242 515 517
T	p2 108 113 18 117 463 449 464 613 472 474
T	p2 120 45 44 43 535 184 582 539 185 186
T	p2 81 80 124 83 328 641 554 332 330 622
T	p2 85 124 118 78 636 522 500 342 598 599
T	p2 120 51 57 37 593 237 502 503 240 233
T	p2 70 71 72 123 288 296 289 476 484 565
T	p2 120 38 45 43 501 183 535 539 175 185
T	p2 42 36 118 43 199 612 486 190 200 540
T	p2 124 120 123 117 523 497 681 505 559 616
T	p2 73 117 77 17 624 638 316 305 568 315
T	p2 123 64 40 66 682 259 477 642 268 271
T	p2 84 79 117 6 349 634 537 333 350 581
T	p2 68 67 123 66 282 588 482 280 275 642
T	p2 20 81 124 19 321 554 552 145 322 508
T	p2 20 5 124 82 146 602 552 323 324 555
T	p2 114 126 112 108 583 633 457 462 585 461
T	p2 125 22 100 23 617 411 620 628 149 401
T	p2 79 87 117 83 356 506 634 347 357 623
T	p2 49 36 1 118 204 167 203 541 612 530
T	p2 25 67 61 122 272 276 277 589 591 678
T	p2 121 109 30 31 595 434 584 597 433 160
T	p2 64 121 122 123 528 679 683 682 666 590
T	p2 119 25 52 24 680 208 577 629 152 209
T	p2 121 65 14 4 527 261 570 574 262 138
T	p2 119 25 24 122 680 152 629 655 589 684
T	p2 110 121 109 111 566 595 442 440 580 441
T	p2 36 56 1 118 224 223 167 612 611 530
T	p2 85 79 117 83 348 634 637 343 347 623
T	p2 22 125 100 101 617 620 411 407 618 410
T	p2 126 113 117 116 640 472 604 639 469 569
T	p2 110 121 116 126 566 526 468 673 594 639
T	p2 33 80 124 82 320 641 601 325 327 555
T	p2 97 22 91 125 391 360 393 627 617 658
T	p2 125 126 101 102 667 669 618 619 610 406
T	p2 32 126 106 102 532 609 431 418 610 432
T	p2 126 98 101 102 631 404 669 610 412 406
T	p2 108 126 113 117 585 640 463 613 604 472
T	p2 126 124 123 117 551 681 672 604 505 616
T	p2 63 13 12 122 255 136 257 649 648 676
T	p2 11 10 119 89 133 544 491 388 390 644
T	p2 121 64 122 62 528 683 679 571 266 647
T	p2 12 99 100 122 397 402 399 676 562 561
T	p2 117 29 0 6 546 158 473 581 207 127
T	p2 119 11 54 53 491 212 492 545 210 215
T	p2 10 119 89 95 544 644 390 383 646 387
T	p2 125 119 94 23 650 643 654 628 685 374
T	p2 29 117 0 77 546 473 158 317 638 318
T	p2 124 80 34 78 641 319 686 598 331 336
T	p2 81 87 124 19 354 504 554 322 352 508
T	p2 5 33 124 82 163 601 602 324 325 555
T	p2 92 125 90 91 510 659 366 365 658 367
T	p2 109 121 30 111 595 584 434 441 580 439
T	p2 4 121 15 111 574 567 139 438 580 437
T	p2 121 4 30 111 574 159 584 580 438 439
T	p2 109 126 107 31 596 534 445 433 533 450
T	p2 124 88 34 90 662 375 686 671 369 359
T	p2 71 27 28 123 285 156 297 484 485 564
T	p2 121 126 117 116 594 604 607 526 639 569
T	p2 98 99 122 101 405 562 687 404 403 560
T	p2 120 50 55 119 572 218 573 519 626 576
T	p2 124 35 78 34 600 337 598 686 165 336
T	p2 33 80 34 124 320 319 164 601 641 686
T	p2 33 124 34 90 601 686 164 358 671 359
T	p2 125 126 124 122 667 551 512 621 668 657
T	p2 121 126 103 122 594 630 579 679 668 688
T	p2 125 97 23 94 627 392 628 654 394 374
T	p2 64 60 66 123 267 269 268 682 670 642
T	p2 126 124 122 123 551 657 668 672 681 590
T	p2 126 98 122 101 631 687 668 669 404 560
T	p2 121 110 109 112 566 442 595 632 446 444
T	p2 110 121 126 112 566 594 673 446 632 633
T	p2 24 3 122 61 151 689 684 249 248 678
T	p2 121 76 74 41 587 314 478 479 312 299
T	p2 119 3 122 24 493 689 655 629 151 684
T	p2 97 125 91 93 627 658 393 396 653 371
T	p2 124 88 35 34 662 376 600 686 375 165
T	p2 3 12 100 122 135 399 400 689 676 561
T	p2 121 110 116 16 566 468 526 524 436 466
T	p2 61 3 122 12 248 689 678 247 135 676
T	p2 67 60 61 122 274 253 276 591 677 678
T	p2 48 46 117 47 198 548 547 197 193 558
T	p2 124 88 118 35 662 661 522 600 376 531
T	p2 119 11 94 3 491 372 643 493 134 373
T	p2 56 9 118 59 222 663 611 244 242 517
T	p2 121 103 13 122 579 414 675 679 688 648
T	p2 114 126 107 112 583 534 456 457 633 443
T	p2 56 51 59 118 238 245 244 611 518 517
T	p2 33 92 124 90 364 511 601 358 366 671
T	p2 60 64 122 123 267 683 677 670 682 590
T	p2 24 25 61 122 152 277 249 684 589 678
T	p2 125 23 100 122 628 401 620 621 690 561
T	p2 64 60 122 62 267 677 683 266 252 647
T	p2 60 67 123 122 274 588 670 677 591 590
T	p2 88 125 93 90 660 653 368 369 659 370
T	p2 126 21 125 124 608 509 667 551 513 512
T	p2 126 5 124 20 586 602 551 550 146 552
T	p2 126 98 103 122 631 416 630 668 687 688
T	p2 97 125 89 94 627 652 395 394 654 389
T	p2 63 61 122 12 254 678 649 257 247 676
T	p2 62 121 13 122 571 675 256 647 679 648
T	p2 119 125 89 95 650 652 644 646 665 387
T	p2 119 3 94 23 493 373 643 685 150 374
T	p2 120 25 122 123 495 589 656 497 496 590
T	p2 23 3 100 122 150 400 401 690 689 561
T	p2 65 121 62 64 527 571 264 265 528 266
T	p2 103 99 13 122 415 398 414 688 562 648
T	p2 120 50 25 26 572 225 495 494 226 153
T	p2 48 120 47 117 674 557 197 547 559 558
T	p2 3 119 54 24 493 492 213 151 629 214
T	p2 124 120 122 123 523 656 657 681 497 590
T	p2 29 46 6 117 206 201 207 546 548 581
T	p2 7 46 117 6 188 548 489 128 201 581
T	p2 56 9 1 118 222 131 223 611 663 530
T	p2 119 3 23 122 493 150 685 655 689 690
T	p2 85 124 117 118 636 505 637 500 522 487
T	p2 8 85 7 118 345 344 129 499 500 490
T	p2 120 38 57 58 501 234 502 603 229 235
T	p2 27 120 45 44 625 535 181 180 582 184
T	p2 38 120 37 43 501 503 169 175 539 176
T	p2 125 119 23 122 650 685 628 621 655 690
T	p2 69 70 72 123 290 289 291 543 476 565
T	p2 119 50 52 25 626 220 577 680 225 208
T	p2 10 119 9 59 544 645 132 241 515 242
T	p2 119 10 53 59 544 211 545 515 241 243
T	p2 42 120 47 43 556 557 189 190 539 191
T	p2 117 113 0 17 472 448 473 568 447 142
T	p2 98 99 103 122 405 415 416 687 562 688
T	p2 60 63 122 62 250 649 677 252 251 647
T	p2 120 119 122 25 519 655 656 495 680 589
T	p2 87 79 117 84 356 634 506 355 349 537
T	p2 124 85 83 78 636 343 622 598 342 329
T	p2 8 42 118 7 177 486 499 129 178 490
T	p2 46 42 117 47 187 488 548 193 189 558
T	p2 21 22 125 91 148 617 509 361 360 658
T	p2 92 21 125 91 362 509 510 365 361 658
T	p2 29 73 117 77 295 624 546 317 316 638
T	p2 120 44 28 48 582 179 614 674 196 194
T	p2 42 46 117 7 187 548 488 178 188 489
T	p2 21 126 125 102 608 667 509 409 610 619
T	p2 22 21 125 102 148 509 617 408 409 619
T	p2 126 5 32 106 586 162 532 609 430 431
T	p2 64 121 123 40 528 666 682 259 480 477
T	p2 121 64 41 40 528 260 479 480 259 173
T	p2 120 27 28 44 625 156 614 582 180 179

domain
boundary
1 2 230
t	p2 37 38 43 169 175 176 
t	p2 8 42 7 177 178 129 
t	p2 28 44 27 179 180 156 
t	p2 27 45 2 181 182 155 
t	p2 45 38 2 183 170 182 
t	p2 45 27 44 181 180 184 
t	p2 43 45 44 185 184 186 
t	p2 45 43 38 185 175 183 
t	p2 7 42 46 178 187 188 
t	p2 47 42 43 189 190 191 
t	p2 44 47 43 192 191 186 
t	p2 42 47 46 189 193 187 
t	p2 48 28 29 194 157 195 
t	p2 28 48 44 194 196 179 
t	p2 48 47 44 197 192 196 
t	p2 46 47 48 193 197 198 
t	p2 42 36 43 199 200 190 
t	p2 37 43 36 176 200 168 
t	p2 7 46 6 188 201 128 
t	p2 49 8 1 202 130 203 
t	p2 49 36 42 204 199 205 
t	p2 36 49 1 204 203 167 
t	p2 8 49 42 202 205 177 
t	p2 46 48 29 198 195 206 
t	p2 6 29 0 207 158 127 
t	p2 6 46 29 201 206 207 
t	p2 24 25 52 152 208 209 
t	p2 10 11 53 133 210 211 
t	p2 54 11 3 212 134 213 
t	p2 24 54 3 214 213 151 
t	p2 11 54 53 212 215 210 
t	p2 52 54 24 216 214 209 
t	p2 54 52 53 216 217 215 
t	p2 50 55 52 218 219 220 
t	p2 55 53 52 221 217 219 
t	p2 9 56 1 222 223 131 
t	p2 56 36 1 224 167 223 
t	p2 25 50 52 225 220 208 
t	p2 50 25 26 225 153 226 
t	p2 26 58 50 227 228 226 
t	p2 38 58 2 229 230 170 
t	p2 58 26 2 227 154 230 
t	p2 50 57 55 231 232 218 
t	p2 37 57 38 233 234 169 
t	p2 57 50 58 231 228 235 
t	p2 57 58 38 235 229 234 
t	p2 51 55 57 236 232 237 
t	p2 36 56 51 224 238 239 
t	p2 57 37 51 233 240 237 
t	p2 36 51 37 239 240 168 
t	p2 10 59 9 241 242 132 
t	p2 59 10 53 241 211 243 
t	p2 59 56 9 244 222 242 
t	p2 51 56 59 238 244 245 
t	p2 59 55 51 246 236 245 
t	p2 53 55 59 221 246 243 
t	p2 12 61 3 247 248 135 
t	p2 61 24 3 249 151 248 
t	p2 60 63 62 250 251 252 
t	p2 63 60 61 250 253 254 
t	p2 63 13 62 255 256 251 
t	p2 63 12 13 257 136 255 
t	p2 61 12 63 247 257 254 
t	p2 13 14 62 137 258 256 
t	p2 40 64 41 259 260 173 
t	p2 65 14 4 261 138 262 
t	p2 41 65 4 263 262 174 
t	p2 14 65 62 261 264 258 
t	p2 64 65 41 265 263 260 
t	p2 64 62 65 266 264 265 
t	p2 60 62 64 252 266 267 
t	p2 60 64 66 267 268 269 
t	p2 40 39 66 172 270 271 
t	p2 64 40 66 259 271 268 
t	p2 25 67 26 272 273 153 
t	p2 67 60 66 274 269 275 
t	p2 60 67 61 274 276 253 
t	p2 61 25 24 277 152 249 
t	p2 67 25 61 272 277 276 
t	p2 68 39 2 278 171 279 
t	p2 39 68 66 278 280 270 
t	p2 26 68 2 281 279 154 
t	p2 67 68 26 282 281 273 
t	p2 67 66 68 275 280 282 
t	p2 39 40 70 172 283 284 
t	p2 71 27 2 285 155 286 
t	p2 39 71 2 287 286 171 
t	p2 71 39 70 287 284 288 
t	p2 72 70 69 289 290 291 
t	p2 72 73 28 292 293 294 
t	p2 73 29 28 295 157 293 
t	p2 70 72 71 289 296 288 
t	p2 28 27 71 156 285 297 
t	p2 28 71 72 297 296 294 
t	p2 73 72 69 292 291 298 
t	p2 41 74 40 299 300 173 
t	p2 70 40 74 283 300 301 
t	p2 69 70 74 290 301 302 
t	p2 73 75 17 303 304 305 
t	p2 75 16 17 306 141 304 
t	p2 75 15 16 307 140 306 
t	p2 69 75 73 308 303 298 
t	p2 75 69 74 308 302 309 
t	p2 15 76 4 310 311 139 
t	p2 76 41 4 312 174 311 
t	p2 76 15 75 310 307 313 
t	p2 74 76 75 314 313 309 
t	p2 76 74 41 314 299 312 
t	p2 17 77 73 315 316 305 
t	p2 29 77 0 317 318 158 
t	p2 77 29 73 317 295 316 
t	p2 77 17 0 315 142 318 
t	p2 33 34 80 164 319 320 
t	p2 19 20 81 145 321 322 
t	p2 82 20 5 323 146 324 
t	p2 33 82 5 325 324 163 
t	p2 20 82 81 323 326 321 
t	p2 80 82 33 327 325 320 
t	p2 82 80 81 327 328 326 
t	p2 78 83 80 329 330 331 
t	p2 83 81 80 332 328 330 
t	p2 84 6 0 333 127 334 
t	p2 18 84 0 335 334 143 
t	p2 34 78 80 336 331 319 
t	p2 78 34 35 336 165 337 
t	p2 86 35 1 338 166 339 
t	p2 35 86 78 338 340 337 
t	p2 8 86 1 341 339 130 
t	p2 78 85 83 342 343 329 
t	p2 7 85 8 344 345 129 
t	p2 85 78 86 342 340 346 
t	p2 85 86 8 346 341 345 
t	p2 79 83 85 347 343 348 
t	p2 6 84 79 333 349 350 
t	p2 85 7 79 344 351 348 
t	p2 6 79 7 350 351 128 
t	p2 19 87 18 352 353 144 
t	p2 87 19 81 352 322 354 
t	p2 87 84 18 355 335 353 
t	p2 79 84 87 349 355 356 
t	p2 87 83 79 357 347 356 
t	p2 81 83 87 332 357 354 
t	p2 34 33 90 164 358 359 
t	p2 21 22 91 148 360 361 
t	p2 21 92 5 362 363 147 
t	p2 92 33 5 364 163 363 
t	p2 92 21 91 362 361 365 
t	p2 92 90 33 366 358 364 
t	p2 90 92 91 366 365 367 
t	p2 93 88 90 368 369 370 
t	p2 91 93 90 371 370 367 
t	p2 11 94 3 372 373 134 
t	p2 94 23 3 374 150 373 
t	p2 88 34 90 375 359 369 
t	p2 34 88 35 375 376 165 
t	p2 35 96 1 377 378 166 
t	p2 96 35 88 377 376 379 
t	p2 96 9 1 380 131 378 
t	p2 95 88 93 381 368 382 
t	p2 95 10 9 383 132 384 
t	p2 88 95 96 381 385 379 
t	p2 96 95 9 385 384 380 
t	p2 93 89 95 386 387 382 
t	p2 94 11 89 372 388 389 
t	p2 10 95 89 383 387 390 
t	p2 89 11 10 388 133 390 
t	p2 97 22 23 391 149 392 
t	p2 22 97 91 391 393 360 
t	p2 94 97 23 394 392 374 
t	p2 94 89 97 389 395 394 
t	p2 93 97 89 396 395 386 
t	p2 93 91 97 371 393 396 
t	p2 13 12 99 136 397 398 
t	p2 100 12 3 399 135 400 
t	p2 23 100 3 401 400 150 
t	p2 12 100 99 399 402 397 
t	p2 99 101 98 403 404 405 
t	p2 102 101 22 406 407 408 
t	p2 21 102 22 409 408 148 
t	p2 101 99 100 403 402 410 
t	p2 23 22 100 149 411 401 
t	p2 100 22 101 411 407 410 
t	p2 101 102 98 406 412 404 
t	p2 103 14 13 413 137 414 
t	p2 13 99 103 398 415 414 
t	p2 99 98 103 405 416 415 
t	p2 104 102 32 417 418 419 
t	p2 31 104 32 420 419 161 
t	p2 30 104 31 421 420 160 
t	p2 104 98 102 422 412 417 
t	p2 98 104 103 422 423 416 
t	p2 14 105 4 424 425 138 
t	p2 105 30 4 426 159 425 
t	p2 30 105 104 426 427 421 
t	p2 105 103 104 428 423 427 
t	p2 103 105 14 428 424 413 
t	p2 106 21 5 429 147 430 
t	p2 106 32 102 431 418 432 
t	p2 32 106 5 431 430 162 
t	p2 21 106 102 429 432 409 
t	p2 30 31 109 160 433 434 
t	p2 16 15 110 140 435 436 
t	p2 111 15 4 437 139 438 
t	p2 30 111 4 439 438 159 
t	p2 15 111 110 437 440 435 
t	p2 109 111 30 441 439 434 
t	p2 111 109 110 441 442 440 
t	p2 107 112 109 443 444 445 
t	p2 112 110 109 446 442 444 
t	p2 17 113 0 447 448 142 
t	p2 113 18 0 449 143 448 
t	p2 31 107 109 450 445 433 
t	p2 107 31 32 450 161 451 
t	p2 115 32 5 452 162 453 
t	p2 32 115 107 452 454 451 
t	p2 20 115 5 455 453 146 
t	p2 107 114 112 456 457 443 
t	p2 19 114 20 458 459 145 
t	p2 114 107 115 456 454 460 
t	p2 114 115 20 460 455 459 
t	p2 108 112 114 461 457 462 
t	p2 18 113 108 449 463 464 
t	p2 114 19 108 458 465 462 
t	p2 18 108 19 464 465 144 
t	p2 16 116 17 466 467 141 
t	p2 116 16 110 466 436 468 
t	p2 116 113 17 469 447 467 
t	p2 108 113 116 463 469 470 
t	p2 116 112 108 471 461 470 
t	p2 110 112 116 446 471 468 

