#!geo

mesh
4
header
 dimension 2
 nodes	139
 triangles	92
 quadrangles	72
 edges	302
end header

0 0
1 0
1 1
0 1
0.1 0
0.2 0
0.3 0
0.4 0
0.5 0
0.6 0
0.7 0
0.8 0
0.9 0
1 0.1
1 0.2
1 0.3
1 0.4
1 0.5
1 0.6
1 0.7
1 0.8
1 0.9
0.9 1
0.8 1
0.7 1
0.6 1
0.5 1
0.4 1
0.3 1
0.2 1
0.1 1
0 0.9
0 0.8
0 0.7
0 0.6
0 0.5
0 0.4
0 0.3
0 0.2
0 0.1
0.879999999078 0.759999999693
0.571428550427 0.928571424986
0.866666719426 0.666666620054
0.149999998976 0.15
0.0714285709163 0.571428570916
0.919999999898 0.239999999283
0.0666666620566 0.133333342041
0.924999999232 0.149999998976
0.239999999283 0.879999999078
0.799999999488 0.199999999488
0.357142854582 0.14285714132
0.928571428059 0.428571428059
0.300000000512 0.499999996414
0.199999985145 0.250000021514
0.642857124929 0.857142853557
0.800000039442 0.749999965169
0.224999999232 0.0749999997439
0.666666666154 0.0833333323089
0.149999998976 0.0749999997439
0.849999998976 0.0999999994878
0.159999999693 0.819999999898
0.15 0.899999999488
0.733333332821 0.133333332821
0.899999999488 0.849999998976
0.428571427035 0.0714285709163
0.900000001537 0.499999991292
0.199999999488 0.499999997439
0.266666656934 0.166666680497
0.0666666569343 0.333333355359
0.714285700456 0.785714283153
0.428571428059 0.928571428059
0.333333368677 0.91666672711
0.079999999078 0.759999999693
0.0749999997439 0.849999998976
0.849999998976 0.924999999232
0.571428570916 0.0714285709163
0.800000001537 0.499999992317
0.0999999994878 0.499999998463
0.119999999898 0.239999999283
0.0714285657941 0.42857142601
0.700000000512 0.499999993341
0.666666658983 0.933333393264
0.285714285202 0.785714285202
0.866666666154 0.333333332821
0.200000021001 0.750000035856
0.774999999744 0.0749999997439
0.774999998719 0.925000003329
0.142857137223 0.357142854582
0.714285713773 0.214285713773
0.600000000512 0.499999994365
0.928571424986 0.571428569892
0.733333326674 0.866666715328
0.133333347163 0.666666690741
0.785714285202 0.285714285202
0.500000000512 0.499999994365
0.819999999898 0.839999999283
0.333333330772 0.0666666702523
0.400000000512 0.49999999539
0.660714292629 0.714285730165
0.704761899127 0.595238069114
0.374999942374 0.803571409875
0.607142852021 0.767857155407
0.233333347163 0.666666688692
0.166666678448 0.583333333333
0.266666662057 0.416666670764
0.535714282641 0.178571429596
0.428571428059 0.321428556062
0.783333338456 0.583333285184
0.661904760368 0.428571421912
0.553571427803 0.428571422937
0.446428596784 0.57142855555
0.323809516126 0.690476227869
0.83333332565 0.416666645153
0.553571421656 0.571428557598
0.171428567843 0.428571424986
0.766666695864 0.666666634396
0.553571396045 0.839285705322
0.571428566819 0.678571431645
0.295238097799 0.595238111117
0.233333323601 0.333333345115
0.624999998207 0.196428572709
0.464285714286 0.410714274701
0.38928570481 0.410714273677
0.723809521248 0.357142849459
0.660714284434 0.285714283153
0.46428566921 0.821428557086
0.446428568099 0.160714286483
0.392857141833 0.232142837422
0.607142856118 0.357142852533
0.392857158224 0.64285714132
0.629166635293 0.583333286208
0.51785711699 0.749999993853
0.482142841008 0.660714280336
0.428571405521 0.732142826153
0.571428552476 0.267857116477
0.313095225546 0.282738089219
0.482142861497 0.249999989755
0.761904770613 0.428571410643
0.517857128259 0.339285697126

t	24 86 23
t	30 3 31
t	72 73 32
t	61 48 29
t	73 60 61
t	32 73 31
t	72 60 73
t	33 72 32
t	44 103 92
t	92 72 33
t	48 61 60
t	29 30 61
t	44 34 35
t	35 79 77
t	41 26 70
t	135 127 106
t	110 97 94
t	118 102 103
t	97 118 52
t	111 102 118
t	129 111 118
t	132 129 110
t	113 132 110
t	117 101 131
t	46 4 58
t	56 58 5
t	46 38 39
t	43 78 46
t	43 53 78
t	58 43 46
t	5 58 4
t	56 43 58
t	38 46 78
t	64 7 8
t	126 127 50
t	64 126 50
t	87 53 119
t	79 87 114
t	37 68 36
t	1 13 12
t	47 13 14
t	49 47 45
t	47 14 45
t	14 15 45
t	49 59 47
t	112 83 51
t	89 108 80
t	88 49 93
t	51 16 17
t	65 51 17
t	83 45 15
t	90 65 17
t	42 107 90
t	18 90 17
t	91 81 54
t	95 63 74
t	74 23 86
t	99 115 98
t	113 89 130
t	101 117 98
t	110 94 113
t	122 106 121
t	104 119 135
t	136 106 127
t	115 107 42
t	99 107 115
t	54 116 101
t	121 106 138
t	94 121 109
t	88 62 49
t	137 76 80
t	112 137 123
t	112 76 137
t	86 91 95
t	111 129 133
t	75 8 9
t	64 8 75
t	96 6 7
t	85 10 11
t	129 132 133
t	54 41 116
t	79 35 36
t	44 35 77
t	91 54 69
t	25 81 24
t	27 70 26
t	41 25 26
t	2 22 21
t	74 22 23
t	20 63 40
t	95 74 86
t	21 63 20
q	73 61 30 31
q	92 33 34 44
q	102 84 92 103
q	66 52 118 103
q	97 110 129 118
q	103 44 77 66
q	72 92 84 60
q	60 84 82 48
q	68 87 79 36
q	27 28 71 70
q	82 100 71 48
q	48 71 28 29
q	104 52 66 114
q	135 119 53 67
q	127 135 67 50
q	52 104 122 97
q	89 113 94 109
q	132 117 131 133
q	125 100 133 131
q	100 82 111 133
q	39 0 4 46
q	78 53 87 68
q	78 68 37 38
q	56 5 6 96
q	96 7 64 50
q	43 56 67 53
q	135 106 122 104
q	126 105 136 127
q	114 87 119 104
q	114 66 77 79
q	12 13 47 59
q	16 51 83 15
q	59 85 11 12
q	62 85 59 49
q	85 62 57 10
q	137 80 108 123
q	93 83 112 123
q	69 98 115 55
q	45 83 93 49
q	112 51 65 76
q	42 90 18 19
q	95 91 69 55
q	95 55 40 63
q	113 130 117 132
q	116 125 131 101
q	80 99 130 89
q	69 54 101 98
q	130 99 98 117
q	120 105 75 57
q	124 88 93 123
q	134 124 128 138
q	97 122 121 94
q	120 88 124 134
q	123 108 128 124
q	134 136 105 120
q	136 134 138 106
q	138 128 109 121
q	126 64 75 105
q	80 76 107 99
q	100 125 70 71
q	116 41 70 125
q	108 89 109 128
q	55 115 42 40
q	107 76 65 90
q	120 57 62 88
q	9 10 57 75
q	96 50 67 56
q	102 111 82 84
q	81 91 86 24
q	41 54 81 25
q	40 42 19 20
q	21 22 74 63

e	24 86
e	86 23
e	23 24
e	30 3
e	3 31
e	31 30
e	72 73
e	73 32
e	32 72
e	61 48
e	48 29
e	29 61
e	73 60
e	60 61
e	61 73
e	73 31
e	31 32
e	72 60
e	33 72
e	32 33
e	44 103
e	103 92
e	92 44
e	92 72
e	33 92
e	60 48
e	29 30
e	30 61
e	44 34
e	34 35
e	35 44
e	35 79
e	79 77
e	77 35
e	41 26
e	26 70
e	70 41
e	135 127
e	127 106
e	106 135
e	110 97
e	97 94
e	94 110
e	118 102
e	102 103
e	103 118
e	97 118
e	118 52
e	52 97
e	111 102
e	118 111
e	129 111
e	118 129
e	132 129
e	129 110
e	110 132
e	113 132
e	110 113
e	117 101
e	101 131
e	131 117
e	46 4
e	4 58
e	58 46
e	56 58
e	58 5
e	5 56
e	46 38
e	38 39
e	39 46
e	43 78
e	78 46
e	46 43
e	43 53
e	53 78
e	58 43
e	4 5
e	56 43
e	78 38
e	64 7
e	7 8
e	8 64
e	126 127
e	127 50
e	50 126
e	64 126
e	50 64
e	87 53
e	53 119
e	119 87
e	79 87
e	87 114
e	114 79
e	37 68
e	68 36
e	36 37
e	1 13
e	13 12
e	12 1
e	47 13
e	13 14
e	14 47
e	49 47
e	47 45
e	45 49
e	14 45
e	14 15
e	15 45
e	49 59
e	59 47
e	112 83
e	83 51
e	51 112
e	89 108
e	108 80
e	80 89
e	88 49
e	49 93
e	93 88
e	51 16
e	16 17
e	17 51
e	65 51
e	17 65
e	83 45
e	15 83
e	90 65
e	17 90
e	42 107
e	107 90
e	90 42
e	18 90
e	17 18
e	91 81
e	81 54
e	54 91
e	95 63
e	63 74
e	74 95
e	74 23
e	86 74
e	99 115
e	115 98
e	98 99
e	113 89
e	89 130
e	130 113
e	117 98
e	98 101
e	94 113
e	122 106
e	106 121
e	121 122
e	104 119
e	119 135
e	135 104
e	136 106
e	127 136
e	115 107
e	42 115
e	99 107
e	54 116
e	116 101
e	101 54
e	106 138
e	138 121
e	94 121
e	121 109
e	109 94
e	88 62
e	62 49
e	137 76
e	76 80
e	80 137
e	112 137
e	137 123
e	123 112
e	112 76
e	86 91
e	91 95
e	95 86
e	129 133
e	133 111
e	75 8
e	8 9
e	9 75
e	75 64
e	96 6
e	6 7
e	7 96
e	85 10
e	10 11
e	11 85
e	132 133
e	54 41
e	41 116
e	35 36
e	36 79
e	77 44
e	54 69
e	69 91
e	25 81
e	81 24
e	24 25
e	27 70
e	26 27
e	41 25
e	25 26
e	2 22
e	22 21
e	21 2
e	74 22
e	22 23
e	20 63
e	63 40
e	40 20
e	21 63
e	20 21
e	33 34
e	102 84
e	84 92
e	66 52
e	103 66
e	77 66
e	84 60
e	84 82
e	82 48
e	68 87
e	27 28
e	28 71
e	71 70
e	82 100
e	100 71
e	71 48
e	28 29
e	104 52
e	66 114
e	114 104
e	53 67
e	67 135
e	67 50
e	104 122
e	122 97
e	109 89
e	132 117
e	131 133
e	125 100
e	100 133
e	131 125
e	82 111
e	39 0
e	0 4
e	68 78
e	37 38
e	5 6
e	96 56
e	50 96
e	56 67
e	126 105
e	105 136
e	59 12
e	15 16
e	59 85
e	11 12
e	62 85
e	62 57
e	57 10
e	108 123
e	93 83
e	123 93
e	69 98
e	115 55
e	55 69
e	65 76
e	18 19
e	19 42
e	55 95
e	55 40
e	130 117
e	116 125
e	80 99
e	99 130
e	120 105
e	105 75
e	75 57
e	57 120
e	124 88
e	123 124
e	134 124
e	124 128
e	128 138
e	138 134
e	120 88
e	134 120
e	108 128
e	134 136
e	128 109
e	76 107
e	125 70
e	42 40
e	9 10
e	19 20

domain
bottom
2 1 10
251
76
254
188
80
184
300
191
263
98

domain
right
2 1 10
96
100
106
261
120
132
274
301
217
210

domain
top
2 1 10
208
212
2
203
207
205
228
234
26
3

domain
left
2 1 10
4
16
19
218
29
196
95
253
68
250

domain
boundary
2 1 40
2
3
4
16
19
26
29
68
76
80
95
96
98
100
106
120
132
184
188
191
196
203
205
207
208
210
212
217
218
228
234
250
251
253
254
261
263
274
300
301
