#!geo

mesh
4
header
 dimension 2
 nodes	543
 quadrangles	502
 edges	1044
end header

0 0
1 0
1 1
0 1
0.1 0
0.2 0
0.3 0
0.4 0
0.5 0
0.6 0
0.7 0
0.8 0
0.9 0
1 0.1
1 0.2
1 0.3
1 0.4
1 0.5
1 0.6
1 0.7
1 0.8
1 0.9
0.9 1
0.8 1
0.7 1
0.6 1
0.5 1
0.4 1
0.3 1
0.2 1
0.1 1
0 0.9
0 0.8
0 0.7
0 0.6
0 0.5
0 0.4
0 0.3
0 0.2
0 0.1
0.879999999078 0.759999999693
0.571428550427 0.928571424986
0.866666719426 0.666666620054
0.149999998976 0.15
0.0714285709163 0.571428570916
0.919999999898 0.239999999283
0.0666666620566 0.133333342041
0.924999999232 0.149999998976
0.239999999283 0.879999999078
0.799999999488 0.199999999488
0.357142854582 0.14285714132
0.928571428059 0.428571428059
0.300000000512 0.499999996414
0.199999985145 0.250000021514
0.642857124929 0.857142853557
0.800000039442 0.749999965169
0.224999999232 0.0749999997439
0.666666666154 0.0833333323089
0.149999998976 0.0749999997439
0.849999998976 0.0999999994878
0.159999999693 0.819999999898
0.15 0.899999999488
0.733333332821 0.133333332821
0.899999999488 0.849999998976
0.428571427035 0.0714285709163
0.900000001537 0.499999991292
0.199999999488 0.499999997439
0.266666656934 0.166666680497
0.0666666569343 0.333333355359
0.714285700456 0.785714283153
0.428571428059 0.928571428059
0.333333368677 0.91666672711
0.079999999078 0.759999999693
0.0749999997439 0.849999998976
0.849999998976 0.924999999232
0.571428570916 0.0714285709163
0.800000001537 0.499999992317
0.0999999994878 0.499999998463
0.119999999898 0.239999999283
0.0714285657941 0.42857142601
0.700000000512 0.499999993341
0.666666658983 0.933333393264
0.285714285202 0.785714285202
0.866666666154 0.333333332821
0.200000021001 0.750000035856
0.774999999744 0.0749999997439
0.774999998719 0.925000003329
0.142857137223 0.357142854582
0.714285713773 0.214285713773
0.600000000512 0.499999994365
0.928571424986 0.571428569892
0.733333326674 0.866666715328
0.133333347163 0.666666690741
0.785714285202 0.285714285202
0.500000000512 0.499999994365
0.819999999898 0.839999999283
0.333333330772 0.0666666702523
0.400000000512 0.49999999539
0.660714292629 0.714285730165
0.704761899127 0.595238069114
0.374999942374 0.803571409875
0.607142852021 0.767857155407
0.233333347163 0.666666688692
0.166666678448 0.583333333333
0.266666662057 0.416666670764
0.535714282641 0.178571429596
0.428571428059 0.321428556062
0.783333338456 0.583333285184
0.661904760368 0.428571421912
0.553571427803 0.428571422937
0.446428596784 0.57142855555
0.323809516126 0.690476227869
0.83333332565 0.416666645153
0.553571421656 0.571428557598
0.171428567843 0.428571424986
0.766666695864 0.666666634396
0.553571396045 0.839285705322
0.571428566819 0.678571431645
0.295238097799 0.595238111117
0.233333323601 0.333333345115
0.624999998207 0.196428572709
0.464285714286 0.410714274701
0.38928570481 0.410714273677
0.723809521248 0.357142849459
0.660714284434 0.285714283153
0.46428566921 0.821428557086
0.446428568099 0.160714286483
0.392857141833 0.232142837422
0.607142856118 0.357142852533
0.392857158224 0.64285714132
0.629166635293 0.583333286208
0.51785711699 0.749999993853
0.482142841008 0.660714280336
0.428571405521 0.732142826153
0.571428552476 0.267857116477
0.313095225546 0.282738089219
0.482142861497 0.249999989755
0.761904770613 0.428571410643
0.517857128259 0.339285697126
0.05 0
0.15 0
0.25 0
0.35 0
0.45 0
0.55 0
0.65 0
0.75 0
0.85 0
0.95 0
1 0.05
1 0.15
1 0.25
1 0.35
1 0.45
1 0.55
1 0.65
1 0.75
1 0.85
1 0.95
0.95 1
0.85 1
0.75 1
0.65 1
0.55 1
0.45 1
0.35 1
0.25 1
0.15 1
0.05 1
0 0.95
0 0.85
0 0.75
0 0.65
0 0.55
0 0.45
0 0.35
0 0.25
0 0.15
0 0.05
0.78749999936 0.962500001665
0.73749999936 0.962500001665
0.05 0.95
0.0874999998719 0.924999999488
0.112499999872 0.874999999232
0.125 0.949999999744
0.0374999998719 0.824999999488
0.039999999539 0.779999999846
0.0774999994109 0.804999999334
0.219999999641 0.939999999539
0.175 0.949999999744
0.194999999641 0.889999999283
0.154999999846 0.859999999693
0.117499999718 0.834999999437
0.0374999998719 0.874999999488
0.119999999385 0.789999999795
0.039999999539 0.729999999846
0.0666666735817 0.633333345371
0.0666666735817 0.683333345371
0.166666684082 0.708333363299
0.183333347163 0.666666689717
0.216666684082 0.708333362274
0.150000012806 0.625000012037
0.200000012806 0.625000011013
0.10238095904 0.619047630829
0.119047624682 0.577380952125
0.297619049156 0.547619053766
0.247619048644 0.547619054278
0.25 0.499999996927
0.423214298648 0.53571427547
0.419642877504 0.607142848435
0.396428579368 0.571428568355
0.106666673121 0.713333345217
0.0857142852021 0.53571428469
0.133333338968 0.541666665898
0.14000001004 0.755000017774
0.230952388124 0.589285722225
0.183333338968 0.541666665386
0.180000010347 0.785000017877
0.242857153102 0.767857160529
0.222857142447 0.80285714255
0.199999999488 0.849999999488
0.0357142854582 0.585714285458
0.0357142854582 0.535714285458
0.104761897078 0.34523810497
0.107142851508 0.392857140296
0.0690476113642 0.380952390685
0.0857142826409 0.464285712237
0.0499999997439 0.499999999232
0.035714282897 0.464285713005
0.035714282897 0.414285713005
0.0333333284672 0.36666667768
0.316666684339 0.958333363555
0.366666684339 0.958333363555
0.354166655526 0.860119068492
0.30952382694 0.851190506156
0.330357113788 0.794642847539
0.46428571403 0.96428571403
0.499999989243 0.928571426523
0.535714275214 0.964285712493
0.41428571403 0.96428571403
0.380952398368 0.922619077584
0.269999999641 0.939999999539
0.28666668398 0.898333363094
0.233333330772 0.458333334102
0.283333331284 0.458333333589
0.410714284946 0.276785696742
0.370833326802 0.302083322641
0.352976183689 0.257440463321
0.273214274573 0.308035717167
0.216666654373 0.291666683314
0.256547605346 0.266369055366
0.28988094124 0.224702384858
0.329761899384 0.199404758959
0.327976183433 0.413690472221
0.344642852661 0.455357135046
0.450000000512 0.499999994878
0.473214298648 0.535714274958
0.526785711084 0.535714275982
0.550000000512 0.499999994365
0.576785711084 0.535714275982
0.264285722481 0.630952399905
0.350000000512 0.499999995902
0.347619049156 0.547619053254
0.309523806963 0.642857169493
0.278571431645 0.678571458281
0.344047628012 0.619047626219
0.358333337175 0.666666684595
0.464285718896 0.616071417943
0.437499999616 0.651785710828
0.50000000922 0.571428556574
0.517857131332 0.616071418967
0.499999978999 0.705357137095
0.526785703913 0.66964285599
0.544642841904 0.714285712749
0.419642805792 0.812499983481
0.401785673948 0.767857118014
0.446428537365 0.77678569162
0.4910713931 0.78571427547
0.473214261255 0.741071410003
0.562499984505 0.75892857463
0.58928570942 0.723214293526
0.304761900664 0.738095256535
0.34940472925 0.747023818872
0.262857142242 0.83285714214
0.05 0.05
0.124999999488 0.0374999998719
0.108333330516 0.104166670893
0.0833333310283 0.0666666710206
0.174999999488 0.0374999998719
0.212499999616 0.0374999998719
0.187499999104 0.0749999997439
0.0333333310283 0.116666671021
0.0333333310283 0.166666671021
0.0933333309771 0.186666670662
0.108333330516 0.141666671021
0.134999999437 0.194999999641
0.171428561184 0.303571438048
0.13142856856 0.298571426932
0.159999992521 0.245000010398
0.093333328416 0.286666677321
0.0333333284672 0.31666667768
0.0599999999488 0.269999999641
0.17499999206 0.200000010757
0.149999998976 0.112499999872
0.187499999104 0.112499999872
0.262499999616 0.0374999998719
0.279166665002 0.0708333349981
0.316666665386 0.0333333351261
0.414285713517 0.0357142854582
0.380952378903 0.0690476205843
0.366666665386 0.0333333351261
0.0599999999488 0.219999999641
0.464285713517 0.0357142854582
0.245833328083 0.12083334012
0.208333327955 0.158333340248
0.408928566434 0.366071414869
0.351190465178 0.346726181448
0.374999998207 0.187499989371
0.40178571134 0.151785713902
0.419642854966 0.196428561952
0.508928572069 0.214285709676
0.464285714798 0.205357138119
0.49107142537 0.169642858039
0.392857140808 0.107142856118
0.437499997567 0.116071428699
0.437500001665 0.241071413589
0.185714283665 0.464285711212
0.21904761495 0.422619047875
0.188095230412 0.345238099848
0.202380945722 0.38095238505
0.157142852533 0.392857139784
0.149999999488 0.499999997951
0.135714283665 0.464285711725
0.121428566819 0.428571425498
0.95 0.05
0.962499999616 0.174999999488
0.962499999616 0.124999999488
0.922499999565 0.194999999129
0.859999999693 0.219999999385
0.86249999936 0.174999999232
0.912499999616 0.0749999994878
0.959999999949 0.219999999641
0.887499999104 0.124999999232
0.874999999488 0.0499999997439
0.959999999949 0.269999999641
0.933333333077 0.366666666411
0.96428571403 0.41428571403
0.897619047107 0.38095238044
0.824999999488 0.0499999997439
0.81249999936 0.0874999996158
0.787499999872 0.0374999998719
0.791666665898 0.116666666154
0.754166666282 0.104166666282
0.720833332949 0.0791666660264
0.699999999488 0.108333332565
0.824999999232 0.149999999488
0.683333333077 0.0416666661544
0.737499999872 0.0374999998719
0.766666666154 0.166666666154
0.880952376855 0.422619036606
0.849999995902 0.374999988987
0.71190476549 0.428571416278
0.730952385562 0.464285701992
0.68095238044 0.464285707627
0.809523805426 0.351190465178
0.826190475678 0.309523809012
0.650000000512 0.499999993853
0.63095238044 0.464285708139
0.792857142345 0.242857142345
0.749999999488 0.249999999488
0.757142856631 0.207142856631
0.96428571403 0.46428571403
0.950000000768 0.499999995646
0.914285714798 0.464285709676
0.687499996542 0.750000006659
0.713690494246 0.690476182281
0.74047619816 0.726190458775
0.85285714255 0.262857142242
0.893333333026 0.286666666052
0.866666663593 0.458333318223
0.692857140808 0.392857135686
0.742857145931 0.392857130051
0.933333333077 0.316666666411
0.964285712493 0.535714284946
0.914285713261 0.535714280592
0.964285712493 0.585714284946
0.933333359713 0.633333310027
0.897619072206 0.619047594973
0.855952381721 0.577380927538
0.825000028941 0.624999952619
0.654761891956 0.895238123411
0.688095225802 0.861904784443
0.699999992829 0.900000054296
0.874999999232 0.887499999104
0.834999999437 0.882499999257
0.859999999693 0.844999999129
0.776666663286 0.853333357306
0.723809513565 0.826190499241
0.767142850177 0.812857141218
0.849999999488 0.799999999488
0.81000001967 0.794999982226
0.84000001926 0.754999982431
0.812499998847 0.925000001281
0.824999999488 0.962499999616
0.682738095878 0.65476189964
0.735714297496 0.630952351755
0.591369028475 0.577380921903
0.600297601056 0.630952358927
0.562499994237 0.624999994622
0.535714256517 0.794642849588
0.508928532627 0.830357131204
0.664583317902 0.541666639775
0.70238094982 0.547619031228
0.66696426721 0.589285677661
0.660714276238 0.77678571928
0.678571412692 0.821428568355
0.624999988475 0.812500004482
0.614583317902 0.541666640287
0.644940463961 0.648809508187
0.616071429724 0.696428580905
0.633928572325 0.741071442786
0.553571426779 0.125000000256
0.598214284562 0.133928571813
0.580357140424 0.187500001153
0.687499999104 0.249999998463
0.723214284818 0.285714284178
0.589285704297 0.312499984505
0.616071418455 0.276785699815
0.633928570276 0.321428567843
0.446428571172 0.366071415382
0.426785709548 0.410714274189
0.432142857399 0.455357135046
0.394642852661 0.455357134533
0.289880943801 0.349702379992
0.249999992829 0.37500000794
0.23333332104 0.208333351005
0.66964285599 0.205357143241
0.64285714132 0.241071427931
0.665476188683 0.357142850996
0.634523808243 0.392857137223
0.455357144778 0.285714272909
0.553571417559 0.223214273037
0.526785706986 0.258928553116
0.499999994878 0.294642843441
0.544642840367 0.303571406802
0.598214275342 0.232142844593
0.535714278031 0.383928560032
0.562499992189 0.348214274829
0.580357141961 0.392857137735
0.692261902841 0.321428566306
0.491071421272 0.374999985914
0.508928571044 0.419642848819
0.499999998976 0.0714285709163
0.508928569508 0.116071428699
0.816666707645 0.666666627225
0.77500001716 0.62499995979
0.783333367653 0.708333299782
0.757142869949 0.767857124161
0.744047618792 0.589285677149
0.791666669996 0.54166663875
0.741666669484 0.541666639262
0.750000001024 0.499999992829
0.401785685217 0.866071418967
0.446428548634 0.874999992573
0.580357124033 0.803571430364
0.598214260487 0.84821427944
0.491071412052 0.88392856669
0.562499973236 0.883928565154
0.607738094086 0.428571422425
0.576785714158 0.464285708651
0.473214278159 0.330357126594
0.526785714158 0.464285708651
0.482142857399 0.455357134533
0.833333379434 0.708333292611
0.841666669996 0.541666638238
0.850000001537 0.499999991804
0.723809523297 0.173809523297
0.754761903225 0.321428567331
0.778571423449 0.386904747306
0.780952386075 0.46428570148
0.797619048131 0.422619027898
0.816666663593 0.458333318735
0.679166665514 0.164880952765
0.645833332181 0.139880952509
0.797499999308 0.882500001306
0.754166662697 0.895833359329
0.873333359252 0.713333309873
0.889999999283 0.804999999334
0.410714281873 0.687499983737
0.376190460824 0.711309527011
0.633333333077 0.0416666661544
0.585714285458 0.0357142854582
0.535714285458 0.0357142854582
0.345238092677 0.104761905786
0.299999993853 0.116666675375
0.311904755758 0.154761910909
0.619047618535 0.0773809516126
0.259523816183 0.726190486947
0.455357123264 0.696428553244
0.607142837678 0.892857139272
0.720833328851 0.929166698297
0.683333329492 0.966666696632
0.633333329492 0.966666696632
0.619047604705 0.930952409125
0.933333359713 0.683333310027
0.585714275214 0.964285712493
0.939999999539 0.729999999846
0.939999999539 0.779999999846
0.95 0.95
0.874999999488 0.962499999616
0.949999999744 0.824999999488
0.924999999488 0.912499999616
0.949999999744 0.874999999488
0.758333332906 0.97500000111
0.0333333333333 0.966666666667
0.0249999999146 0.849999999659
0.123809532176 0.607142864997
0.0711111154138 0.708888896811
0.183333332992 0.866666666154
0.448809532603 0.523809515102
0.231746041137 0.615079377714
0.331746032941 0.531746034307
0.105555553677 0.0694444472617
0.0222222206855 0.144444447347
0.15666666134 0.213333340265
0.19206348199 0.313492073737
0.12857142362 0.404761901859
0.0222222189781 0.344444451786
0.966666666667 0.0333333333333
0.876190473288 0.392857135344
0.653968253798 0.476190469873
0.594246019154 0.551587279391
0.271031737068 0.344246035033
0.505952380867 0.446428564001
0.773015872504 0.400793635085
0.77611110843 0.877222239314
0.381746026624 0.688492065114
0.557142856972 0.0238095236388
0.344444443591 0.0222222234174
0.758333333248 0.0249999999146
0.655555552994 0.977777797755
0.557142850142 0.976190474995
0.966666666667 0.966666666667

q	161 24 180 513
q	485 535 484 86
q	179 23 161 513
q	179 513 180 86
q	86 180 500 485
q	74 509 403 402
q	395 63 393 394
q	394 393 74 402
q	484 394 402 86
q	179 86 402 403
q	23 179 403 160
q	160 403 509 22
q	158 2 159 542
q	19 156 506 504
q	155 19 504 386
q	154 18 385 383
q	480 534 478 112
q	472 94 255 431
q	471 94 472 533
q	47 336 335 337
q	341 14 151 344
q	344 151 15 382
q	45 341 344 378
q	341 45 337 335
q	14 341 335 150
q	150 335 336 13
q	148 1 149 528
q	12 334 340 343
q	334 12 148 528
q	334 528 149 13
q	334 13 336 340
q	340 336 47 342
q	343 340 342 59
q	147 12 343 348
q	11 147 348 350
q	288 140 5 289
q	58 285 288 290
q	140 288 285 4
q	178 0 139 284
q	211 517 197 92
q	190 518 220 48
q	166 29 188 241
q	164 27 239 236
q	26 164 236 238
q	236 239 70 237
q	505 541 238 41
q	237 41 238 236
q	467 41 237 466
q	116 467 466 410
q	466 237 70 463
q	163 26 238 541
q	163 541 505 25
q	507 510 487 40
q	40 487 399 401
q	42 387 386 504
q	389 387 42 454
q	259 531 406 113
q	208 519 256 110
q	262 521 261 97
q	492 537 491 75
q	307 538 310 96
q	201 103 202 199
q	102 200 199 202
q	92 201 199 198
q	198 199 200 84
q	214 198 84 217
q	194 214 217 60
q	218 219 217 84
q	218 84 200 497
q	497 200 102 264
q	260 520 215 118
q	68 223 225 230
q	223 68 299 297
q	87 223 297 296
q	224 526 333 79
q	66 207 206 216
q	206 205 118 215
q	205 206 207 52
q	330 87 328 329
q	329 328 119 434
q	114 330 329 327
q	434 532 433 104
q	434 104 327 329
q	104 244 243 327
q	327 243 326 114
q	434 119 248 532
q	433 532 248 135
q	430 122 315 429
q	254 253 122 432
q	122 253 316 315
q	315 316 246 106
q	126 324 453 322
q	318 324 126 319
q	324 318 323 64
q	50 323 318 317
q	323 50 493 309
q	493 50 495 494
q	494 306 96 493
q	313 56 306 494
q	67 313 494 495
q	309 493 96 310
q	64 323 309 308
q	324 64 452 453
q	453 452 75 421
q	436 88 424 437
q	120 436 437 445
q	423 120 445 441
q	120 423 422 483
q	421 422 423 105
q	422 421 75 496
q	322 453 421 105
q	126 322 321 319
q	317 318 319 127
q	495 50 317 252
q	67 495 252 251
q	251 252 247 135
q	246 135 247 245
q	135 246 316 433
q	433 316 253 104
q	244 104 253 254
q	52 244 254 261
q	244 52 207 243
q	243 207 66 326
q	326 66 331 332
q	114 326 332 333
q	330 114 333 526
q	330 526 224 87
q	223 87 224 225
q	225 224 79 229
q	226 79 333 332
q	77 226 332 331
q	204 516 203 44
q	204 44 212 213
q	213 212 77 331
q	216 213 331 66
q	216 206 215 103
q	271 273 131 278
q	133 278 276 275
q	489 133 275 282
q	266 536 489 111
q	488 536 266 129
q	489 536 488 133
q	488 268 498 133
q	278 133 498 271
q	278 131 277 276
q	276 277 125 274
q	275 276 274 100
q	282 275 100 235
q	111 489 282 281
q	263 266 111 264
q	260 263 264 102
q	263 260 118 265
q	266 263 265 129
q	268 488 129 209
q	209 110 267 268
q	268 267 132 498
q	271 498 132 272
q	273 271 272 117
q	456 55 457 376
q	376 457 69 374
q	375 376 374 98
q	419 117 407 418
q	411 413 130 417
q	417 89 366 411
q	411 366 80 412
q	413 411 412 99
q	405 404 99 458
q	413 99 404 418
q	130 413 418 407
q	98 419 418 404
q	375 98 404 405
q	115 375 405 455
q	376 375 115 456
q	456 115 454 473
q	55 456 473 401
q	400 55 401 399
q	457 55 400 398
q	69 457 398 397
q	397 391 415 69
q	416 414 415 54
q	69 415 414 374
q	374 414 420 98
q	419 98 420 280
q	117 419 280 273
q	273 280 279 131
q	131 279 409 277
q	277 409 410 125
q	463 125 410 466
q	274 125 463 462
q	100 274 462 233
q	233 462 240 71
q	235 100 233 234
q	281 282 235 82
q	264 111 281 497
q	260 102 202 520
q	215 520 202 103
q	213 216 103 204
q	204 103 201 516
q	203 516 201 92
q	196 203 92 197
q	203 196 221 44
q	44 221 222 212
q	212 222 227 77
q	226 77 227 228
q	79 226 228 229
q	230 225 229 36
q	230 527 300 68
q	299 68 300 301
q	78 299 301 311
q	297 299 78 298
q	296 297 298 53
q	328 87 296 525
q	249 525 296 53
q	328 525 249 119
q	248 119 249 250
q	135 248 250 251
q	251 250 435 67
q	67 435 314 313
q	313 314 304 56
q	290 56 304 303
q	289 56 290 288
q	56 289 305 306
q	306 305 307 96
q	308 309 310 7
q	64 308 312 452
q	452 312 492 75
q	491 490 496 75
q	483 422 496 57
q	120 483 482 436
q	436 482 476 88
q	88 476 370 369
q	424 88 369 425
q	427 124 428 426
q	325 136 440 245
q	127 325 245 247
q	245 440 106 246
q	106 470 429 315
q	470 106 440 443
q	443 440 136 442
q	442 134 444 443
q	134 442 441 445
q	441 320 105 423
q	320 441 442 136
q	443 444 138 470
q	470 138 450 429
q	429 450 121 430
q	451 121 450 446
q	446 450 138 447
q	128 447 426 428
q	447 128 448 446
q	447 138 444 426
q	426 444 134 427
q	128 428 438 439
q	449 438 428 124
q	425 449 124 424
q	437 424 124 427
q	445 437 427 134
q	322 105 320 321
q	321 320 136 325
q	319 321 325 127
q	252 317 127 247
q	431 430 121 472
q	430 431 432 122
q	261 254 432 97
q	205 52 261 521
q	205 521 262 118
q	265 118 262 210
q	129 265 210 209
q	209 210 208 110
q	110 256 269 267
q	267 269 270 132
q	272 132 270 408
q	117 272 408 407
q	407 408 406 130
q	417 130 406 531
q	417 531 259 89
q	89 259 258 469
q	367 89 469 468
q	366 89 367 530
q	363 530 367 108
q	366 530 363 80
q	362 80 363 361
q	362 479 461 80
q	80 461 460 412
q	412 460 458 99
q	455 405 458 107
q	454 115 455 389
q	473 454 42 486
q	401 473 486 40
q	95 400 399 395
q	398 400 95 396
q	397 398 396 91
q	391 397 91 392
q	392 81 390 391
q	391 390 54 415
q	465 416 54 499
q	499 54 390 503
q	503 390 81 502
q	502 81 501 540
q	501 24 162 540
q	502 540 162 25
q	502 25 505 503
q	503 505 41 499
q	499 41 467 465
q	465 467 116 464
q	416 465 464 101
q	414 416 101 420
q	280 420 101 279
q	279 101 464 409
q	409 464 116 410
q	462 463 70 240
q	240 70 239 232
q	232 239 27 165
q	165 28 231 232
q	232 231 71 240
q	234 233 71 242
q	82 235 234 283
q	497 281 82 218
q	219 218 82 283
q	220 219 283 48
q	283 234 242 48
q	242 71 231 241
q	241 231 28 166
q	241 188 48 242
q	190 48 188 189
q	189 188 29 167
q	170 32 185 515
q	168 3 169 514
q	169 31 181 514
q	168 514 181 30
q	30 181 182 184
q	193 182 181 31
q	193 31 170 515
q	193 515 185 73
q	182 193 73 183
q	60 191 192 194
q	183 61 184 182
q	191 61 183 192
q	192 183 73 187
q	167 30 184 189
q	189 184 61 190
q	190 61 191 518
q	220 518 191 60
q	219 220 60 217
q	194 192 187 72
q	187 73 185 186
q	186 185 32 171
q	195 186 171 33
q	197 33 172 196
q	195 33 197 517
q	195 517 211 72
q	186 195 72 187
q	214 194 72 211
q	198 214 211 92
q	196 172 34 221
q	221 34 173 222
q	222 173 35 227
q	228 227 35 174
q	229 228 174 36
q	230 36 175 527
q	300 527 175 37
q	301 300 37 176
q	292 523 291 46
q	177 39 291 523
q	177 523 292 38
q	311 38 292 293
q	176 38 311 301
q	78 311 293 295
q	293 292 46 294
q	287 522 286 46
q	287 46 291 284
q	284 291 39 178
q	284 139 4 287
q	287 4 285 522
q	286 522 285 58
q	303 286 58 290
q	302 524 295 43
q	294 43 295 293
q	43 294 303 304
q	286 303 294 46
q	298 78 295 524
q	298 524 302 53
q	250 249 53 435
q	435 53 302 314
q	314 302 43 304
q	289 5 141 305
q	305 141 6 307
q	307 6 142 538
q	310 538 142 7
q	308 7 143 312
q	312 143 8 492
q	492 8 144 537
q	491 537 144 9
q	490 491 9 145
q	356 490 145 10
q	357 539 350 85
q	349 85 350 348
q	353 357 85 352
q	357 353 356 10
q	357 10 146 539
q	350 539 146 11
q	59 349 348 343
q	355 59 342 339
q	339 342 47 337
q	338 339 337 45
q	377 338 45 378
q	93 368 377 365
q	338 377 368 49
q	339 338 49 355
q	355 49 358 351
q	352 62 354 353
q	62 352 351 358
q	59 355 351 349
q	349 351 352 85
q	353 354 57 356
q	490 356 57 496
q	483 57 354 482
q	482 354 62 476
q	476 62 358 370
q	370 358 49 368
q	369 370 368 93
q	425 369 93 477
q	449 425 477 123
q	438 449 123 380
q	361 381 137 362
q	468 439 108 367
q	380 108 439 438
q	108 380 361 363
q	381 361 380 123
q	448 128 439 468
q	109 448 468 469
q	446 448 109 451
q	451 109 471 533
q	451 533 472 121
q	431 255 97 432
q	210 262 97 208
q	208 97 255 519
q	256 519 255 94
q	256 94 257 269
q	269 257 113 270
q	408 270 113 406
q	259 113 257 258
q	258 257 94 471
q	469 258 471 109
q	479 362 137 480
q	481 479 480 112
q	480 137 381 534
q	478 534 381 123
q	478 123 477 364
q	364 477 93 365
q	365 377 378 83
q	378 344 382 83
q	382 15 152 345
q	345 152 16 346
q	371 373 51 346
q	346 51 347 345
q	346 16 153 371
q	371 153 17 372
q	373 371 372 65
q	379 373 65 475
q	360 529 359 112
q	112 359 379 481
q	373 379 359 51
q	347 51 359 529
q	347 529 360 83
q	345 347 83 382
q	365 83 360 364
q	364 360 112 478
q	481 379 475 76
q	474 475 65 384
q	384 65 372 383
q	383 372 17 154
q	383 385 90 384
q	384 90 388 474
q	474 388 107 459
q	475 474 459 76
q	479 481 76 461
q	461 76 459 460
q	460 459 107 458
q	389 455 107 388
q	387 389 388 90
q	387 90 385 386
q	386 385 18 155
q	486 42 504 506
q	40 486 506 507
q	507 506 156 20
q	510 507 20 157
q	512 510 157 21
q	511 512 21 508
q	508 21 158 542
q	508 542 159 22
q	508 22 509 511
q	511 509 74 393
q	512 511 393 63
q	510 512 63 487
q	487 63 395 399
q	95 395 394 484
q	396 95 484 535
q	396 535 485 91
q	392 91 485 500
q	81 392 500 501
q	501 500 180 24

e	161 24
e	24 180
e	180 513
e	513 161
e	485 535
e	535 484
e	484 86
e	86 485
e	179 23
e	23 161
e	513 179
e	180 86
e	86 179
e	180 500
e	500 485
e	74 509
e	509 403
e	403 402
e	402 74
e	395 63
e	63 393
e	393 394
e	394 395
e	393 74
e	402 394
e	484 394
e	402 86
e	403 179
e	403 160
e	160 23
e	509 22
e	22 160
e	158 2
e	2 159
e	159 542
e	542 158
e	19 156
e	156 506
e	506 504
e	504 19
e	155 19
e	504 386
e	386 155
e	154 18
e	18 385
e	385 383
e	383 154
e	480 534
e	534 478
e	478 112
e	112 480
e	472 94
e	94 255
e	255 431
e	431 472
e	471 94
e	472 533
e	533 471
e	47 336
e	336 335
e	335 337
e	337 47
e	341 14
e	14 151
e	151 344
e	344 341
e	151 15
e	15 382
e	382 344
e	45 341
e	344 378
e	378 45
e	45 337
e	335 341
e	335 150
e	150 14
e	336 13
e	13 150
e	148 1
e	1 149
e	149 528
e	528 148
e	12 334
e	334 340
e	340 343
e	343 12
e	12 148
e	528 334
e	149 13
e	13 334
e	336 340
e	47 342
e	342 340
e	342 59
e	59 343
e	147 12
e	343 348
e	348 147
e	11 147
e	348 350
e	350 11
e	288 140
e	140 5
e	5 289
e	289 288
e	58 285
e	285 288
e	288 290
e	290 58
e	285 4
e	4 140
e	178 0
e	0 139
e	139 284
e	284 178
e	211 517
e	517 197
e	197 92
e	92 211
e	190 518
e	518 220
e	220 48
e	48 190
e	166 29
e	29 188
e	188 241
e	241 166
e	164 27
e	27 239
e	239 236
e	236 164
e	26 164
e	236 238
e	238 26
e	239 70
e	70 237
e	237 236
e	505 541
e	541 238
e	238 41
e	41 505
e	237 41
e	467 41
e	237 466
e	466 467
e	116 467
e	466 410
e	410 116
e	70 463
e	463 466
e	163 26
e	541 163
e	505 25
e	25 163
e	507 510
e	510 487
e	487 40
e	40 507
e	487 399
e	399 401
e	401 40
e	42 387
e	387 386
e	504 42
e	389 387
e	42 454
e	454 389
e	259 531
e	531 406
e	406 113
e	113 259
e	208 519
e	519 256
e	256 110
e	110 208
e	262 521
e	521 261
e	261 97
e	97 262
e	492 537
e	537 491
e	491 75
e	75 492
e	307 538
e	538 310
e	310 96
e	96 307
e	201 103
e	103 202
e	202 199
e	199 201
e	102 200
e	200 199
e	202 102
e	92 201
e	199 198
e	198 92
e	200 84
e	84 198
e	214 198
e	84 217
e	217 214
e	194 214
e	217 60
e	60 194
e	218 219
e	219 217
e	84 218
e	200 497
e	497 218
e	102 264
e	264 497
e	260 520
e	520 215
e	215 118
e	118 260
e	68 223
e	223 225
e	225 230
e	230 68
e	68 299
e	299 297
e	297 223
e	87 223
e	297 296
e	296 87
e	224 526
e	526 333
e	333 79
e	79 224
e	66 207
e	207 206
e	206 216
e	216 66
e	206 205
e	205 118
e	215 206
e	207 52
e	52 205
e	330 87
e	87 328
e	328 329
e	329 330
e	328 119
e	119 434
e	434 329
e	114 330
e	329 327
e	327 114
e	434 532
e	532 433
e	433 104
e	104 434
e	104 327
e	104 244
e	244 243
e	243 327
e	243 326
e	326 114
e	119 248
e	248 532
e	248 135
e	135 433
e	430 122
e	122 315
e	315 429
e	429 430
e	254 253
e	253 122
e	122 432
e	432 254
e	253 316
e	316 315
e	316 246
e	246 106
e	106 315
e	126 324
e	324 453
e	453 322
e	322 126
e	318 324
e	126 319
e	319 318
e	318 323
e	323 64
e	64 324
e	50 323
e	318 317
e	317 50
e	50 493
e	493 309
e	309 323
e	50 495
e	495 494
e	494 493
e	494 306
e	306 96
e	96 493
e	313 56
e	56 306
e	494 313
e	67 313
e	495 67
e	310 309
e	309 308
e	308 64
e	64 452
e	452 453
e	452 75
e	75 421
e	421 453
e	436 88
e	88 424
e	424 437
e	437 436
e	120 436
e	437 445
e	445 120
e	423 120
e	445 441
e	441 423
e	423 422
e	422 483
e	483 120
e	421 422
e	423 105
e	105 421
e	75 496
e	496 422
e	105 322
e	322 321
e	321 319
e	319 127
e	127 317
e	317 252
e	252 495
e	252 251
e	251 67
e	252 247
e	247 135
e	135 251
e	246 135
e	247 245
e	245 246
e	316 433
e	253 104
e	254 244
e	52 244
e	254 261
e	261 52
e	207 243
e	66 326
e	66 331
e	331 332
e	332 326
e	332 333
e	333 114
e	526 330
e	224 87
e	224 225
e	79 229
e	229 225
e	226 79
e	332 226
e	77 226
e	331 77
e	204 516
e	516 203
e	203 44
e	44 204
e	44 212
e	212 213
e	213 204
e	212 77
e	331 213
e	216 213
e	215 103
e	103 216
e	271 273
e	273 131
e	131 278
e	278 271
e	133 278
e	278 276
e	276 275
e	275 133
e	489 133
e	275 282
e	282 489
e	266 536
e	536 489
e	489 111
e	111 266
e	488 536
e	266 129
e	129 488
e	488 133
e	488 268
e	268 498
e	498 133
e	498 271
e	131 277
e	277 276
e	277 125
e	125 274
e	274 276
e	274 100
e	100 275
e	100 235
e	235 282
e	282 281
e	281 111
e	263 266
e	111 264
e	264 263
e	260 263
e	102 260
e	118 265
e	265 263
e	265 129
e	129 209
e	209 268
e	209 110
e	110 267
e	267 268
e	267 132
e	132 498
e	132 272
e	272 271
e	272 117
e	117 273
e	456 55
e	55 457
e	457 376
e	376 456
e	457 69
e	69 374
e	374 376
e	375 376
e	374 98
e	98 375
e	419 117
e	117 407
e	407 418
e	418 419
e	411 413
e	413 130
e	130 417
e	417 411
e	417 89
e	89 366
e	366 411
e	366 80
e	80 412
e	412 411
e	412 99
e	99 413
e	405 404
e	404 99
e	99 458
e	458 405
e	404 418
e	418 413
e	407 130
e	98 419
e	404 98
e	405 375
e	115 375
e	405 455
e	455 115
e	115 456
e	115 454
e	454 473
e	473 456
e	473 401
e	401 55
e	400 55
e	399 400
e	400 398
e	398 457
e	398 397
e	397 69
e	397 391
e	391 415
e	415 69
e	416 414
e	414 415
e	415 54
e	54 416
e	414 374
e	414 420
e	420 98
e	420 280
e	280 419
e	280 273
e	280 279
e	279 131
e	279 409
e	409 277
e	409 410
e	410 125
e	463 125
e	463 462
e	462 274
e	462 233
e	233 100
e	462 240
e	240 71
e	71 233
e	233 234
e	234 235
e	235 82
e	82 281
e	281 497
e	202 520
e	103 204
e	201 516
e	92 203
e	196 203
e	197 196
e	196 221
e	221 44
e	221 222
e	222 212
e	222 227
e	227 77
e	227 228
e	228 226
e	228 229
e	229 36
e	36 230
e	230 527
e	527 300
e	300 68
e	300 301
e	301 299
e	78 299
e	301 311
e	311 78
e	78 298
e	298 297
e	298 53
e	53 296
e	296 525
e	525 328
e	249 525
e	53 249
e	249 119
e	249 250
e	250 248
e	250 251
e	250 435
e	435 67
e	435 314
e	314 313
e	314 304
e	304 56
e	290 56
e	304 303
e	303 290
e	289 56
e	289 305
e	305 306
e	305 307
e	310 7
e	7 308
e	308 312
e	312 452
e	312 492
e	491 490
e	490 496
e	496 57
e	57 483
e	483 482
e	482 436
e	482 476
e	476 88
e	476 370
e	370 369
e	369 88
e	369 425
e	425 424
e	427 124
e	124 428
e	428 426
e	426 427
e	325 136
e	136 440
e	440 245
e	245 325
e	127 325
e	247 127
e	440 106
e	106 470
e	470 429
e	440 443
e	443 470
e	136 442
e	442 443
e	442 134
e	134 444
e	444 443
e	442 441
e	445 134
e	441 320
e	320 105
e	136 320
e	444 138
e	138 470
e	138 450
e	450 429
e	450 121
e	121 430
e	451 121
e	450 446
e	446 451
e	138 447
e	447 446
e	128 447
e	447 426
e	428 128
e	128 448
e	448 446
e	444 426
e	134 427
e	428 438
e	438 439
e	439 128
e	449 438
e	124 449
e	425 449
e	124 424
e	427 437
e	320 321
e	325 321
e	431 430
e	121 472
e	431 432
e	432 97
e	521 205
e	262 118
e	262 210
e	210 265
e	210 209
e	210 208
e	256 269
e	269 267
e	269 270
e	270 132
e	270 408
e	408 272
e	408 407
e	408 406
e	406 130
e	531 417
e	259 89
e	259 258
e	258 469
e	469 89
e	367 89
e	469 468
e	468 367
e	367 530
e	530 366
e	363 530
e	367 108
e	108 363
e	363 80
e	362 80
e	363 361
e	361 362
e	362 479
e	479 461
e	461 80
e	461 460
e	460 412
e	460 458
e	458 107
e	107 455
e	455 389
e	42 486
e	486 473
e	486 40
e	95 400
e	399 395
e	395 95
e	95 396
e	396 398
e	396 91
e	91 397
e	91 392
e	392 391
e	392 81
e	81 390
e	390 391
e	390 54
e	465 416
e	54 499
e	499 465
e	390 503
e	503 499
e	81 502
e	502 503
e	81 501
e	501 540
e	540 502
e	501 24
e	24 162
e	162 540
e	162 25
e	25 502
e	505 503
e	41 499
e	467 465
e	116 464
e	464 465
e	464 101
e	101 416
e	101 420
e	101 279
e	464 409
e	70 240
e	239 232
e	232 240
e	27 165
e	165 232
e	165 28
e	28 231
e	231 232
e	231 71
e	71 242
e	242 234
e	234 283
e	283 82
e	82 218
e	283 219
e	220 219
e	283 48
e	242 48
e	231 241
e	241 242
e	28 166
e	188 48
e	188 189
e	189 190
e	29 167
e	167 189
e	170 32
e	32 185
e	185 515
e	515 170
e	168 3
e	3 169
e	169 514
e	514 168
e	169 31
e	31 181
e	181 514
e	181 30
e	30 168
e	181 182
e	182 184
e	184 30
e	193 182
e	31 193
e	31 170
e	515 193
e	185 73
e	73 193
e	73 183
e	183 182
e	60 191
e	191 192
e	192 194
e	183 61
e	61 184
e	191 61
e	183 192
e	73 187
e	187 192
e	167 30
e	184 189
e	61 190
e	191 518
e	60 220
e	187 72
e	72 194
e	185 186
e	186 187
e	32 171
e	171 186
e	195 186
e	171 33
e	33 195
e	197 33
e	33 172
e	172 196
e	517 195
e	211 72
e	72 195
e	211 214
e	172 34
e	34 221
e	34 173
e	173 222
e	173 35
e	35 227
e	35 174
e	174 228
e	174 36
e	36 175
e	175 527
e	175 37
e	37 300
e	37 176
e	176 301
e	292 523
e	523 291
e	291 46
e	46 292
e	177 39
e	39 291
e	523 177
e	292 38
e	38 177
e	311 38
e	292 293
e	293 311
e	176 38
e	293 295
e	295 78
e	46 294
e	294 293
e	287 522
e	522 286
e	286 46
e	46 287
e	291 284
e	284 287
e	39 178
e	139 4
e	4 287
e	285 522
e	58 286
e	303 286
e	302 524
e	524 295
e	295 43
e	43 302
e	294 43
e	294 303
e	304 43
e	524 298
e	302 53
e	53 435
e	302 314
e	5 141
e	141 305
e	141 6
e	6 307
e	6 142
e	142 538
e	142 7
e	7 143
e	143 312
e	143 8
e	8 492
e	8 144
e	144 537
e	144 9
e	9 491
e	9 145
e	145 490
e	356 490
e	145 10
e	10 356
e	357 539
e	539 350
e	350 85
e	85 357
e	349 85
e	348 349
e	353 357
e	85 352
e	352 353
e	353 356
e	10 357
e	10 146
e	146 539
e	146 11
e	59 349
e	355 59
e	342 339
e	339 355
e	337 339
e	338 339
e	45 338
e	377 338
e	378 377
e	93 368
e	368 377
e	377 365
e	365 93
e	368 49
e	49 338
e	49 355
e	49 358
e	358 351
e	351 355
e	352 62
e	62 354
e	354 353
e	352 351
e	358 62
e	351 349
e	354 57
e	57 356
e	354 482
e	62 476
e	358 370
e	368 370
e	93 369
e	93 477
e	477 425
e	477 123
e	123 449
e	123 380
e	380 438
e	361 381
e	381 137
e	137 362
e	468 439
e	439 108
e	380 108
e	380 361
e	123 381
e	468 448
e	109 448
e	469 109
e	109 451
e	109 471
e	533 451
e	255 97
e	97 208
e	255 519
e	94 256
e	94 257
e	257 269
e	257 113
e	113 270
e	257 258
e	471 258
e	137 480
e	480 479
e	481 479
e	112 481
e	381 534
e	123 478
e	477 364
e	364 478
e	365 364
e	378 83
e	83 365
e	382 83
e	15 152
e	152 345
e	345 382
e	152 16
e	16 346
e	346 345
e	371 373
e	373 51
e	51 346
e	346 371
e	51 347
e	347 345
e	16 153
e	153 371
e	153 17
e	17 372
e	372 371
e	372 65
e	65 373
e	379 373
e	65 475
e	475 379
e	360 529
e	529 359
e	359 112
e	112 360
e	359 379
e	379 481
e	359 51
e	529 347
e	360 83
e	83 347
e	360 364
e	475 76
e	76 481
e	474 475
e	65 384
e	384 474
e	372 383
e	383 384
e	17 154
e	385 90
e	90 384
e	90 388
e	388 474
e	388 107
e	107 459
e	459 474
e	459 76
e	76 461
e	459 460
e	388 389
e	90 387
e	385 386
e	18 155
e	506 486
e	506 507
e	156 20
e	20 507
e	20 157
e	157 510
e	512 510
e	157 21
e	21 512
e	511 512
e	21 508
e	508 511
e	21 158
e	542 508
e	159 22
e	22 508
e	509 511
e	393 511
e	63 512
e	63 487
e	484 95
e	535 396
e	485 91
e	500 392
e	500 501

domain
bottom
2 1 20
112
840
110
102
856
858
860
862
863
865
867
869
871
874
887
889
98
95
86
78

domain
right
2 1 20
79
88
77
75
63
66
964
967
976
978
1004
43
1018
40
36
1021
1023
1026
1031
32

domain
top
2 1 20
33
1033
31
29
9
0
707
709
153
150
131
127
724
726
741
123
745
780
759
751

domain
left
2 1 20
752
755
765
747
789
792
795
801
803
805
807
809
810
812
814
828
824
820
839
111

domain
boundary
2 1 80
0
9
29
31
32
33
36
40
43
63
66
75
77
78
79
86
88
95
98
102
110
111
112
123
127
131
150
153
707
709
724
726
741
745
747
751
752
755
759
765
780
789
792
795
801
803
805
807
809
810
812
814
820
824
828
839
840
856
858
860
862
863
865
867
869
871
874
887
889
964
967
976
978
1004
1018
1021
1023
1026
1031
1033
