#!geo

mesh
4
header
 dimension	3
 order		9
 nodes		220
 tetrahedra	1
end header

0 0 0
1 0 0
0 1 0
0 0 1
0.130864197530864 0.0148148148148148 0.00987654320987654
0.25679012345679 0.0259259259259259 0.0172839506172839
0.377777777777778 0.0333333333333333 0.0222222222222222
0.493827160493827 0.037037037037037 0.0246913580246914
0.604938271604938 0.037037037037037 0.0246913580246914
0.711111111111111 0.0333333333333333 0.0222222222222222
0.812345679012346 0.0259259259259259 0.0172839506172839
0.908641975308642 0.0148148148148148 0.00987654320987655
0.928395061728395 0.140740740740741 0.0197530864197531
0.846913580246914 0.274074074074074 0.0345679012345679
0.755555555555556 0.4 0.0444444444444445
0.654320987654321 0.518518518518518 0.0493827160493827
0.54320987654321 0.62962962962963 0.0493827160493827
0.422222222222222 0.733333333333333 0.0444444444444445
0.291358024691358 0.82962962962963 0.0345679012345679
0.150617283950617 0.918518518518519 0.0197530864197531
0.0197530864197531 0.903703703703704 0.00987654320987655
0.0345679012345679 0.803703703703704 0.0172839506172839
0.0444444444444445 0.7 0.0222222222222222
0.0493827160493827 0.592592592592593 0.0246913580246914
0.0493827160493827 0.481481481481481 0.0246913580246914
0.0444444444444445 0.366666666666667 0.0222222222222222
0.0345679012345679 0.248148148148148 0.0172839506172839
0.0197530864197531 0.125925925925926 0.00987654320987654
0.0197530864197531 0.0148148148148148 0.898765432098765
0.0345679012345679 0.0259259259259259 0.795061728395062
0.0444444444444445 0.0333333333333333 0.688888888888889
0.0493827160493827 0.037037037037037 0.580246913580247
0.0493827160493827 0.037037037037037 0.469135802469136
0.0444444444444445 0.0333333333333333 0.355555555555556
0.0345679012345679 0.0259259259259259 0.239506172839506
0.0197530864197531 0.0148148148148148 0.120987654320988
0.0395061728395062 0.140740740740741 0.908641975308642
0.0691358024691358 0.274074074074074 0.812345679012346
0.0888888888888889 0.4 0.711111111111111
0.0987654320987654 0.518518518518518 0.604938271604938
0.0987654320987654 0.62962962962963 0.493827160493827
0.0888888888888889 0.733333333333333 0.377777777777778
0.0691358024691358 0.82962962962963 0.25679012345679
0.0395061728395062 0.918518518518519 0.130864197530864
0.150617283950617 0.0296296296296296 0.908641975308642
0.291358024691358 0.0518518518518519 0.812345679012346
0.422222222222222 0.0666666666666667 0.711111111111111
0.54320987654321 0.0740740740740741 0.604938271604938
0.654320987654321 0.0740740740740741 0.493827160493827
0.755555555555556 0.0666666666666667 0.377777777777778
0.846913580246914 0.0518518518518519 0.25679012345679
0.928395061728395 0.0296296296296296 0.130864197530864
0.150617283954994 0.140740740760419 0.0197530864212237
0.165432098753506 0.81851851863294 0.0271604938203668
0.832098765455796 0.151851851869004 0.027160493827178
0.165432098770957 0.262962963000828 0.0271604938292054
0.175308641980443 0.381481481536387 0.0320987654339481
0.180246913583458 0.496296296367301 0.034567901235454
0.180246913579977 0.607407407493788 0.0345679012337067
0.175308641969968 0.714814814915862 0.0320987654286764
0.301234567898399 0.725925926027103 0.0395061728361794
0.427160493832114 0.62592592601252 0.0469135802461545
0.54320987655445 0.518518518589466 0.0493827160502617
0.64938271606537 0.403703703758009 0.046913580248502
0.745679012365195 0.281481481517966 0.03950617284086
0.730864197548993 0.159259259277413 0.032098765432868
0.624691358039696 0.162962962981894 0.0345679012357609
0.513580246925888 0.162962962982542 0.0345679012360251
0.397530864207103 0.159259259279236 0.0320987654336815
0.276543209883339 0.15185185187174 0.0271604938287279
0.2913580246993 0.274074074112147 0.0345679012367081
0.306172839508332 0.618518518605079 0.0419753086412062
0.639506172855743 0.285185185222357 0.0419753086437515
0.301234567908783 0.392592592647702 0.0395061728414495
0.306172839511798 0.50740740747861 0.0419753086429539
0.427160493835565 0.514814814886097 0.0469135802479033
0.53827160495139 0.403703703758543 0.0469135802487544
0.528395061741871 0.285185185222964 0.0419753086440092
0.412345679023063 0.281481481519643 0.0395061728416604
0.422222222232547 0.400000000055198 0.0444444444464004
0.150617283971031 0.0296296296318356 0.13086419753377
0.832098765543124 0.0407407407305502 0.138271604933139
0.165432098782593 0.040740740740767 0.804938271628618
0.276543209915431 0.0407407407438081 0.138271604941752
0.397530864253361 0.0481481481509222 0.143209876546495
0.513580246985028 0.0518518518531809 0.145679012348004
0.624691358110642 0.0518518518505601 0.14567901234627
0.7308641976302 0.0481481481430146 0.143209876541292
0.745679012445193 0.0592592592542691 0.261728395062219
0.649382716135597 0.0703703703692317 0.380246913585959
0.543209876614597 0.0740740740753926 0.493827160504189
0.42716049388226 0.070370370372753 0.602469135816868
0.301234567938396 0.05925925926129 0.706172839524335
0.175308641993847 0.0481481481493019 0.698765432116125
0.180246913599775 0.0518518518536414 0.590123456803935
0.180246913600554 0.0518518518540376 0.479012345689863
0.175308641996077 0.0481481481505222 0.365432098773422
0.165432098786104 0.0407407407430918 0.249382716054611
0.291358024730501 0.0518518518550622 0.256790123462592
0.639506172925682 0.0629629629618092 0.264197530867126
0.306172839544233 0.0629629629656272 0.597530864211991
0.412345679068427 0.0592592592621742 0.261728395067334
0.528395061800087 0.0629629629644308 0.264197530868844
0.538271605010048 0.0703703703718549 0.380246913587661
0.42716049388292 0.0703703703731315 0.491358024702635
0.306172839544969 0.0629629629660138 0.486419753097862
0.301234567940473 0.0592592592624905 0.372839506181403
0.422222222278398 0.0666666666696005 0.377777777786147
0.0395061728424474 0.140740740744382 0.130864197549808
0.0543209876407336 0.151851851843323 0.804938271722757
0.0543209876543559 0.818518518542207 0.138271604955415
0.0543209876584108 0.151851851856355 0.249382716086226
0.0641975308678963 0.159259259263469 0.365432098819413
0.0691358024709079 0.162962962965731 0.479012345749575
0.0691358024674134 0.162962962963123 0.590123456876935
0.0641975308573529 0.15925925925563 0.698765432201523
0.0790123456723588 0.281481481480309 0.706172839609013
0.093827160492309 0.403703703709036 0.602469135889443
0.0987654321005235 0.518518518529319 0.493827160564335
0.093827160497004 0.625925925941119 0.380246913633758
0.0790123456817201 0.725925925944765 0.261728395097536
0.0641975308657359 0.714814814832559 0.143209876560979
0.0691358024715219 0.607407407421816 0.145679012364014
0.0691358024720502 0.496296296307876 0.145679012364529
0.0641975308673629 0.381481481490262 0.143209876562396
0.0543209876574558 0.262962962968975 0.138271604957376
0.0691358024734162 0.274074074080946 0.256790123493793
0.0839506172824123 0.285185185187729 0.597530864284475
0.0839506172875029 0.618518518533867 0.264197530900481
0.0790123456828989 0.281481481488059 0.372839506226978
0.0839506172859078 0.285185185190321 0.486419753157133
0.0938271604958065 0.403703703711613 0.491358024762145
0.0938271604975087 0.514814814827013 0.380246913634166
0.0839506172880184 0.507407407419867 0.264197530900959
0.0790123456833207 0.392592592602233 0.261728395098812
0.0888888888928007 0.400000000009347 0.377777777831998
0.185185185203739 0.166666666668913 0.8148148148321
0.851851851979511 0.166666666670613 0.148148148256605
0.185185185211193 0.833333333363657 0.148148148209461
0.320987654357858 0.185185185188174 0.716049382747356
0.44691358030177 0.196296296299776 0.612345679057524
0.562962963035691 0.200000000003727 0.503703703762815
0.669135802559883 0.196296296300054 0.390123456863609
0.765432098874515 0.185185185188867 0.271604938360784
0.765432098879189 0.296296296305806 0.160493827255851
0.669135802567809 0.418518518533196 0.167901234653467
0.562962963045379 0.533333333352406 0.170370370447666
0.446913580311902 0.640740740763351 0.167901234638003
0.320987654367227 0.740740740766388 0.160493827224746
0.209876543233388 0.740740740762215 0.271604938319622
0.224691358046647 0.64074074075697 0.390123456828941
0.229629629650604 0.533333333345413 0.5037037037355
0.224691358044908 0.418518518526885 0.612345679038494
0.20987654322918 0.296296296301283 0.716049382737452
0.340740740779127 0.311111111117416 0.614814814850622
0.674074074168665 0.311111111119967 0.281481481560664
0.340740740784352 0.644444444463956 0.281481481535995
0.461728395118868 0.318518518525889 0.508641975358705
0.572839506248622 0.318518518526722 0.397530864261919
0.572839506251916 0.429629629643013 0.286419753156755
0.461728395123832 0.540740740757697 0.286419753148532
0.350617283992316 0.540740740755377 0.397530864244554
0.350617283990708 0.429629629639909 0.508641975349591
0.466666666726304 0.433333333345276 0.400000000055603
0.170370370402614 0.155555555665265 0.140740740774697
0.75061728412972 0.174074074173314 0.153086419893573
0.195061728504787 0.729629630120916 0.153086419820899
0.195061728421039 0.174074074175281 0.708641975423657
0.296296296351468 0.16666666677617 0.148148148192019
0.417283950700751 0.1740740741832 0.153086419811103
0.533333333447319 0.177777777885893 0.155555555631178
0.644444444589732 0.177777777883442 0.155555555654958
0.659259259421675 0.300000000173595 0.162962963091624
0.558024691501505 0.418518518758802 0.167901234686928
0.446913580372441 0.529629629942816 0.167901234675997
0.325925926039406 0.633333333731681 0.162962963054134
0.200000000082023 0.622222222673684 0.155555555626088
0.200000000061282 0.51111111149475 0.155555555624902
0.195061728444128 0.396296296596973 0.153086419814027
0.185185185227001 0.277777777986959 0.148148148196977
0.200000000021881 0.177777777884253 0.600000000112314
0.200000000022296 0.177777777886933 0.488888888983348
0.195061728420259 0.174074074184603 0.375308642049786
0.185185185214272 0.16666666677762 0.259259259314137
0.214814814842054 0.300000000164946 0.607407407432072
0.224691358052223 0.41851851874442 0.501234567854079
0.224691358063252 0.529629629933814 0.390123456737328
0.214814814882461 0.633333333732497 0.274074074072754
0.325925925976502 0.188888888989398 0.607407407556609
0.446913580330975 0.1962962963981 0.501234568076715
0.558024691481314 0.196296296400605 0.390123456978642
0.659259259420265 0.188888888993996 0.274074074253795
0.311111111176632 0.288888889090779 0.155555555614151
0.325925926011656 0.522222222573246 0.162962963044921
0.548148148277056 0.300000000185428 0.162962963057053
0.32098765439308 0.407407407689945 0.160493827231576
0.441975308746534 0.414814815077573 0.165432098853987
0.43209876552782 0.29629629649031 0.160493827233789
0.31111111116323 0.17777777788886 0.266666666739587
0.548148148268817 0.188888888998705 0.27407407420797
0.325925925972888 0.188888888996011 0.496296296425299
0.432098765515971 0.185185185296308 0.271604938371342
0.441975308724875 0.192592592701596 0.387654321127307
0.320987654369497 0.185185185295416 0.382716049483712
0.200000000030126 0.288888889076581 0.266666666676425
0.21481481483688 0.300000000155997 0.496296296258627
0.214814814854728 0.522222222548211 0.27407407401667
0.2098765432316 0.296296296460346 0.382716049345912
0.219753086441259 0.414814815034468 0.387654320872109
0.209876543239055 0.407407407661364 0.271604938225939
0.340740740786561 0.311111111250327 0.503703703694565
0.562962963087866 0.311111111268065 0.281481481575643
0.340740740803944 0.533333333615908 0.281481481444763
0.456790123536298 0.314814814952859 0.395061728421246
0.456790123542771 0.425925926130947 0.283950617287265
0.345679012388477 0.425925926115425 0.395061728302604
0.325925925979686 0.300000000179996 0.274074074101591
0.446913580333792 0.307407407577919 0.279012345734056
0.335802469187512 0.418518518751265 0.279012345651303
0.335802469180942 0.307407407561247 0.390123456778422

T	p9 0 1 2 3 4 5 6 7 8 9 10 11 12 13 14 15 16 17 18 19 20 21 22 23 24 25 26 27 35 34 33 32 31 30 29 28 51 50 49 48 47 46 45 44 43 42 41 40 39 38 37 36 52 55 56 57 58 59 53 69 70 73 74 71 60 68 78 79 75 61 67 77 76 62 66 72 63 65 64 54 108 111 112 113 114 115 109 125 126 129 130 127 116 124 134 135 131 117 123 133 132 118 122 128 119 121 120 110 80 83 84 85 86 87 81 97 98 101 102 99 88 96 106 107 103 89 95 105 104 90 94 100 91 93 92 82 137 144 145 146 147 148 138 143 155 159 160 156 149 142 158 163 161 150 141 157 162 151 140 154 152 139 153 136 164 168 169 170 171 165 179 192 197 194 172 178 195 196 173 177 193 174 176 175 166 183 198 201 199 191 204 216 217 211 209 218 214 206 212 187 182 203 202 190 207 219 213 208 215 186 181 200 189 205 210 185 180 188 184 167

