#!geo

mesh
4
header
 dimension	3
 order		9
 nodes		385
 tetrahedra	2
end header

0 0 0
1 0 0
0 1 0
0 0 1
-0.4 -1.3 -0.2
0.130864197530864 0.0148148148148148 0.00987654320987654
0.25679012345679 0.0259259259259259 0.0172839506172839
0.377777777777778 0.0333333333333333 0.0222222222222222
0.493827160493827 0.037037037037037 0.0246913580246914
0.604938271604938 0.037037037037037 0.0246913580246914
0.711111111111111 0.0333333333333333 0.0222222222222222
0.812345679012346 0.0259259259259259 0.0172839506172839
0.908641975308642 0.0148148148148148 0.00987654320987655
0.928395061728395 0.140740740740741 0.0197530864197531
0.846913580246914 0.274074074074074 0.0345679012345679
0.755555555555556 0.4 0.0444444444444445
0.654320987654321 0.518518518518518 0.0493827160493827
0.54320987654321 0.62962962962963 0.0493827160493827
0.422222222222222 0.733333333333333 0.0444444444444445
0.291358024691358 0.82962962962963 0.0345679012345679
0.150617283950617 0.918518518518519 0.0197530864197531
0.0197530864197531 0.903703703703704 0.00987654320987655
0.0345679012345679 0.803703703703704 0.0172839506172839
0.0444444444444445 0.7 0.0222222222222222
0.0493827160493827 0.592592592592593 0.0246913580246914
0.0493827160493827 0.481481481481481 0.0246913580246914
0.0444444444444445 0.366666666666667 0.0222222222222222
0.0345679012345679 0.248148148148148 0.0172839506172839
0.0197530864197531 0.125925925925926 0.00987654320987654
0.0197530864197531 0.0148148148148148 0.898765432098765
0.0345679012345679 0.0259259259259259 0.795061728395062
0.0444444444444445 0.0333333333333333 0.688888888888889
0.0493827160493827 0.037037037037037 0.580246913580247
0.0493827160493827 0.037037037037037 0.469135802469136
0.0444444444444445 0.0333333333333333 0.355555555555556
0.0345679012345679 0.0259259259259259 0.239506172839506
0.0197530864197531 0.0148148148148148 0.120987654320988
0.0395061728395062 0.140740740740741 0.908641975308642
0.0691358024691358 0.274074074074074 0.812345679012346
0.0888888888888889 0.4 0.711111111111111
0.0987654320987654 0.518518518518518 0.604938271604938
0.0987654320987654 0.62962962962963 0.493827160493827
0.0888888888888889 0.733333333333333 0.377777777777778
0.0691358024691358 0.82962962962963 0.25679012345679
0.0395061728395062 0.918518518518519 0.130864197530864
0.150617283950617 0.0296296296296296 0.908641975308642
0.291358024691358 0.0518518518518519 0.812345679012346
0.422222222222222 0.0666666666666667 0.711111111111111
0.54320987654321 0.0740740740740741 0.604938271604938
0.654320987654321 0.0740740740740741 0.493827160493827
0.755555555555556 0.0666666666666667 0.377777777777778
0.846913580246914 0.0518518518518519 0.25679012345679
0.928395061728395 0.0296296296296296 0.130864197530864
-0.0246913580246914 -0.12962962962963 -0.0123456790123457
-0.054320987654321 -0.262962962962963 -0.0271604938271605
-0.0888888888888889 -0.4 -0.0444444444444444
-0.128395061728395 -0.540740740740741 -0.0641975308641975
-0.17283950617284 -0.685185185185185 -0.0864197530864198
-0.222222222222222 -0.833333333333333 -0.111111111111111
-0.276543209876543 -0.985185185185185 -0.138271604938272
-0.335802469135802 -1.14074074074074 -0.167901234567901
-0.204938271604938 -1.12592592592593 -0.158024691358025
-0.0197530864197531 -0.959259259259259 -0.120987654320988
0.155555555555556 -0.8 -0.0888888888888889
0.320987654320988 -0.648148148148148 -0.0617283950617284
0.476543209876543 -0.503703703703704 -0.0395061728395062
0.622222222222222 -0.366666666666667 -0.0222222222222222
0.758024691358025 -0.237037037037037 -0.00987654320987654
0.883950617283951 -0.114814814814815 -0.00246913580246913
-0.00493827160493826 -0.114814814814815 0.88641975308642
-0.0197530864197531 -0.237037037037037 0.767901234567901
-0.0444444444444444 -0.366666666666667 0.644444444444444
-0.0790123456790123 -0.503703703703704 0.516049382716049
-0.123456790123457 -0.648148148148148 0.382716049382716
-0.177777777777778 -0.8 0.244444444444444
-0.241975308641975 -0.959259259259259 0.101234567901235
-0.316049382716049 -1.12592592592593 -0.0469135802469136
0.150617283954994 0.140740740760419 0.0197530864212237
0.165432098753506 0.81851851863294 0.0271604938203668
0.832098765455796 0.151851851869004 0.027160493827178
0.165432098770957 0.262962963000828 0.0271604938292054
0.175308641980443 0.381481481536387 0.0320987654339481
0.180246913583458 0.496296296367301 0.034567901235454
0.180246913579977 0.607407407493788 0.0345679012337067
0.175308641969968 0.714814814915862 0.0320987654286764
0.301234567898399 0.725925926027103 0.0395061728361794
0.427160493832114 0.62592592601252 0.0469135802461545
0.54320987655445 0.518518518589466 0.0493827160502617
0.64938271606537 0.403703703758009 0.046913580248502
0.745679012365195 0.281481481517966 0.03950617284086
0.730864197548993 0.159259259277413 0.032098765432868
0.624691358039696 0.162962962981894 0.0345679012357609
0.513580246925888 0.162962962982542 0.0345679012360251
0.397530864207103 0.159259259279236 0.0320987654336815
0.276543209883339 0.15185185187174 0.0271604938287279
0.2913580246993 0.274074074112147 0.0345679012367081
0.306172839508332 0.618518518605079 0.0419753086412062
0.639506172855743 0.285185185222357 0.0419753086437515
0.301234567908783 0.392592592647702 0.0395061728414495
0.306172839511798 0.50740740747861 0.0419753086429539
0.427160493835565 0.514814814886097 0.0469135802479033
0.53827160495139 0.403703703758543 0.0469135802487544
0.528395061741871 0.285185185222964 0.0419753086440092
0.412345679023063 0.281481481519643 0.0395061728416604
0.422222222232547 0.400000000055198 0.0444444444464004
0.150617283971031 0.0296296296318356 0.13086419753377
0.832098765543124 0.0407407407305502 0.138271604933139
0.165432098782593 0.040740740740767 0.804938271628618
0.276543209915431 0.0407407407438081 0.138271604941752
0.397530864253361 0.0481481481509222 0.143209876546495
0.513580246985028 0.0518518518531809 0.145679012348004
0.624691358110642 0.0518518518505601 0.14567901234627
0.7308641976302 0.0481481481430146 0.143209876541292
0.745679012445193 0.0592592592542691 0.261728395062219
0.649382716135597 0.0703703703692317 0.380246913585959
0.543209876614597 0.0740740740753926 0.493827160504189
0.42716049388226 0.070370370372753 0.602469135816868
0.301234567938396 0.05925925926129 0.706172839524335
0.175308641993847 0.0481481481493019 0.698765432116125
0.180246913599775 0.0518518518536414 0.590123456803935
0.180246913600554 0.0518518518540376 0.479012345689863
0.175308641996077 0.0481481481505222 0.365432098773422
0.165432098786104 0.0407407407430918 0.249382716054611
0.291358024730501 0.0518518518550622 0.256790123462592
0.639506172925682 0.0629629629618092 0.264197530867126
0.306172839544233 0.0629629629656272 0.597530864211991
0.412345679068427 0.0592592592621742 0.261728395067334
0.528395061800087 0.0629629629644308 0.264197530868844
0.538271605010048 0.0703703703718549 0.380246913587661
0.42716049388292 0.0703703703731315 0.491358024702635
0.306172839544969 0.0629629629660138 0.486419753097862
0.301234567940473 0.0592592592624905 0.372839506181403
0.422222222278398 0.0666666666696005 0.377777777786147
0.0395061728424474 0.140740740744382 0.130864197549808
0.0543209876407336 0.151851851843323 0.804938271722757
0.0543209876543559 0.818518518542207 0.138271604955415
0.0543209876584108 0.151851851856355 0.249382716086226
0.0641975308678963 0.159259259263469 0.365432098819413
0.0691358024709079 0.162962962965731 0.479012345749575
0.0691358024674134 0.162962962963123 0.590123456876935
0.0641975308573529 0.15925925925563 0.698765432201523
0.0790123456723588 0.281481481480309 0.706172839609013
0.093827160492309 0.403703703709036 0.602469135889443
0.0987654321005235 0.518518518529319 0.493827160564335
0.093827160497004 0.625925925941119 0.380246913633758
0.0790123456817201 0.725925925944765 0.261728395097536
0.0641975308657359 0.714814814832559 0.143209876560979
0.0691358024715219 0.607407407421816 0.145679012364014
0.0691358024720502 0.496296296307876 0.145679012364529
0.0641975308673629 0.381481481490262 0.143209876562396
0.0543209876574558 0.262962962968975 0.138271604957376
0.0691358024734162 0.274074074080946 0.256790123493793
0.0839506172824123 0.285185185187729 0.597530864284475
0.0839506172875029 0.618518518533867 0.264197530900481
0.0790123456828989 0.281481481488059 0.372839506226978
0.0839506172859078 0.285185185190321 0.486419753157133
0.0938271604958065 0.403703703711613 0.491358024762145
0.0938271604975087 0.514814814827013 0.380246913634166
0.0839506172880184 0.507407407419867 0.264197530900959
0.0790123456833207 0.392592592602233 0.261728395098812
0.0888888888928007 0.400000000009347 0.377777777831998
0.185185185203739 0.166666666668913 0.8148148148321
0.851851851979511 0.166666666670613 0.148148148256605
0.185185185211193 0.833333333363657 0.148148148209461
0.320987654357858 0.185185185188174 0.716049382747356
0.44691358030177 0.196296296299776 0.612345679057524
0.562962963035691 0.200000000003727 0.503703703762815
0.669135802559883 0.196296296300054 0.390123456863609
0.765432098874515 0.185185185188867 0.271604938360784
0.765432098879189 0.296296296305806 0.160493827255851
0.669135802567809 0.418518518533196 0.167901234653467
0.562962963045379 0.533333333352406 0.170370370447666
0.446913580311902 0.640740740763351 0.167901234638003
0.320987654367227 0.740740740766388 0.160493827224746
0.209876543233388 0.740740740762215 0.271604938319622
0.224691358046647 0.64074074075697 0.390123456828941
0.229629629650604 0.533333333345413 0.5037037037355
0.224691358044908 0.418518518526885 0.612345679038494
0.20987654322918 0.296296296301283 0.716049382737452
0.340740740779127 0.311111111117416 0.614814814850622
0.674074074168665 0.311111111119967 0.281481481560664
0.340740740784352 0.644444444463956 0.281481481535995
0.461728395118868 0.318518518525889 0.508641975358705
0.572839506248622 0.318518518526722 0.397530864261919
0.572839506251916 0.429629629643013 0.286419753156755
0.461728395123832 0.540740740757697 0.286419753148532
0.350617283992316 0.540740740755377 0.397530864244554
0.350617283990708 0.429629629639909 0.508641975349591
0.466666666726304 0.433333333345276 0.400000000055603
0.106172839526013 -0.114814814814475 -0.0024691358012856
0.787654321098015 -0.103703703716054 0.00493827159781233
-0.145679012337983 -0.970370370401105 -0.12839506173311
0.232098765470413 -0.103703703702503 0.00493827160669606
0.353086419808342 -0.0962962962953887 0.00987654321143877
0.469135802540009 -0.0925925925931335 0.012345679012944
0.580246913665616 -0.0925925925957723 0.012345679011194
0.686419753185154 -0.0962962963033855 0.00987654320615333
0.656790123554777 -0.229629629639583 -0.00493827160902865
0.516049382799675 -0.362962962972514 -0.0197530864218064
0.365432098833026 -0.503703703714712 -0.0395061728405236
0.204938271654914 -0.651851851866123 -0.0641975308651712
0.0345679012650064 -0.807407407427227 -0.0938271604958349
-0.0913580246794561 -0.818518518538933 -0.101234567903784
-0.041975308627495 -0.670370370384985 -0.0765432098778739
0.00246913581901904 -0.525925925935952 -0.0543209876547426
0.041975308660181 -0.38518518519114 -0.0345679012342666
0.0765432098957504 -0.248148148150557 -0.0172839506164488
0.202469135840147 -0.237037037038587 -0.00987654320846861
0.550617284035314 -0.225925925931887 -0.00246913580397787
0.0839506173169369 -0.659259259273084 -0.0691358024698965
0.323456790178073 -0.229629629631476 -0.00493827160372742
0.439506172909731 -0.225925925929226 -0.00246913580222407
0.404938271674145 -0.36296296296983 -0.0197530864200483
0.249382716101368 -0.507407407416914 -0.0419753086420219
0.128395061763427 -0.514814814823995 -0.0469135802467614
0.167901234604576 -0.374074074079175 -0.0271604938262881
0.288888888942499 -0.36666666667207 -0.022222222221549
-0.00493827160898608 -0.114814814835323 0.108641975308054
-0.256790123520222 -0.970370370542557 -0.0172839506473388
0.00987654320306102 -0.103703703725942 0.78271604940297
-0.0345679012443974 -0.248148148190318 0.0938271604903479
-0.0691358024862896 -0.385185185250182 0.0765432098694021
-0.10864197533474 -0.525925926015176 0.0567901234451794
-0.153086419789878 -0.670370370485637 0.0345679012176244
-0.202469135851786 -0.818518518661686 0.00987654318672253
-0.187654321036775 -0.807407407550415 0.128395061707653
-0.128395061765006 -0.651851851967043 0.269135802457301
-0.0790123457051058 -0.503703703792902 0.404938271601374
-0.0395061728570985 -0.36296296302808 0.535802469139817
-0.00987654322095044 -0.229629629672389 0.661728395072999
0.0197530864144915 -0.0962962963172422 0.676543209890503
0.0246913580202207 -0.0925925926130874 0.567901234578285
0.0246913580206485 -0.0925925926130179 0.456790123464163
0.0197530864158772 -0.0962962963168063 0.343209876547679
0.00987654320599654 -0.103703703724151 0.227160493828882
-0.0197530864294176 -0.237037037079148 0.212345679011175
-0.138271604974895 -0.659259259374441 0.153086419738472
-0.00493827161518903 -0.225925925968122 0.553086419760645
-0.0543209876713124 -0.374074074139013 0.195061728390228
-0.0938271605197638 -0.514814814904002 0.175308641966008
-0.0839506173098903 -0.50740740749666 0.291358024684813
-0.0395061728566558 -0.362962963027903 0.424691358025553
-0.00493827161476172 -0.225925925968021 0.441975308646472
-0.00987654321954012 -0.229629629671807 0.328395061729972
-0.0444444444614382 -0.366666666731676 0.311111111109028
0.140740740736268 -0.0888888889107928 0.792592592606383
-0.125925925971063 -0.955555555715266 -0.0074074073238731
0.807407407433101 -0.0888888889044917 0.125925925983813
0.120987654310576 -0.214814814858499 0.671604938295952
0.0913580246746663 -0.348148148213875 0.545679012380431
0.0518518518284717 -0.488888888977179 0.414814814859991
0.00246913577192649 -0.637037037148706 0.279012345734963
-0.056790123494855 -0.79259259272845 0.138271605006215
0.0543209876232615 -0.792592592724918 0.0271604939012844
0.224691358007011 -0.637037037142884 0.0567901235248094
0.385185185179603 -0.488888888969816 0.0814814815448511
0.535802469140909 -0.348148148205849 0.101234567960952
0.676543209891355 -0.214814814850766 0.11604938277341
0.72098765433729 -0.0703703703875862 0.249382716094
0.624691358035267 -0.0592592592779335 0.36790123460329
0.518518518524536 -0.0555555555754807 0.481481481509799
0.402469135804448 -0.0592592592801833 0.590123456812751
0.276543209874957 -0.0703703703918433 0.693827160511722
0.251851851845092 -0.200000000042678 0.570370370399205
0.118518518494009 -0.633333333442203 0.170370370432011
0.58518518519317 -0.200000000038032 0.237037037084649
0.217283950605012 -0.337037037101182 0.441975308681599
0.172839506154661 -0.4814814815676 0.308641975359083
0.283950617271735 -0.481481481565259 0.197530864253907
0.439506172838138 -0.337037037097219 0.21975308647145
0.483950617286438 -0.192592592632511 0.353086419793164
0.372839506170438 -0.192592592634131 0.464197530898161
0.333333333326214 -0.333333333395747 0.333333333378484
0.170370370402614 0.155555555665265 0.140740740774697
0.75061728412972 0.174074074173314 0.153086419893573
0.195061728504787 0.729629630120916 0.153086419820899
0.195061728421039 0.174074074175281 0.708641975423657
0.296296296351468 0.16666666677617 0.148148148192019
0.417283950700751 0.1740740741832 0.153086419811103
0.533333333447319 0.177777777885893 0.155555555631178
0.644444444589732 0.177777777883442 0.155555555654958
0.659259259421675 0.300000000173595 0.162962963091624
0.558024691501505 0.418518518758802 0.167901234686928
0.446913580372441 0.529629629942816 0.167901234675997
0.325925926039406 0.633333333731681 0.162962963054134
0.200000000082023 0.622222222673684 0.155555555626088
0.200000000061282 0.51111111149475 0.155555555624902
0.195061728444128 0.396296296596973 0.153086419814027
0.185185185227001 0.277777777986959 0.148148148196977
0.200000000021881 0.177777777884253 0.600000000112314
0.200000000022296 0.177777777886933 0.488888888983348
0.195061728420259 0.174074074184603 0.375308642049786
0.185185185214272 0.16666666677762 0.259259259314137
0.214814814842054 0.300000000164946 0.607407407432072
0.224691358052223 0.41851851874442 0.501234567854079
0.224691358063252 0.529629629933814 0.390123456737328
0.214814814882461 0.633333333732497 0.274074074072754
0.325925925976502 0.188888888989398 0.607407407556609
0.446913580330975 0.1962962963981 0.501234568076715
0.558024691481314 0.196296296400605 0.390123456978642
0.659259259420265 0.188888888993996 0.274074074253795
0.311111111176632 0.288888889090779 0.155555555614151
0.325925926011656 0.522222222573246 0.162962963044921
0.548148148277056 0.300000000185428 0.162962963057053
0.32098765439308 0.407407407689945 0.160493827231576
0.441975308746534 0.414814815077573 0.165432098853987
0.43209876552782 0.29629629649031 0.160493827233789
0.31111111116323 0.17777777788886 0.266666666739587
0.548148148268817 0.188888888998705 0.27407407420797
0.325925925972888 0.188888888996011 0.496296296425299
0.432098765515971 0.185185185296308 0.271604938371342
0.441975308724875 0.192592592701596 0.387654321127307
0.320987654369497 0.185185185295416 0.382716049483712
0.200000000030126 0.288888889076581 0.266666666676425
0.21481481483688 0.300000000155997 0.496296296258627
0.214814814854728 0.522222222548211 0.27407407401667
0.2098765432316 0.296296296460346 0.382716049345912
0.219753086441259 0.414814815034468 0.387654320872109
0.209876543239055 0.407407407661364 0.271604938225939
0.340740740786561 0.311111111250327 0.503703703694565
0.562962963087866 0.311111111268065 0.281481481575643
0.340740740803944 0.533333333615908 0.281481481444763
0.456790123536298 0.314814814952859 0.395061728421246
0.456790123542771 0.425925926130947 0.283950617287265
0.345679012388477 0.425925926115425 0.395061728302604
0.325925925979686 0.300000000179996 0.274074074101591
0.446913580333792 0.307407407577919 0.279012345734056
0.335802469187512 0.418518518751265 0.279012345651303
0.335802469180942 0.307407407561247 0.390123456778422
0.125925926051948 -0.100000000000365 0.118518518534045
-0.0716049382195798 -0.803703703890456 0.0197530865190992
0.706172840000265 -0.0814814816368586 0.130864197563827
0.150617284062386 -0.0814814814913649 0.68641975314612
0.0962962964146745 -0.233333333357969 0.10370370372512
0.0617283951696312 -0.370370370427568 0.0864197531168546
0.0222222223167844 -0.511111111206867 0.0666666667091872
-0.0222222221448676 -0.65555555569429 0.0444444445057741
0.103703703852177 -0.644444444590915 0.0518518519446897
0.2691358027015 -0.492592592711641 0.0790123457661076
0.424691358341492 -0.348148148255123 0.101234567979561
0.570370370776402 -0.211111111229154 0.118518518579112
0.600000000487249 -0.0777777778639963 0.133333333374313
0.488888889319809 -0.077777777810964 0.133333333379137
0.372839506518551 -0.0814814814855167 0.130864197572019
0.251851852094786 -0.0888888888843932 0.125925925956462
0.155555555679463 -0.0777777777751544 0.577777777825429
0.155555555683664 -0.0777777777699204 0.466666666702836
0.15061728407955 -0.0814814814736855 0.353086419780943
0.140740740868833 -0.0888888888843693 0.237037037058729
0.281481481669009 -0.0666666666629954 0.585185185163861
0.402469136056004 -0.0592592592634438 0.479012345593229
0.51358024724293 -0.0592592592944591 0.367901234480574
0.614814815230318 -0.0666666667543445 0.251851851816982
0.12592592602799 -0.211111111144744 0.562962963060609
0.0913580247838869 -0.348148148213398 0.434567901361288
0.0469135803290344 -0.492592592697954 0.301234568042478
-0.00740740733886963 -0.64444444459581 0.162962963096985
0.222222222449548 -0.222222222244125 0.11111111114722
0.45925925964335 -0.21111111117217 0.118518518573929
0.148148148330714 -0.500000000100954 0.0740740741352501
0.343209876861248 -0.214814814845435 0.116049382763524
0.30864197559042 -0.35185185192177 0.0987654321589823
0.187654321195057 -0.359259259317324 0.0938271605393582
0.111111111232147 -0.222222222240891 0.222222222258242
0.0370370371305994 -0.50000000009803 0.185185185273386
0.125925926042139 -0.211111111130459 0.451851851923813
0.0765432099865047 -0.359259259312788 0.204938271662991
0.0864197531928562 -0.35185185190639 0.320987654409492
0.120987654441954 -0.214814814830679 0.338271604990011
0.266666666886603 -0.077777777774776 0.244444444421366
0.281481481667751 -0.066666666661297 0.474074073983902
0.503703704067836 -0.0666666667081137 0.251851851759796
0.276543210072166 -0.0703703703674428 0.360493827078557
0.39753086445368 -0.0629629629739004 0.365432098607544
0.387654321281985 -0.0703703703819564 0.249382715970209
0.251851852004112 -0.200000000023976 0.459259259207986
0.16296296310626 -0.4888888889971 0.192592592647927
0.474074074372131 -0.200000000067163 0.23703703696949
0.21234567915027 -0.340740740805131 0.328395061714525
0.323456790332857 -0.340740740818135 0.217283950587515
0.367901234774531 -0.196296296332669 0.350617283823337
0.237037037240633 -0.211111111133389 0.229629629621031
0.20246913598194 -0.348148148208624 0.212345679028058
0.358024691619181 -0.203703703740565 0.234567901172161
0.246913580421517 -0.203703703726497 0.34567901228886

T	p9 0 1 2 3 5 6 7 8 9 10 11 12 13 14 15 16 17 18 19 20 21 22 23 24 25 26 27 28 36 35 34 33 32 31 30 29 52 51 50 49 48 47 46 45 44 43 42 41 40 39 38 37 77 80 81 82 83 84 78 94 95 98 99 96 85 93 103 104 100 86 92 102 101 87 91 97 88 90 89 79 133 136 137 138 139 140 134 150 151 154 155 152 141 149 159 160 156 142 148 158 157 143 147 153 144 146 145 135 105 108 109 110 111 112 106 122 123 126 127 124 113 121 131 132 128 114 120 130 129 115 119 125 116 118 117 107 162 169 170 171 172 173 163 168 180 184 185 181 174 167 183 188 186 175 166 182 187 176 165 179 177 164 178 161 273 277 278 279 280 274 288 301 306 303 281 287 304 305 282 286 302 283 285 284 275 292 307 310 308 300 313 325 326 320 318 327 323 315 321 296 291 312 311 299 316 328 322 317 324 295 290 309 298 314 319 294 289 297 293 276
T	p9 0 4 1 3 53 54 55 56 57 58 59 60 61 62 63 64 65 66 67 68 12 11 10 9 8 7 6 5 36 35 34 33 32 31 30 29 76 75 74 73 72 71 70 69 52 51 50 49 48 47 46 45 189 192 193 194 195 196 190 206 207 210 211 208 197 205 215 216 212 198 204 214 213 199 203 209 200 202 201 191 105 122 121 120 119 118 107 108 123 131 130 125 117 109 126 132 129 116 110 127 128 115 111 124 114 112 113 106 217 220 221 222 223 224 218 234 235 238 239 236 225 233 243 244 240 226 232 242 241 227 231 237 228 230 229 219 246 253 254 255 256 257 247 252 264 268 269 265 258 251 267 272 270 259 250 266 271 260 249 263 261 248 262 245 329 333 334 335 336 330 344 357 362 359 337 343 360 361 338 342 358 339 341 340 331 348 363 366 364 356 369 381 382 376 374 383 379 371 377 352 347 368 367 355 372 384 378 373 380 351 346 365 354 370 375 350 345 353 349 332

