$MeshFormat
2.2 0 8
$EndMeshFormat
$PhysicalNames
2
2 1 "boundary"
3 2 "internal"
$EndPhysicalNames
$Nodes
56
1 0 0 0
2 1 0 0
3 0 1 0
4 0 0 1
5 0.232 0.024 0.016
6 0.448 0.036 0.024
7 0.648 0.036 0.024
8 0.832 0.024 0.016
9 0.864 0.248 0.032
10 0.696 0.472 0.048
11 0.496 0.672 0.048
12 0.264 0.848 0.032
13 0.032 0.824 0.016
14 0.048 0.636 0.024
15 0.048 0.436 0.024
16 0.032 0.224 0.016
17 0.032 0.024 0.816
18 0.048 0.036 0.624
19 0.048 0.036 0.424
20 0.032 0.024 0.216
21 0.064 0.248 0.832
22 0.096 0.472 0.648
23 0.096 0.672 0.448
24 0.064 0.848 0.232
25 0.264 0.048 0.832
26 0.496 0.072 0.648
27 0.696 0.072 0.448
28 0.864 0.048 0.232
29 0.264000000000021 0.248000000000002 0.0320000000000011
30 0.28000000000002 0.659999999999999 0.0400000000000011
31 0.680000000000043 0.259999999999999 0.0399999999999991
32 0.280000000000021 0.460000000000001 0.0400000000000011
33 0.496000000000035 0.472 0.0480000000000007
34 0.480000000000036 0.260000000000001 0.0400000000000007
35 0.264000000000002 0.0480000000000017 0.23200000000002
36 0.68 0.0600000000000017 0.240000000000019
37 0.279999999999998 0.0599999999999987 0.640000000000044
38 0.480000000000001 0.0600000000000016 0.24000000000002
39 0.496 0.072000000000001 0.448000000000034
40 0.280000000000001 0.060000000000001 0.440000000000035
41 0.0640000000000022 0.24800000000002 0.232000000000001
42 0.0800000000000022 0.260000000000019 0.639999999999999
43 0.0799999999999982 0.660000000000044 0.239999999999999
44 0.0800000000000022 0.26000000000002 0.44
45 0.0960000000000013 0.472000000000035 0.448
46 0.0800000000000013 0.460000000000035 0.24
47 0.312000000000001 0.28400000000002 0.656000000000023
48 0.712000000000004 0.284000000000022 0.256000000000034
49 0.312000000000005 0.684000000000048 0.256000000000054
50 0.528000000000002 0.296000000000021 0.464000000000029
51 0.528000000000006 0.496000000000039 0.264000000000047
52 0.328000000000002 0.496000000000037 0.46400000000004
53 0.296000000000031 0.272000000000033 0.248000000000017
54 0.512000000000027 0.284000000000025 0.25600000000002
55 0.312000000000038 0.484000000000058 0.256000000000023
56 0.312000000000023 0.284000000000031 0.456000000000018
$EndNodes
$Elements
1
1 31 2 2 1 1 2 3 4 5 6 7 8 9 10 11 12 13 14 15 16 17 18 19 20 21 22 23 24 25 26 27 28 29 30 31 32 33 34 35 36 37 38 39 40 41 42 43 44 45 46 47 48 49 50 51 52 53 54 55 56
$EndElements
