#!geo

mesh
4
header
 dimension	3
 order		5
 nodes		91
 tetrahedra	2
end header

0 0 0
1 0 0
0 1 0
0 0 1
-0.4 -1.3 -0.2
0.232 0.024 0.016
0.448 0.036 0.024
0.648 0.036 0.024
0.832 0.024 0.016
0.864 0.248 0.032
0.696 0.472 0.048
0.496 0.672 0.048
0.264 0.848 0.032
0.032 0.824 0.016
0.048 0.636 0.024
0.048 0.436 0.024
0.032 0.224 0.016
0.032 0.024 0.816
0.048 0.036 0.624
0.048 0.036 0.424
0.032 0.024 0.216
0.064 0.248 0.832
0.096 0.472 0.648
0.096 0.672 0.448
0.064 0.848 0.232
0.264 0.048 0.832
0.496 0.072 0.648
0.696 0.072 0.448
0.864 0.048 0.232
-0.048 -0.236 -0.024
-0.112 -0.484 -0.056
-0.192 -0.744 -0.096
-0.288 -1.016 -0.144
-0.056 -0.992 -0.128
0.256 -0.708 -0.072
0.536 -0.448 -0.032
0.784 -0.212 -0.008
-0.016 -0.212 0.792
-0.064 -0.448 0.568
-0.144 -0.708 0.328
-0.256 -0.992 0.072
0.264000000000021 0.248000000000002 0.0320000000000011
0.28000000000002 0.659999999999999 0.0400000000000011
0.680000000000043 0.259999999999999 0.0399999999999991
0.280000000000021 0.460000000000001 0.0400000000000011
0.496000000000035 0.472 0.0480000000000007
0.480000000000036 0.260000000000001 0.0400000000000007
0.264000000000002 0.0480000000000017 0.23200000000002
0.68 0.0600000000000017 0.240000000000019
0.279999999999998 0.0599999999999987 0.640000000000044
0.480000000000001 0.0600000000000016 0.24000000000002
0.496 0.072000000000001 0.448000000000034
0.280000000000001 0.060000000000001 0.440000000000035
0.0640000000000022 0.24800000000002 0.232000000000001
0.0800000000000022 0.260000000000019 0.639999999999999
0.0799999999999982 0.660000000000044 0.239999999999999
0.0800000000000022 0.26000000000002 0.44
0.0960000000000013 0.472000000000035 0.448
0.0800000000000013 0.460000000000035 0.24
0.312000000000001 0.28400000000002 0.656000000000023
0.712000000000004 0.284000000000022 0.256000000000034
0.312000000000005 0.684000000000048 0.256000000000054
0.528000000000002 0.296000000000021 0.464000000000029
0.528000000000006 0.496000000000039 0.264000000000047
0.328000000000002 0.496000000000037 0.46400000000004
0.183999999999995 -0.212000000000023 -0.00800000000000261
0.599999999999993 -0.200000000000021 -2.43138842392909e-15
0.0399999999999804 -0.72000000000006 -0.0800000000000099
0.399999999999994 -0.200000000000022 -2.5951463200613e-15
0.335999999999987 -0.448000000000043 -0.0320000000000061
0.119999999999987 -0.460000000000044 -0.0400000000000062
-0.0159999999999977 -0.211999999999998 0.19200000000002
-0.159999999999997 -0.719999999999995 0.120000000000019
-1.85407245112401e-15 -0.200000000000002 0.600000000000044
-0.0799999999999975 -0.459999999999997 0.16000000000002
-0.0639999999999983 -0.447999999999998 0.368000000000035
1.49880108324396e-15 -0.199999999999998 0.400000000000035
0.23200000000002 -0.175999999999999 0.616000000000023
0.0720000000000245 -0.695999999999993 0.136000000000034
0.632000000000049 -0.175999999999997 0.216000000000054
0.168000000000022 -0.423999999999996 0.384000000000029
0.368000000000041 -0.423999999999994 0.184000000000047
0.448000000000037 -0.163999999999997 0.42400000000004
0.296000000000031 0.272000000000033 0.248000000000017
0.512000000000027 0.284000000000025 0.25600000000002
0.312000000000038 0.484000000000058 0.256000000000023
0.312000000000023 0.284000000000031 0.456000000000018
0.216000000000009 -0.188000000000025 0.208000000000028
0.152000000000006 -0.436000000000024 0.176000000000026
0.432000000000029 -0.176000000000033 0.216000000000029
0.232000000000013 -0.176000000000018 0.416000000000034

T	p5 0 1 2 3 5 6 7 8 9 10 11 12 13 14 15 16 20 19 18 17 28 27 26 25 24 23 22 21 41 44 42 46 45 43 53 56 54 58 57 55 47 50 48 52 51 49 60 63 61 62 64 59 83 84 85 86
T	p5 0 4 1 3 29 30 31 32 33 34 35 36 8 7 6 5 20 19 18 17 40 39 38 37 28 27 26 25 65 68 66 70 69 67 47 52 49 50 51 48 71 74 72 76 75 73 78 81 79 80 82 77 87 88 89 90

