%!PS-Adobe-3.0
%%Pages: (atend)
%%BoundingBox: 83 55 512 484
%%HiResBoundingBox: 83.803320 55.456860 511.472217 483.125757
%.....................................
%%Creator: GNU Ghostscript 653 (pswrite)
%%CreationDate: 2003/02/15 12:52:00
%%DocumentData: Clean7Bit
%%LanguageLevel: 2
%%EndComments
%%BeginProlog
% This copyright applies to everything between here and the %%EndProlog:
% Copyright (C) 2002 artofcode LLC, Benicia, CA. All rights reserved.
%%BeginResource: procset GS_pswrite_2_0_1001
/GS_pswrite_2_0_1001 80 dict dup begin
/PageSize 2 array def/setpagesize{ PageSize aload pop 3 index eq exch
4 index eq and{ pop pop pop}{ PageSize dup  1
5 -1 roll put 0 4 -1 roll put dup where{ exch get exec}
{ pop/setpagedevice where
{ pop 1 dict dup /PageSize PageSize put setpagedevice}
{ /setpage where{ pop PageSize aload pop pageparams 3 {exch pop} repeat
setpage}if}ifelse}ifelse}ifelse} bind def
/!{bind def}bind def/#{load def}!/N/counttomark #
/rG{3{3 -1 roll 255 div}repeat setrgbcolor}!/G{255 div setgray}!/K{0 G}!
/r6{dup 3 -1 roll rG}!/r5{dup 3 1 roll rG}!/r3{dup rG}!
/w/setlinewidth #/J/setlinecap #
/j/setlinejoin #/M/setmiterlimit #/d/setdash #/i/setflat #
/m/moveto #/l/lineto #/c/rcurveto #
/p{N 2 idiv{N -2 roll rlineto}repeat}!
/P{N 0 gt{N -2 roll moveto p}if}!
/h{p closepath}!/H{P closepath}!
/lx{0 rlineto}!/ly{0 exch rlineto}!/v{0 0 6 2 roll c}!/y{2 copy c}!
/re{4 -2 roll m exch dup lx exch ly neg lx h}!
/^{3 index neg 3 index neg}!
/f{P fill}!/f*{P eofill}!/s{H stroke}!/S{P stroke}!
/q/gsave #/Q/grestore #/rf{re fill}!
/Y{P clip newpath}!/Y*{P eoclip newpath}!/rY{re Y}!
/|={pop exch 4 1 roll 3 array astore cvx exch 1 index def exec}!
/|{exch string readstring |=}!
/+{dup type/nametype eq{2 index 7 add -3 bitshift 2 index mul}if}!
/@/currentfile #/${+ @ |}!
/B{{2 copy string{readstring pop}aload pop 4 array astore cvx
3 1 roll}repeat pop pop true}!
/Ix{[1 0 0 1 11 -2 roll exch neg exch neg]exch}!
/,{true exch Ix imagemask}!/If{false exch Ix imagemask}!/I{exch Ix image}!
/Ic{exch Ix false 3 colorimage}!
/F{/Columns counttomark 3 add -2 roll/Rows exch/K -1/BlackIs1 true>>
/CCITTFaxDecode filter}!/FX{<</EndOfBlock false F}!
/X{/ASCII85Decode filter}!/@X{@ X}!/&2{2 index 2 index}!
/@F{@ &2<<F}!/@C{@X &2 FX}!
/$X{+ @X |}!/&4{4 index 4 index}!/$F{+ @ &4<<F |}!/$C{+ @X &4 FX |}!
/IC{3 1 roll 10 dict begin 1{/ImageType/Interpolate/Decode/DataSource
/ImageMatrix/BitsPerComponent/Height/Width}{exch def}forall
currentdict end image}!
end readonly def
%%EndResource
/pagesave null def
%%EndProlog
%%Page: 1 1
%%BeginPageSetup
GS_pswrite_2_0_1001 begin
595 842 /a4 setpagesize
/pagesave save store 100 dict begin
0.1 0.1 scale
%%EndPageSetup
gsave mark
Q q
0 0 5950 0 0 8420 ^ Y
24.7207 w
K
850.394 566.929 4251.97 4251.97 re
S
79.1064 w
255 0 r3
949.28 4680.46 0 79.11 S
255 172 0 rG
1048.16 4680.46 0 79.11 S
1147.04 4680.46 0 79.11 S
255 77 0 rG
1245.93 4680.46 0 79.11 S
0 121 255 rG
1344.81 4680.46 0 79.11 S
255 214 0 rG
2531.4 4680.46 0 79.11 S
0 121 255 rG
2630.29 4680.46 0 79.11 S
0 255 146 rG
2729.17 4680.46 0 79.11 S
255 77 0 rG
3816.88 4680.46 0 79.11 S
255 0 r6
3915.77 4680.46 0 79.11 S
36 255 0 rG
4014.65 4680.46 0 79.11 S
255 172 0 rG
949.28 4581.58 0 79.11 S
255 0 r3
1048.16 4581.58 0 79.11 S
255 172 0 rG
1147.04 4581.58 0 79.11 S
255 77 0 rG
1245.93 4581.58 0 79.11 S
255 232 0 rG
1344.81 4581.58 0 79.11 S
255 77 0 rG
2531.4 4581.58 0 79.11 S
255 0 r6
2630.29 4581.58 0 79.11 S
36 255 0 rG
2729.17 4581.58 0 79.11 S
255 214 0 rG
3816.88 4581.58 0 79.11 S
0 121 255 rG
3915.77 4581.58 0 79.11 S
0 255 146 rG
4014.65 4581.58 0 79.11 S
255 172 0 rG
949.28 4482.7 0 79.11 S
1048.16 4482.7 0 79.11 S
255 0 r3
1147.04 4482.7 0 79.11 S
255 214 0 rG
1245.93 4482.7 0 79.11 S
255 77 0 rG
2531.4 4482.7 0 79.11 S
0 152 255 rG
2729.17 4482.7 0 79.11 S
255 77 0 rG
3816.88 4482.7 0 79.11 S
0 152 255 rG
4014.65 4482.7 0 79.11 S
255 77 0 rG
949.28 4383.81 0 79.11 S
1048.16 4383.81 0 79.11 S
255 214 0 rG
1147.04 4383.81 0 79.11 S
255 0 r3
1245.93 4383.81 0 79.11 S
0 158 255 rG
1443.69 4383.81 0 79.11 S
255 172 0 rG
2531.4 4383.81 0 79.11 S
0 42 255 rG
2630.29 4383.81 0 79.11 S
219 255 0 rG
2729.17 4383.81 0 79.11 S
0 231 255 rG
2828.05 4383.81 0 79.11 S
255 172 0 rG
3816.88 4383.81 0 79.11 S
0 42 255 rG
3915.77 4383.81 0 79.11 S
219 255 0 rG
4014.65 4383.81 0 79.11 S
0 231 255 rG
4113.53 4383.81 0 79.11 S
0 121 255 rG
949.28 4284.93 0 79.11 S
255 232 0 rG
1048.16 4284.93 0 79.11 S
255 89 0 rG
1344.81 4284.93 0 79.11 S
0 152 255 rG
1542.57 4284.93 0 79.11 S
73 255 0 rG
2531.4 4284.93 0 79.11 S
0 152 255 rG
2630.29 4284.93 0 79.11 S
255 0 r5
2729.17 4284.93 0 79.11 S
0 231 255 rG
2828.05 4284.93 0 79.11 S
0 243 255 rG
2926.94 4284.93 0 79.11 S
0 176 255 rG
3816.88 4284.93 0 79.11 S
219 255 0 rG
3915.77 4284.93 0 79.11 S
0 195 255 rG
4014.65 4284.93 0 79.11 S
0 255 219 rG
4113.53 4284.93 0 79.11 S
0 243 255 rG
4212.41 4284.93 0 79.11 S
0 158 255 rG
1245.93 4186.05 0 79.11 S
255 142 0 rG
1443.69 4186.05 0 79.11 S
0 164 255 rG
1641.46 4186.05 0 79.11 S
0 152 255 rG
1344.81 4087.16 0 79.11 S
255 172 0 rG
1542.57 4087.16 0 79.11 S
0 170 255 rG
1740.34 4087.16 0 79.11 S
0 164 255 rG
1443.69 3988.28 0 79.11 S
255 202 0 rG
1641.46 3988.28 0 79.11 S
0 182 255 rG
1839.22 3988.28 0 79.11 S
0 170 255 rG
1542.57 3889.4 0 79.11 S
255 220 0 rG
1740.34 3889.4 0 79.11 S
0 188 255 rG
1938.11 3889.4 0 79.11 S
0 182 255 rG
1641.46 3790.51 0 79.11 S
255 232 0 rG
1839.22 3790.51 0 79.11 S
0 195 255 rG
2036.99 3790.51 0 79.11 S
0 188 255 rG
1740.34 3691.63 0 79.11 S
255 244 0 rG
1938.11 3691.63 0 79.11 S
0 195 255 rG
2135.87 3691.63 0 79.11 S
1839.22 3592.75 0 79.11 S
0 255 r6
2036.99 3592.75 0 79.11 S
0 201 255 rG
2234.76 3592.75 0 79.11 S
0 195 255 rG
1938.11 3493.87 0 79.11 S
219 255 0 rG
2135.87 3493.87 0 79.11 S
0 201 255 rG
2333.64 3493.87 0 79.11 S
2036.99 3394.98 0 79.11 S
182 255 0 rG
2234.76 3394.98 0 79.11 S
0 188 255 rG
2432.52 3394.98 0 79.11 S
0 201 255 rG
2135.87 3296.1 0 79.11 S
146 255 0 rG
2333.64 3296.1 0 79.11 S
0 188 255 rG
2234.76 3197.22 0 79.11 S
255 214 0 rG
2432.52 3197.22 0 79.11 S
949.28 3098.33 0 79.11 S
255 77 0 rG
1048.16 3098.33 0 79.11 S
1147.04 3098.33 0 79.11 S
255 172 0 rG
1245.93 3098.33 0 79.11 S
73 255 0 rG
1344.81 3098.33 0 79.11 S
255 0 r3
2531.4 3098.33 0 79.11 S
0 109 255 rG
2630.29 3098.33 0 79.11 S
0 127 255 rG
2729.17 3098.33 0 79.11 S
36 255 0 rG
2828.05 3098.33 0 79.11 S
255 172 0 rG
3816.88 3098.33 0 79.11 S
0 176 255 rG
3915.77 3098.33 0 79.11 S
0 188 255 rG
4014.65 3098.33 0 79.11 S
0 255 146 rG
4113.53 3098.33 0 79.11 S
0 121 255 rG
949.28 2999.45 0 79.11 S
255 0 r6
1048.16 2999.45 0 79.11 S
0 42 255 rG
1245.93 2999.45 0 79.11 S
0 152 255 rG
1344.81 2999.45 0 79.11 S
0 109 255 rG
2531.4 2999.45 0 79.11 S
255 0 r3
2630.29 2999.45 0 79.11 S
0 140 255 rG
2729.17 2999.45 0 79.11 S
0 91 255 rG
2828.05 2999.45 0 79.11 S
146 255 0 rG
2926.94 2999.45 0 79.11 S
0 176 255 rG
3816.88 2999.45 0 79.11 S
255 172 0 rG
3915.77 2999.45 0 79.11 S
0 195 255 rG
4014.65 2999.45 0 79.11 S
0 170 255 rG
4113.53 2999.45 0 79.11 S
0 255 109 rG
4212.41 2999.45 0 79.11 S
0 255 146 rG
949.28 2900.57 0 79.11 S
36 255 0 rG
1048.16 2900.57 0 79.11 S
0 152 255 rG
1147.04 2900.57 0 79.11 S
219 255 0 rG
1245.93 2900.57 0 79.11 S
255 0 r5
1344.81 2900.57 0 79.11 S
0 127 255 rG
2531.4 2900.57 0 79.11 S
0 140 255 rG
2630.29 2900.57 0 79.11 S
255 0 r3
2729.17 2900.57 0 79.11 S
0 146 255 rG
2828.05 2900.57 0 79.11 S
0 79 255 rG
2926.94 2900.57 0 79.11 S
182 255 0 rG
3025.82 2900.57 0 79.11 S
0 188 255 rG
3816.88 2900.57 0 79.11 S
0 195 255 rG
3915.77 2900.57 0 79.11 S
255 172 0 rG
4014.65 2900.57 0 79.11 S
0 195 255 rG
4113.53 2900.57 0 79.11 S
0 164 255 rG
4212.41 2900.57 0 79.11 S
0 255 73 rG
4311.3 2900.57 0 79.11 S
0 231 255 rG
1245.93 2801.68 0 79.11 S
1344.81 2801.68 0 79.11 S
36 255 0 rG
2531.4 2801.68 0 79.11 S
0 91 255 rG
2630.29 2801.68 0 79.11 S
0 146 255 rG
2729.17 2801.68 0 79.11 S
255 0 r3
2828.05 2801.68 0 79.11 S
0 152 255 rG
2926.94 2801.68 0 79.11 S
0 73 255 rG
3025.82 2801.68 0 79.11 S
182 255 0 rG
3124.7 2801.68 0 79.11 S
0 255 146 rG
3816.88 2801.68 0 79.11 S
0 170 255 rG
3915.77 2801.68 0 79.11 S
0 195 255 rG
4014.65 2801.68 0 79.11 S
255 172 0 rG
4113.53 2801.68 0 79.11 S
0 195 255 rG
4212.41 2801.68 0 79.11 S
0 158 255 rG
4311.3 2801.68 0 79.11 S
0 255 73 rG
4410.18 2801.68 0 79.11 S
0 243 255 rG
1344.81 2702.8 0 79.11 S
146 255 0 rG
2630.29 2702.8 0 79.11 S
0 79 255 rG
2729.17 2702.8 0 79.11 S
0 152 255 rG
2828.05 2702.8 0 79.11 S
255 0 r3
2926.94 2702.8 0 79.11 S
0 152 255 rG
3025.82 2702.8 0 79.11 S
0 73 255 rG
3124.7 2702.8 0 79.11 S
182 255 0 rG
3223.58 2702.8 0 79.11 S
0 255 109 rG
3915.77 2702.8 0 79.11 S
0 164 255 rG
4014.65 2702.8 0 79.11 S
0 195 255 rG
4113.53 2702.8 0 79.11 S
255 172 0 rG
4212.41 2702.8 0 79.11 S
0 201 255 rG
4311.3 2702.8 0 79.11 S
0 158 255 rG
4410.18 2702.8 0 79.11 S
0 255 73 rG
4509.06 2702.8 0 79.11 S
182 255 0 rG
2729.17 2603.92 0 79.11 S
0 73 255 rG
2828.05 2603.92 0 79.11 S
0 152 255 rG
2926.94 2603.92 0 79.11 S
255 0 r3
3025.82 2603.92 0 79.11 S
0 152 255 rG
3124.7 2603.92 0 79.11 S
0 73 255 rG
3223.58 2603.92 0 79.11 S
182 255 0 rG
3322.47 2603.92 0 79.11 S
0 255 73 rG
4014.65 2603.92 0 79.11 S
0 158 255 rG
4113.53 2603.92 0 79.11 S
0 201 255 rG
4212.41 2603.92 0 79.11 S
255 172 0 rG
4311.3 2603.92 0 79.11 S
0 201 255 rG
4410.18 2603.92 0 79.11 S
0 158 255 rG
4509.06 2603.92 0 79.11 S
0 255 73 rG
4607.95 2603.92 0 79.11 S
182 255 0 rG
2828.05 2505.04 0 79.11 S
0 73 255 rG
2926.94 2505.04 0 79.11 S
0 152 255 rG
3025.82 2505.04 0 79.11 S
255 0 r3
3124.7 2505.04 0 79.11 S
0 152 255 rG
3223.58 2505.04 0 79.11 S
0 67 255 rG
3322.47 2505.04 0 79.11 S
219 255 0 rG
3421.35 2505.04 0 79.11 S
0 255 73 rG
4113.53 2505.04 0 79.11 S
0 158 255 rG
4212.41 2505.04 0 79.11 S
0 201 255 rG
4311.3 2505.04 0 79.11 S
255 172 0 rG
4410.18 2505.04 0 79.11 S
0 201 255 rG
4509.06 2505.04 0 79.11 S
0 158 255 rG
4607.95 2505.04 0 79.11 S
0 255 73 rG
4706.83 2505.04 0 79.11 S
182 255 0 rG
2926.94 2406.15 0 79.11 S
0 73 255 rG
3025.82 2406.15 0 79.11 S
0 152 255 rG
3124.7 2406.15 0 79.11 S
255 0 r3
3223.58 2406.15 0 79.11 S
0 152 255 rG
3322.47 2406.15 0 79.11 S
0 67 255 rG
3421.35 2406.15 0 79.11 S
219 255 0 rG
3520.23 2406.15 0 79.11 S
0 255 73 rG
4212.41 2406.15 0 79.11 S
0 158 255 rG
4311.3 2406.15 0 79.11 S
0 201 255 rG
4410.18 2406.15 0 79.11 S
255 172 0 rG
4509.06 2406.15 0 79.11 S
0 201 255 rG
4607.95 2406.15 0 79.11 S
0 158 255 rG
4706.83 2406.15 0 79.11 S
0 255 73 rG
4805.71 2406.15 0 79.11 S
182 255 0 rG
3025.82 2307.27 0 79.11 S
0 67 255 rG
3124.7 2307.27 0 79.11 S
0 152 255 rG
3223.58 2307.27 0 79.11 S
255 0 r3
3322.47 2307.27 0 79.11 S
0 152 255 rG
3421.35 2307.27 0 79.11 S
0 67 255 rG
3520.23 2307.27 0 79.11 S
219 255 0 rG
3619.12 2307.27 0 79.11 S
0 255 73 rG
4311.3 2307.27 0 79.11 S
0 158 255 rG
4410.18 2307.27 0 79.11 S
0 201 255 rG
4509.06 2307.27 0 79.11 S
255 172 0 rG
4607.95 2307.27 0 79.11 S
0 201 255 rG
4706.83 2307.27 0 79.11 S
0 158 255 rG
4805.71 2307.27 0 79.11 S
0 255 73 rG
4904.6 2307.27 0 79.11 S
219 255 0 rG
3124.7 2208.39 0 79.11 S
0 67 255 rG
3223.58 2208.39 0 79.11 S
0 152 255 rG
3322.47 2208.39 0 79.11 S
255 0 r3
3421.35 2208.39 0 79.11 S
0 152 255 rG
3520.23 2208.39 0 79.11 S
0 67 255 rG
3619.12 2208.39 0 79.11 S
219 255 0 rG
3718 2208.39 0 79.11 S
0 255 73 rG
4410.18 2208.39 0 79.11 S
0 158 255 rG
4509.06 2208.39 0 79.11 S
0 201 255 rG
4607.95 2208.39 0 79.11 S
255 172 0 rG
4706.83 2208.39 0 79.11 S
0 201 255 rG
4805.71 2208.39 0 79.11 S
0 158 255 rG
4904.6 2208.39 0 79.11 S
0 255 73 rG
5003.48 2208.39 0 79.11 S
219 255 0 rG
3223.58 2109.5 0 79.11 S
0 67 255 rG
3322.47 2109.5 0 79.11 S
0 152 255 rG
3421.35 2109.5 0 79.11 S
255 0 r3
3520.23 2109.5 0 79.11 S
0 152 255 rG
3619.12 2109.5 0 79.11 S
0 67 255 rG
3718 2109.5 0 79.11 S
0 255 73 rG
4509.06 2109.5 0 79.11 S
0 158 255 rG
4607.95 2109.5 0 79.11 S
0 201 255 rG
4706.83 2109.5 0 79.11 S
255 172 0 rG
4805.71 2109.5 0 79.11 S
0 201 255 rG
4904.6 2109.5 0 79.11 S
0 158 255 rG
5003.48 2109.5 0 79.11 S
219 255 0 rG
3322.47 2010.62 0 79.11 S
0 67 255 rG
3421.35 2010.62 0 79.11 S
0 152 255 rG
3520.23 2010.62 0 79.11 S
255 0 r3
3619.12 2010.62 0 79.11 S
0 152 255 rG
3718 2010.62 0 79.11 S
0 255 73 rG
4607.95 2010.62 0 79.11 S
0 158 255 rG
4706.83 2010.62 0 79.11 S
0 201 255 rG
4805.71 2010.62 0 79.11 S
255 172 0 rG
4904.6 2010.62 0 79.11 S
0 201 255 rG
5003.48 2010.62 0 79.11 S
219 255 0 rG
3421.35 1911.74 0 79.11 S
0 67 255 rG
3520.23 1911.74 0 79.11 S
0 152 255 rG
3619.12 1911.74 0 79.11 S
255 0 r3
3718 1911.74 0 79.11 S
0 255 73 rG
4706.83 1911.74 0 79.11 S
0 158 255 rG
4805.71 1911.74 0 79.11 S
0 201 255 rG
4904.6 1911.74 0 79.11 S
255 172 0 rG
5003.48 1911.74 0 79.11 S
255 77 0 rG
949.28 1812.85 0 79.11 S
255 214 0 rG
1048.16 1812.85 0 79.11 S
255 77 0 rG
1147.04 1812.85 0 79.11 S
255 172 0 rG
1245.93 1812.85 0 79.11 S
0 176 255 rG
1344.81 1812.85 0 79.11 S
255 172 0 rG
2531.4 1812.85 0 79.11 S
0 176 255 rG
2630.29 1812.85 0 79.11 S
0 188 255 rG
2729.17 1812.85 0 79.11 S
0 255 146 rG
2828.05 1812.85 0 79.11 S
255 0 r3
3816.88 1812.85 0 79.11 S
0 109 255 rG
3915.77 1812.85 0 79.11 S
0 127 255 rG
4014.65 1812.85 0 79.11 S
36 255 0 rG
4113.53 1812.85 0 79.11 S
255 0 r6
949.28 1713.97 0 79.11 S
0 121 255 rG
1048.16 1713.97 0 79.11 S
0 42 255 rG
1245.93 1713.97 0 79.11 S
219 255 0 rG
1344.81 1713.97 0 79.11 S
0 176 255 rG
2531.4 1713.97 0 79.11 S
255 172 0 rG
2630.29 1713.97 0 79.11 S
0 195 255 rG
2729.17 1713.97 0 79.11 S
0 170 255 rG
2828.05 1713.97 0 79.11 S
0 255 109 rG
2926.94 1713.97 0 79.11 S
0 109 255 rG
3816.88 1713.97 0 79.11 S
255 0 r3
3915.77 1713.97 0 79.11 S
0 140 255 rG
4014.65 1713.97 0 79.11 S
0 91 255 rG
4113.53 1713.97 0 79.11 S
146 255 0 rG
4212.41 1713.97 0 79.11 S
36 255 0 rG
949.28 1615.09 0 79.11 S
0 255 146 rG
1048.16 1615.09 0 79.11 S
0 152 255 rG
1147.04 1615.09 0 79.11 S
219 255 0 rG
1245.93 1615.09 0 79.11 S
0 195 255 rG
1344.81 1615.09 0 79.11 S
0 188 255 rG
2531.4 1615.09 0 79.11 S
0 195 255 rG
2630.29 1615.09 0 79.11 S
255 172 0 rG
2729.17 1615.09 0 79.11 S
0 195 255 rG
2828.05 1615.09 0 79.11 S
0 164 255 rG
2926.94 1615.09 0 79.11 S
0 255 73 rG
3025.82 1615.09 0 79.11 S
0 127 255 rG
3816.88 1615.09 0 79.11 S
0 140 255 rG
3915.77 1615.09 0 79.11 S
255 0 r3
4014.65 1615.09 0 79.11 S
0 146 255 rG
4113.53 1615.09 0 79.11 S
0 79 255 rG
4212.41 1615.09 0 79.11 S
182 255 0 rG
4311.3 1615.09 0 79.11 S
0 231 255 rG
1245.93 1516.21 0 79.11 S
0 255 219 rG
1344.81 1516.21 0 79.11 S
0 255 146 rG
2531.4 1516.21 0 79.11 S
0 170 255 rG
2630.29 1516.21 0 79.11 S
0 195 255 rG
2729.17 1516.21 0 79.11 S
255 172 0 rG
2828.05 1516.21 0 79.11 S
0 195 255 rG
2926.94 1516.21 0 79.11 S
0 158 255 rG
3025.82 1516.21 0 79.11 S
0 255 73 rG
3124.7 1516.21 0 79.11 S
36 255 0 rG
3816.88 1516.21 0 79.11 S
0 91 255 rG
3915.77 1516.21 0 79.11 S
0 146 255 rG
4014.65 1516.21 0 79.11 S
255 0 r3
4113.53 1516.21 0 79.11 S
0 152 255 rG
4212.41 1516.21 0 79.11 S
0 73 255 rG
4311.3 1516.21 0 79.11 S
182 255 0 rG
4410.18 1516.21 0 79.11 S
0 243 255 rG
1344.81 1417.32 0 79.11 S
0 255 109 rG
2630.29 1417.32 0 79.11 S
0 164 255 rG
2729.17 1417.32 0 79.11 S
0 195 255 rG
2828.05 1417.32 0 79.11 S
255 172 0 rG
2926.94 1417.32 0 79.11 S
0 201 255 rG
3025.82 1417.32 0 79.11 S
0 158 255 rG
3124.7 1417.32 0 79.11 S
0 255 73 rG
3223.58 1417.32 0 79.11 S
146 255 0 rG
3915.77 1417.32 0 79.11 S
0 79 255 rG
4014.65 1417.32 0 79.11 S
0 152 255 rG
4113.53 1417.32 0 79.11 S
255 0 r3
4212.41 1417.32 0 79.11 S
0 152 255 rG
4311.3 1417.32 0 79.11 S
0 73 255 rG
4410.18 1417.32 0 79.11 S
182 255 0 rG
4509.06 1417.32 0 79.11 S
0 255 73 rG
2729.17 1318.44 0 79.11 S
0 158 255 rG
2828.05 1318.44 0 79.11 S
0 201 255 rG
2926.94 1318.44 0 79.11 S
255 172 0 rG
3025.82 1318.44 0 79.11 S
0 201 255 rG
3124.7 1318.44 0 79.11 S
0 158 255 rG
3223.58 1318.44 0 79.11 S
0 255 73 rG
3322.47 1318.44 0 79.11 S
182 255 0 rG
4014.65 1318.44 0 79.11 S
0 73 255 rG
4113.53 1318.44 0 79.11 S
0 152 255 rG
4212.41 1318.44 0 79.11 S
255 0 r3
4311.3 1318.44 0 79.11 S
0 152 255 rG
4410.18 1318.44 0 79.11 S
0 73 255 rG
4509.06 1318.44 0 79.11 S
182 255 0 rG
4607.95 1318.44 0 79.11 S
0 255 73 rG
2828.05 1219.56 0 79.11 S
0 158 255 rG
2926.94 1219.56 0 79.11 S
0 201 255 rG
3025.82 1219.56 0 79.11 S
255 172 0 rG
3124.7 1219.56 0 79.11 S
0 201 255 rG
3223.58 1219.56 0 79.11 S
0 158 255 rG
3322.47 1219.56 0 79.11 S
0 255 73 rG
3421.35 1219.56 0 79.11 S
182 255 0 rG
4113.53 1219.56 0 79.11 S
0 73 255 rG
4212.41 1219.56 0 79.11 S
0 152 255 rG
4311.3 1219.56 0 79.11 S
255 0 r3
4410.18 1219.56 0 79.11 S
0 152 255 rG
4509.06 1219.56 0 79.11 S
0 67 255 rG
4607.95 1219.56 0 79.11 S
219 255 0 rG
4706.83 1219.56 0 79.11 S
0 255 73 rG
2926.94 1120.67 0 79.11 S
0 158 255 rG
3025.82 1120.67 0 79.11 S
0 201 255 rG
3124.7 1120.67 0 79.11 S
255 172 0 rG
3223.58 1120.67 0 79.11 S
0 201 255 rG
3322.47 1120.67 0 79.11 S
0 158 255 rG
3421.35 1120.67 0 79.11 S
0 255 73 rG
3520.23 1120.67 0 79.11 S
182 255 0 rG
4212.41 1120.67 0 79.11 S
0 73 255 rG
4311.3 1120.67 0 79.11 S
0 152 255 rG
4410.18 1120.67 0 79.11 S
255 0 r3
4509.06 1120.67 0 79.11 S
0 152 255 rG
4607.95 1120.67 0 79.11 S
0 67 255 rG
4706.83 1120.67 0 79.11 S
219 255 0 rG
4805.71 1120.67 0 79.11 S
0 255 73 rG
3025.82 1021.79 0 79.11 S
0 158 255 rG
3124.7 1021.79 0 79.11 S
0 201 255 rG
3223.58 1021.79 0 79.11 S
255 172 0 rG
3322.47 1021.79 0 79.11 S
0 201 255 rG
3421.35 1021.79 0 79.11 S
0 158 255 rG
3520.23 1021.79 0 79.11 S
0 255 73 rG
3619.12 1021.79 0 79.11 S
182 255 0 rG
4311.3 1021.79 0 79.11 S
0 67 255 rG
4410.18 1021.79 0 79.11 S
0 152 255 rG
4509.06 1021.79 0 79.11 S
255 0 r3
4607.95 1021.79 0 79.11 S
0 152 255 rG
4706.83 1021.79 0 79.11 S
0 67 255 rG
4805.71 1021.79 0 79.11 S
219 255 0 rG
4904.6 1021.79 0 79.11 S
0 255 73 rG
3124.7 922.91 0 79.11 S
0 158 255 rG
3223.58 922.91 0 79.11 S
0 201 255 rG
3322.47 922.91 0 79.11 S
255 172 0 rG
3421.35 922.91 0 79.11 S
0 201 255 rG
3520.23 922.91 0 79.11 S
0 158 255 rG
3619.12 922.91 0 79.11 S
0 255 73 rG
3718 922.91 0 79.11 S
219 255 0 rG
4410.18 922.91 0 79.11 S
0 67 255 rG
4509.06 922.91 0 79.11 S
0 152 255 rG
4607.95 922.91 0 79.11 S
255 0 r3
4706.83 922.91 0 79.11 S
0 152 255 rG
4805.71 922.91 0 79.11 S
0 67 255 rG
4904.6 922.91 0 79.11 S
219 255 0 rG
5003.48 922.91 0 79.11 S
0 255 73 rG
3223.58 824.02 0 79.11 S
0 158 255 rG
3322.47 824.02 0 79.11 S
0 201 255 rG
3421.35 824.02 0 79.11 S
255 172 0 rG
3520.23 824.02 0 79.11 S
0 201 255 rG
3619.12 824.02 0 79.11 S
0 158 255 rG
3718 824.02 0 79.11 S
219 255 0 rG
4509.06 824.02 0 79.11 S
0 67 255 rG
4607.95 824.02 0 79.11 S
0 152 255 rG
4706.83 824.02 0 79.11 S
255 0 r3
4805.71 824.02 0 79.11 S
0 152 255 rG
4904.6 824.02 0 79.11 S
0 67 255 rG
5003.48 824.02 0 79.11 S
0 255 73 rG
3322.47 725.14 0 79.11 S
0 158 255 rG
3421.35 725.14 0 79.11 S
0 201 255 rG
3520.23 725.14 0 79.11 S
255 172 0 rG
3619.12 725.14 0 79.11 S
0 201 255 rG
3718 725.14 0 79.11 S
219 255 0 rG
4607.95 725.14 0 79.11 S
0 67 255 rG
4706.83 725.14 0 79.11 S
0 152 255 rG
4805.71 725.14 0 79.11 S
255 0 r3
4904.6 725.14 0 79.11 S
0 152 255 rG
5003.48 725.14 0 79.11 S
0 255 73 rG
3421.35 626.26 0 79.11 S
0 158 255 rG
3520.23 626.26 0 79.11 S
0 201 255 rG
3619.12 626.26 0 79.11 S
255 172 0 rG
3718 626.26 0 79.11 S
219 255 0 rG
4706.83 626.26 0 79.11 S
0 67 255 rG
4805.71 626.26 0 79.11 S
0 152 255 rG
4904.6 626.26 0 79.11 S
255 0 r3
5003.48 626.26 0 79.11 S
cleartomark end end pagesave restore showpage
%%PageTrailer
%%Trailer
%%Pages: 1
%%EOF
