%!PS-Adobe-3.0
%%Pages: (atend)
%%BoundingBox: 84 56 511 289
%%HiResBoundingBox: 84.366577 56.020117 510.908984 288.801929
%.....................................
%%Creator: GNU Ghostscript 653 (pswrite)
%%CreationDate: 2003/02/15 12:52:15
%%DocumentData: Clean7Bit
%%LanguageLevel: 2
%%EndComments
%%BeginProlog
% This copyright applies to everything between here and the %%EndProlog:
% Copyright (C) 2002 artofcode LLC, Benicia, CA. All rights reserved.
%%BeginResource: procset GS_pswrite_2_0_1001
/GS_pswrite_2_0_1001 80 dict dup begin
/PageSize 2 array def/setpagesize{ PageSize aload pop 3 index eq exch
4 index eq and{ pop pop pop}{ PageSize dup  1
5 -1 roll put 0 4 -1 roll put dup where{ exch get exec}
{ pop/setpagedevice where
{ pop 1 dict dup /PageSize PageSize put setpagedevice}
{ /setpage where{ pop PageSize aload pop pageparams 3 {exch pop} repeat
setpage}if}ifelse}ifelse}ifelse} bind def
/!{bind def}bind def/#{load def}!/N/counttomark #
/rG{3{3 -1 roll 255 div}repeat setrgbcolor}!/G{255 div setgray}!/K{0 G}!
/r6{dup 3 -1 roll rG}!/r5{dup 3 1 roll rG}!/r3{dup rG}!
/w/setlinewidth #/J/setlinecap #
/j/setlinejoin #/M/setmiterlimit #/d/setdash #/i/setflat #
/m/moveto #/l/lineto #/c/rcurveto #
/p{N 2 idiv{N -2 roll rlineto}repeat}!
/P{N 0 gt{N -2 roll moveto p}if}!
/h{p closepath}!/H{P closepath}!
/lx{0 rlineto}!/ly{0 exch rlineto}!/v{0 0 6 2 roll c}!/y{2 copy c}!
/re{4 -2 roll m exch dup lx exch ly neg lx h}!
/^{3 index neg 3 index neg}!
/f{P fill}!/f*{P eofill}!/s{H stroke}!/S{P stroke}!
/q/gsave #/Q/grestore #/rf{re fill}!
/Y{P clip newpath}!/Y*{P eoclip newpath}!/rY{re Y}!
/|={pop exch 4 1 roll 3 array astore cvx exch 1 index def exec}!
/|{exch string readstring |=}!
/+{dup type/nametype eq{2 index 7 add -3 bitshift 2 index mul}if}!
/@/currentfile #/${+ @ |}!
/B{{2 copy string{readstring pop}aload pop 4 array astore cvx
3 1 roll}repeat pop pop true}!
/Ix{[1 0 0 1 11 -2 roll exch neg exch neg]exch}!
/,{true exch Ix imagemask}!/If{false exch Ix imagemask}!/I{exch Ix image}!
/Ic{exch Ix false 3 colorimage}!
/F{/Columns counttomark 3 add -2 roll/Rows exch/K -1/BlackIs1 true>>
/CCITTFaxDecode filter}!/FX{<</EndOfBlock false F}!
/X{/ASCII85Decode filter}!/@X{@ X}!/&2{2 index 2 index}!
/@F{@ &2<<F}!/@C{@X &2 FX}!
/$X{+ @X |}!/&4{4 index 4 index}!/$F{+ @ &4<<F |}!/$C{+ @X &4 FX |}!
/IC{3 1 roll 10 dict begin 1{/ImageType/Interpolate/Decode/DataSource
/ImageMatrix/BitsPerComponent/Height/Width}{exch def}forall
currentdict end image}!
end readonly def
%%EndResource
/pagesave null def
%%EndProlog
%%Page: 1 1
%%BeginPageSetup
GS_pswrite_2_0_1001 begin
595 842 /a4 setpagesize
/pagesave save store 100 dict begin
0.1 0.1 scale
%%EndPageSetup
gsave mark
Q q
0 0 5950 0 0 8420 ^ Y
13.4556 w
K
850.394 566.929 4251.97 2314.36 re
S
43.0579 w
255 29 0 rG
904.22 2805.94 0 43.06 S
0 219 255 rG
958.04 2805.94 0 43.06 S
0 158 255 rG
1550.08 2805.94 0 43.06 S
255 29 0 rG
904.22 2752.12 0 43.06 S
0 219 255 rG
958.04 2752.12 0 43.06 S
255 142 0 rG
1550.08 2752.12 0 43.06 S
255 29 0 rG
904.22 2698.3 0 43.06 S
255 125 0 rG
958.04 2698.3 0 43.06 S
255 0 r3
904.22 2644.47 0 43.06 S
0 140 255 rG
958.04 2644.47 0 43.06 S
219 255 0 rG
1011.86 2644.47 0 43.06 S
0 195 255 rG
2142.13 2644.47 0 43.06 S
255 41 0 rG
1550.08 2590.65 0 43.06 S
0 207 255 rG
1603.91 2590.65 0 43.06 S
146 255 0 rG
1657.73 2590.65 0 43.06 S
0 182 255 rG
2680.35 2590.65 0 43.06 S
0 249 255 rG
904.22 2536.83 0 43.06 S
255 238 0 rG
958.04 2536.83 0 43.06 S
0 255 73 rG
1011.86 2536.83 0 43.06 S
73 255 0 rG
1065.68 2536.83 0 43.06 S
36 255 0 rG
1119.51 2536.83 0 43.06 S
255 71 0 rG
2142.13 2536.83 0 43.06 S
0 243 255 rG
2195.95 2536.83 0 43.06 S
109 255 0 rG
2249.78 2536.83 0 43.06 S
0 188 255 rG
3164.76 2536.83 0 43.06 S
0 237 255 rG
1550.08 2483.01 0 43.06 S
255 244 0 rG
1603.91 2483.01 0 43.06 S
0 255 36 rG
1657.73 2483.01 0 43.06 S
73 255 0 rG
1711.55 2483.01 0 43.06 S
36 255 0 rG
1765.37 2483.01 0 43.06 S
255 89 0 rG
2680.35 2483.01 0 43.06 S
0 255 219 rG
2734.18 2483.01 0 43.06 S
73 255 0 rG
2788 2483.01 0 43.06 S
0 201 255 rG
3595.34 2483.01 0 43.06 S
0 231 255 rG
2142.13 2429.18 0 43.06 S
0 255 r6
2195.95 2429.18 0 43.06 S
255 0 r5
2249.78 2429.18 0 43.06 S
73 255 0 rG
2303.6 2429.18 0 43.06 S
36 255 0 rG
2357.42 2429.18 0 43.06 S
255 107 0 rG
3164.76 2429.18 0 43.06 S
0 255 146 rG
3218.58 2429.18 0 43.06 S
73 255 0 rG
3272.4 2429.18 0 43.06 S
0 207 255 rG
3972.09 2429.18 0 43.06 S
0 237 255 rG
2680.35 2375.36 0 43.06 S
219 255 0 rG
2734.18 2375.36 0 43.06 S
255 0 r5
2788 2375.36 0 43.06 S
73 255 0 rG
2841.82 2375.36 0 43.06 S
36 255 0 rG
2895.64 2375.36 0 43.06 S
255 119 0 rG
3595.34 2375.36 0 43.06 S
0 255 109 rG
3649.16 2375.36 0 43.06 S
73 255 0 rG
3702.98 2375.36 0 43.06 S
36 255 0 rG
4295.03 2375.36 0 43.06 S
0 237 255 rG
3164.76 2321.54 0 43.06 S
182 255 0 rG
3218.58 2321.54 0 43.06 S
36 255 0 rG
3272.4 2321.54 0 43.06 S
3326.22 2321.54 0 43.06 S
3380.05 2321.54 0 43.06 S
255 130 0 rG
3972.09 2321.54 0 43.06 S
0 255 73 rG
4025.91 2321.54 0 43.06 S
73 255 0 rG
4079.74 2321.54 0 43.06 S
36 255 0 rG
4564.14 2321.54 0 43.06 S
0 237 255 rG
3595.34 2267.72 0 43.06 S
146 255 0 rG
3649.16 2267.72 0 43.06 S
36 255 0 rG
3702.98 2267.72 0 43.06 S
3756.8 2267.72 0 43.06 S
3810.62 2267.72 0 43.06 S
73 255 0 rG
4295.03 2267.72 0 43.06 S
36 255 0 rG
4348.85 2267.72 0 43.06 S
4402.67 2267.72 0 43.06 S
4779.43 2267.72 0 43.06 S
0 243 255 rG
3972.09 2213.89 0 43.06 S
146 255 0 rG
4025.91 2213.89 0 43.06 S
36 255 0 rG
4079.74 2213.89 0 43.06 S
4133.56 2213.89 0 43.06 S
4187.38 2213.89 0 43.06 S
73 255 0 rG
4564.14 2213.89 0 43.06 S
36 255 0 rG
4617.96 2213.89 0 43.06 S
4671.78 2213.89 0 43.06 S
4940.89 2213.89 0 43.06 S
4295.03 2160.07 0 43.06 S
4348.85 2160.07 0 43.06 S
4402.67 2160.07 0 43.06 S
4456.49 2160.07 0 43.06 S
4510.32 2160.07 0 43.06 S
73 255 0 rG
4779.43 2160.07 0 43.06 S
36 255 0 rG
4833.25 2160.07 0 43.06 S
4887.07 2160.07 0 43.06 S
5048.54 2160.07 0 43.06 S
4564.14 2106.25 0 43.06 S
4617.96 2106.25 0 43.06 S
4671.78 2106.25 0 43.06 S
4725.61 2106.25 0 43.06 S
73 255 0 rG
4940.89 2106.25 0 43.06 S
36 255 0 rG
4994.72 2106.25 0 43.06 S
4779.43 2052.43 0 43.06 S
4833.25 2052.43 0 43.06 S
4887.07 2052.43 0 43.06 S
73 255 0 rG
5048.54 2052.43 0 43.06 S
36 255 0 rG
4940.89 1998.6 0 43.06 S
4994.72 1998.6 0 43.06 S
255 0 r3
904.22 1944.78 0 43.06 S
255 208 0 rG
958.04 1944.78 0 43.06 S
0 231 255 rG
1011.86 1944.78 0 43.06 S
255 148 0 rG
1550.08 1944.78 0 43.06 S
255 202 0 rG
1603.91 1944.78 0 43.06 S
0 109 255 rG
904.22 1890.96 0 43.06 S
255 77 0 rG
958.04 1890.96 0 43.06 S
255 172 0 rG
1011.86 1890.96 0 43.06 S
0 213 255 rG
1065.68 1890.96 0 43.06 S
0 182 255 rG
1550.08 1890.96 0 43.06 S
255 244 0 rG
1603.91 1890.96 0 43.06 S
255 196 0 rG
1657.73 1890.96 0 43.06 S
0 249 255 rG
904.22 1837.14 0 43.06 S
0 54 255 rG
958.04 1837.14 0 43.06 S
255 107 0 rG
1011.86 1837.14 0 43.06 S
255 160 0 rG
1065.68 1837.14 0 43.06 S
0 213 255 rG
1119.51 1837.14 0 43.06 S
0 152 255 rG
1603.91 1837.14 0 43.06 S
255 202 0 rG
1711.55 1837.14 0 43.06 S
255 208 0 rG
904.22 1783.31 0 43.06 S
0 255 146 rG
958.04 1783.31 0 43.06 S
0 30 255 rG
1011.86 1783.31 0 43.06 S
255 125 0 rG
1065.68 1783.31 0 43.06 S
255 154 0 rG
1119.51 1783.31 0 43.06 S
0 213 255 rG
1173.33 1783.31 0 43.06 S
255 244 0 rG
1550.08 1783.31 0 43.06 S
1603.91 1783.31 0 43.06 S
0 152 255 rG
1657.73 1783.31 0 43.06 S
0 255 109 rG
1711.55 1783.31 0 43.06 S
255 208 0 rG
1765.37 1783.31 0 43.06 S
0 255 73 rG
904.22 1729.49 0 43.06 S
255 178 0 rG
958.04 1729.49 0 43.06 S
0 255 36 rG
1011.86 1729.49 0 43.06 S
0 18 255 rG
1065.68 1729.49 0 43.06 S
255 142 0 rG
1119.51 1729.49 0 43.06 S
255 148 0 rG
1173.33 1729.49 0 43.06 S
0 213 255 rG
1227.15 1729.49 0 43.06 S
0 255 109 rG
1550.08 1729.49 0 43.06 S
255 238 0 rG
1603.91 1729.49 0 43.06 S
255 214 0 rG
1657.73 1729.49 0 43.06 S
0 164 255 rG
1711.55 1729.49 0 43.06 S
0 255 219 rG
1765.37 1729.49 0 43.06 S
255 214 0 rG
1819.2 1729.49 0 43.06 S
0 255 146 rG
958.04 1675.67 0 43.06 S
255 160 0 rG
1011.86 1675.67 0 43.06 S
0 12 255 rG
1119.51 1675.67 0 43.06 S
255 148 0 rG
1173.33 1675.67 0 43.06 S
1227.15 1675.67 0 43.06 S
0 213 255 rG
1280.97 1675.67 0 43.06 S
73 255 0 rG
1550.08 1675.67 0 43.06 S
0 255 182 rG
1603.91 1675.67 0 43.06 S
255 244 0 rG
1657.73 1675.67 0 43.06 S
255 190 0 rG
1711.55 1675.67 0 43.06 S
0 170 255 rG
1765.37 1675.67 0 43.06 S
0 255 r3
1819.2 1675.67 0 43.06 S
255 220 0 rG
1873.02 1675.67 0 43.06 S
0 255 219 rG
1011.86 1621.85 0 43.06 S
255 154 0 rG
1065.68 1621.85 0 43.06 S
109 255 0 rG
1119.51 1621.85 0 43.06 S
0 6 255 rG
1173.33 1621.85 0 43.06 S
255 160 0 rG
1227.15 1621.85 0 43.06 S
255 142 0 rG
1280.97 1621.85 0 43.06 S
0 213 255 rG
1334.79 1621.85 0 43.06 S
109 255 0 rG
1603.91 1621.85 0 43.06 S
0 255 r3
1657.73 1621.85 0 43.06 S
255 250 0 rG
1711.55 1621.85 0 43.06 S
255 178 0 rG
1765.37 1621.85 0 43.06 S
0 182 255 rG
1819.2 1621.85 0 43.06 S
0 249 255 rG
1873.02 1621.85 0 43.06 S
255 220 0 rG
1926.84 1621.85 0 43.06 S
0 255 r3
1065.68 1568.03 0 43.06 S
255 148 0 rG
1119.51 1568.03 0 43.06 S
146 255 0 rG
1173.33 1568.03 0 43.06 S
0 6 255 rG
1227.15 1568.03 0 43.06 S
255 166 0 rG
1280.97 1568.03 0 43.06 S
255 142 0 rG
1334.79 1568.03 0 43.06 S
0 219 255 rG
1388.62 1568.03 0 43.06 S
109 255 0 rG
1657.73 1568.03 0 43.06 S
0 249 255 rG
1711.55 1568.03 0 43.06 S
0 255 r6
1765.37 1568.03 0 43.06 S
255 166 0 rG
1819.2 1568.03 0 43.06 S
0 188 255 rG
1873.02 1568.03 0 43.06 S
0 243 255 rG
1926.84 1568.03 0 43.06 S
255 226 0 rG
1980.66 1568.03 0 43.06 S
0 255 r3
1119.51 1514.2 0 43.06 S
255 148 0 rG
1173.33 1514.2 0 43.06 S
219 255 0 rG
1227.15 1514.2 0 43.06 S
0 6 255 rG
1280.97 1514.2 0 43.06 S
255 166 0 rG
1334.79 1514.2 0 43.06 S
255 142 0 rG
1388.62 1514.2 0 43.06 S
0 219 255 rG
1442.44 1514.2 0 43.06 S
146 255 0 rG
1711.55 1514.2 0 43.06 S
0 243 255 rG
1765.37 1514.2 0 43.06 S
219 255 0 rG
1819.2 1514.2 0 43.06 S
255 160 0 rG
1873.02 1514.2 0 43.06 S
0 195 255 rG
1926.84 1514.2 0 43.06 S
0 237 255 rG
1980.66 1514.2 0 43.06 S
255 226 0 rG
2034.49 1514.2 0 43.06 S
0 249 255 rG
1173.33 1460.38 0 43.06 S
255 142 0 rG
1227.15 1460.38 0 43.06 S
219 255 0 rG
1280.97 1460.38 0 43.06 S
255 0 r6
1334.79 1460.38 0 43.06 S
255 172 0 rG
1388.62 1460.38 0 43.06 S
255 142 0 rG
1442.44 1460.38 0 43.06 S
0 219 255 rG
1496.26 1460.38 0 43.06 S
146 255 0 rG
1765.37 1460.38 0 43.06 S
0 243 255 rG
1819.2 1460.38 0 43.06 S
182 255 0 rG
1873.02 1460.38 0 43.06 S
255 154 0 rG
1926.84 1460.38 0 43.06 S
0 201 255 rG
1980.66 1460.38 0 43.06 S
0 237 255 rG
2034.49 1460.38 0 43.06 S
255 226 0 rG
2088.31 1460.38 0 43.06 S
0 249 255 rG
1227.15 1406.56 0 43.06 S
255 142 0 rG
1280.97 1406.56 0 43.06 S
0 255 r6
1334.79 1406.56 0 43.06 S
255 0 r6
1388.62 1406.56 0 43.06 S
255 178 0 rG
1442.44 1406.56 0 43.06 S
255 142 0 rG
1496.26 1406.56 0 43.06 S
146 255 0 rG
1819.2 1406.56 0 43.06 S
0 237 255 rG
1873.02 1406.56 0 43.06 S
182 255 0 rG
1926.84 1406.56 0 43.06 S
255 148 0 rG
1980.66 1406.56 0 43.06 S
0 207 255 rG
2034.49 1406.56 0 43.06 S
0 237 255 rG
2088.31 1406.56 0 43.06 S
0 243 255 rG
1280.97 1352.74 0 43.06 S
255 142 0 rG
1334.79 1352.74 0 43.06 S
255 250 0 rG
1388.62 1352.74 0 43.06 S
255 0 r6
1442.44 1352.74 0 43.06 S
255 178 0 rG
1496.26 1352.74 0 43.06 S
182 255 0 rG
1873.02 1352.74 0 43.06 S
0 237 255 rG
1926.84 1352.74 0 43.06 S
146 255 0 rG
1980.66 1352.74 0 43.06 S
255 148 0 rG
2034.49 1352.74 0 43.06 S
0 207 255 rG
2088.31 1352.74 0 43.06 S
0 243 255 rG
1334.79 1298.91 0 43.06 S
255 142 0 rG
1388.62 1298.91 0 43.06 S
255 250 0 rG
1442.44 1298.91 0 43.06 S
255 0 r6
1496.26 1298.91 0 43.06 S
182 255 0 rG
1926.84 1298.91 0 43.06 S
0 231 255 rG
1980.66 1298.91 0 43.06 S
109 255 0 rG
2034.49 1298.91 0 43.06 S
255 142 0 rG
2088.31 1298.91 0 43.06 S
255 0 r3
904.22 1245.09 0 43.06 S
255 208 0 rG
958.04 1245.09 0 43.06 S
0 231 255 rG
1011.86 1245.09 0 43.06 S
0 164 255 rG
1550.08 1245.09 0 43.06 S
0 213 255 rG
1603.91 1245.09 0 43.06 S
0 109 255 rG
904.22 1191.27 0 43.06 S
255 77 0 rG
958.04 1191.27 0 43.06 S
255 172 0 rG
1011.86 1191.27 0 43.06 S
0 213 255 rG
1065.68 1191.27 0 43.06 S
255 166 0 rG
1550.08 1191.27 0 43.06 S
0 255 r3
1603.91 1191.27 0 43.06 S
0 213 255 rG
1657.73 1191.27 0 43.06 S
0 249 255 rG
904.22 1137.45 0 43.06 S
0 54 255 rG
958.04 1137.45 0 43.06 S
255 107 0 rG
1011.86 1137.45 0 43.06 S
255 160 0 rG
1065.68 1137.45 0 43.06 S
0 213 255 rG
1119.51 1137.45 0 43.06 S
255 142 0 rG
1603.91 1137.45 0 43.06 S
0 219 255 rG
1711.55 1137.45 0 43.06 S
255 208 0 rG
904.22 1083.62 0 43.06 S
0 255 146 rG
958.04 1083.62 0 43.06 S
0 30 255 rG
1011.86 1083.62 0 43.06 S
255 125 0 rG
1065.68 1083.62 0 43.06 S
255 154 0 rG
1119.51 1083.62 0 43.06 S
0 213 255 rG
1173.33 1083.62 0 43.06 S
0 255 219 rG
1550.08 1083.62 0 43.06 S
1603.91 1083.62 0 43.06 S
255 142 0 rG
1657.73 1083.62 0 43.06 S
219 255 0 rG
1711.55 1083.62 0 43.06 S
0 225 255 rG
1765.37 1083.62 0 43.06 S
0 255 73 rG
904.22 1029.8 0 43.06 S
255 178 0 rG
958.04 1029.8 0 43.06 S
0 255 36 rG
1011.86 1029.8 0 43.06 S
0 18 255 rG
1065.68 1029.8 0 43.06 S
255 142 0 rG
1119.51 1029.8 0 43.06 S
255 148 0 rG
1173.33 1029.8 0 43.06 S
0 213 255 rG
1227.15 1029.8 0 43.06 S
182 255 0 rG
1550.08 1029.8 0 43.06 S
0 255 r3
1603.91 1029.8 0 43.06 S
0 231 255 rG
1657.73 1029.8 0 43.06 S
255 148 0 rG
1711.55 1029.8 0 43.06 S
255 250 0 rG
1765.37 1029.8 0 43.06 S
0 231 255 rG
1819.2 1029.8 0 43.06 S
0 255 146 rG
958.04 975.98 0 43.06 S
255 160 0 rG
1011.86 975.98 0 43.06 S
0 12 255 rG
1119.51 975.98 0 43.06 S
255 148 0 rG
1173.33 975.98 0 43.06 S
1227.15 975.98 0 43.06 S
0 213 255 rG
1280.97 975.98 0 43.06 S
36 255 0 rG
1550.08 975.98 0 43.06 S
255 250 0 rG
1603.91 975.98 0 43.06 S
0 255 219 rG
1657.73 975.98 0 43.06 S
0 207 255 rG
1711.55 975.98 0 43.06 S
255 160 0 rG
1765.37 975.98 0 43.06 S
255 238 0 rG
1819.2 975.98 0 43.06 S
0 231 255 rG
1873.02 975.98 0 43.06 S
0 255 219 rG
1011.86 922.16 0 43.06 S
255 154 0 rG
1065.68 922.16 0 43.06 S
109 255 0 rG
1119.51 922.16 0 43.06 S
0 6 255 rG
1173.33 922.16 0 43.06 S
255 160 0 rG
1227.15 922.16 0 43.06 S
255 142 0 rG
1280.97 922.16 0 43.06 S
0 213 255 rG
1334.79 922.16 0 43.06 S
255 0 r5
1603.91 922.16 0 43.06 S
255 244 0 rG
1657.73 922.16 0 43.06 S
0 255 219 rG
1711.55 922.16 0 43.06 S
0 195 255 rG
1765.37 922.16 0 43.06 S
255 166 0 rG
1819.2 922.16 0 43.06 S
255 232 0 rG
1873.02 922.16 0 43.06 S
0 237 255 rG
1926.84 922.16 0 43.06 S
0 255 r3
1065.68 868.33 0 43.06 S
255 148 0 rG
1119.51 868.33 0 43.06 S
146 255 0 rG
1173.33 868.33 0 43.06 S
0 6 255 rG
1227.15 868.33 0 43.06 S
255 166 0 rG
1280.97 868.33 0 43.06 S
255 142 0 rG
1334.79 868.33 0 43.06 S
0 219 255 rG
1388.62 868.33 0 43.06 S
255 0 r5
1657.73 868.33 0 43.06 S
255 232 0 rG
1711.55 868.33 0 43.06 S
0 255 146 rG
1765.37 868.33 0 43.06 S
0 182 255 rG
1819.2 868.33 0 43.06 S
255 172 0 rG
1873.02 868.33 0 43.06 S
255 226 0 rG
1926.84 868.33 0 43.06 S
0 237 255 rG
1980.66 868.33 0 43.06 S
0 255 r3
1119.51 814.51 0 43.06 S
255 148 0 rG
1173.33 814.51 0 43.06 S
219 255 0 rG
1227.15 814.51 0 43.06 S
0 6 255 rG
1280.97 814.51 0 43.06 S
255 166 0 rG
1334.79 814.51 0 43.06 S
255 142 0 rG
1388.62 814.51 0 43.06 S
0 219 255 rG
1442.44 814.51 0 43.06 S
0 255 36 rG
1711.55 814.51 0 43.06 S
255 232 0 rG
1765.37 814.51 0 43.06 S
0 255 146 rG
1819.2 814.51 0 43.06 S
0 176 255 rG
1873.02 814.51 0 43.06 S
255 178 0 rG
1926.84 814.51 0 43.06 S
255 226 0 rG
1980.66 814.51 0 43.06 S
0 243 255 rG
2034.49 814.51 0 43.06 S
0 249 255 rG
1173.33 760.69 0 43.06 S
255 142 0 rG
1227.15 760.69 0 43.06 S
219 255 0 rG
1280.97 760.69 0 43.06 S
255 0 r6
1334.79 760.69 0 43.06 S
255 172 0 rG
1388.62 760.69 0 43.06 S
255 142 0 rG
1442.44 760.69 0 43.06 S
0 219 255 rG
1496.26 760.69 0 43.06 S
0 255 36 rG
1765.37 760.69 0 43.06 S
255 226 0 rG
1819.2 760.69 0 43.06 S
0 255 109 rG
1873.02 760.69 0 43.06 S
0 170 255 rG
1926.84 760.69 0 43.06 S
255 184 0 rG
1980.66 760.69 0 43.06 S
255 220 0 rG
2034.49 760.69 0 43.06 S
0 243 255 rG
2088.31 760.69 0 43.06 S
0 249 255 rG
1227.15 706.87 0 43.06 S
255 142 0 rG
1280.97 706.87 0 43.06 S
0 255 r6
1334.79 706.87 0 43.06 S
255 0 r6
1388.62 706.87 0 43.06 S
255 178 0 rG
1442.44 706.87 0 43.06 S
255 142 0 rG
1496.26 706.87 0 43.06 S
0 255 73 rG
1819.2 706.87 0 43.06 S
255 220 0 rG
1873.02 706.87 0 43.06 S
0 255 73 rG
1926.84 706.87 0 43.06 S
0 164 255 rG
1980.66 706.87 0 43.06 S
255 190 0 rG
2034.49 706.87 0 43.06 S
255 220 0 rG
2088.31 706.87 0 43.06 S
0 243 255 rG
1280.97 653.04 0 43.06 S
255 142 0 rG
1334.79 653.04 0 43.06 S
255 250 0 rG
1388.62 653.04 0 43.06 S
255 0 r6
1442.44 653.04 0 43.06 S
255 178 0 rG
1496.26 653.04 0 43.06 S
0 255 73 rG
1873.02 653.04 0 43.06 S
255 220 0 rG
1926.84 653.04 0 43.06 S
0 255 36 rG
1980.66 653.04 0 43.06 S
0 158 255 rG
2034.49 653.04 0 43.06 S
255 196 0 rG
2088.31 653.04 0 43.06 S
0 243 255 rG
1334.79 599.22 0 43.06 S
255 142 0 rG
1388.62 599.22 0 43.06 S
255 250 0 rG
1442.44 599.22 0 43.06 S
255 0 r6
1496.26 599.22 0 43.06 S
0 255 73 rG
1926.84 599.22 0 43.06 S
255 220 0 rG
1980.66 599.22 0 43.06 S
0 255 36 rG
2034.49 599.22 0 43.06 S
0 158 255 rG
2088.31 599.22 0 43.06 S
cleartomark end end pagesave restore showpage
%%PageTrailer
%%Trailer
%%Pages: 1
%%EOF
