%!PS-Adobe-3.0
%%Pages: (atend)
%%BoundingBox: 84 56 511 483
%%HiResBoundingBox: 84.366577 56.020117 510.908984 482.562524
%.....................................
%%Creator: GNU Ghostscript 653 (pswrite)
%%CreationDate: 2003/02/15 12:52:23
%%DocumentData: Clean7Bit
%%LanguageLevel: 2
%%EndComments
%%BeginProlog
% This copyright applies to everything between here and the %%EndProlog:
% Copyright (C) 2002 artofcode LLC, Benicia, CA. All rights reserved.
%%BeginResource: procset GS_pswrite_2_0_1001
/GS_pswrite_2_0_1001 80 dict dup begin
/PageSize 2 array def/setpagesize{ PageSize aload pop 3 index eq exch
4 index eq and{ pop pop pop}{ PageSize dup  1
5 -1 roll put 0 4 -1 roll put dup where{ exch get exec}
{ pop/setpagedevice where
{ pop 1 dict dup /PageSize PageSize put setpagedevice}
{ /setpage where{ pop PageSize aload pop pageparams 3 {exch pop} repeat
setpage}if}ifelse}ifelse}ifelse} bind def
/!{bind def}bind def/#{load def}!/N/counttomark #
/rG{3{3 -1 roll 255 div}repeat setrgbcolor}!/G{255 div setgray}!/K{0 G}!
/r6{dup 3 -1 roll rG}!/r5{dup 3 1 roll rG}!/r3{dup rG}!
/w/setlinewidth #/J/setlinecap #
/j/setlinejoin #/M/setmiterlimit #/d/setdash #/i/setflat #
/m/moveto #/l/lineto #/c/rcurveto #
/p{N 2 idiv{N -2 roll rlineto}repeat}!
/P{N 0 gt{N -2 roll moveto p}if}!
/h{p closepath}!/H{P closepath}!
/lx{0 rlineto}!/ly{0 exch rlineto}!/v{0 0 6 2 roll c}!/y{2 copy c}!
/re{4 -2 roll m exch dup lx exch ly neg lx h}!
/^{3 index neg 3 index neg}!
/f{P fill}!/f*{P eofill}!/s{H stroke}!/S{P stroke}!
/q/gsave #/Q/grestore #/rf{re fill}!
/Y{P clip newpath}!/Y*{P eoclip newpath}!/rY{re Y}!
/|={pop exch 4 1 roll 3 array astore cvx exch 1 index def exec}!
/|{exch string readstring |=}!
/+{dup type/nametype eq{2 index 7 add -3 bitshift 2 index mul}if}!
/@/currentfile #/${+ @ |}!
/B{{2 copy string{readstring pop}aload pop 4 array astore cvx
3 1 roll}repeat pop pop true}!
/Ix{[1 0 0 1 11 -2 roll exch neg exch neg]exch}!
/,{true exch Ix imagemask}!/If{false exch Ix imagemask}!/I{exch Ix image}!
/Ic{exch Ix false 3 colorimage}!
/F{/Columns counttomark 3 add -2 roll/Rows exch/K -1/BlackIs1 true>>
/CCITTFaxDecode filter}!/FX{<</EndOfBlock false F}!
/X{/ASCII85Decode filter}!/@X{@ X}!/&2{2 index 2 index}!
/@F{@ &2<<F}!/@C{@X &2 FX}!
/$X{+ @X |}!/&4{4 index 4 index}!/$F{+ @ &4<<F |}!/$C{+ @X &4 FX |}!
/IC{3 1 roll 10 dict begin 1{/ImageType/Interpolate/Decode/DataSource
/ImageMatrix/BitsPerComponent/Height/Width}{exch def}forall
currentdict end image}!
end readonly def
%%EndResource
/pagesave null def
%%EndProlog
%%Page: 1 1
%%BeginPageSetup
GS_pswrite_2_0_1001 begin
595 842 /a4 setpagesize
/pagesave save store 100 dict begin
0.1 0.1 scale
%%EndPageSetup
gsave mark
Q q
0 0 5950 0 0 8420 ^ Y
13.4556 w
K
850.394 566.929 4251.97 4251.97 re
S
43.0579 w
255 0 r3
904.22 4743.55 0 43.06 S
0 67 255 rG
1011.86 4743.55 0 43.06 S
0 237 255 rG
1065.68 4743.55 0 43.06 S
0 79 255 rG
2142.13 4743.55 0 43.06 S
0 121 255 rG
2195.95 4743.55 0 43.06 S
255 0 r3
958.04 4689.72 0 43.06 S
0 152 255 rG
1011.86 4689.72 0 43.06 S
0 30 255 rG
1065.68 4689.72 0 43.06 S
0 255 219 rG
1119.51 4689.72 0 43.06 S
0 249 255 rG
2142.13 4689.72 0 43.06 S
0 115 255 rG
2195.95 4689.72 0 43.06 S
0 109 255 rG
2249.78 4689.72 0 43.06 S
0 67 255 rG
904.22 4635.9 0 43.06 S
0 152 255 rG
958.04 4635.9 0 43.06 S
255 0 r3
1011.86 4635.9 0 43.06 S
0 134 255 rG
1065.68 4635.9 0 43.06 S
0 18 255 rG
1119.51 4635.9 0 43.06 S
0 255 146 rG
1173.33 4635.9 0 43.06 S
0 225 255 rG
2142.13 4635.9 0 43.06 S
0 255 36 rG
2195.95 4635.9 0 43.06 S
0 152 255 rG
2249.78 4635.9 0 43.06 S
0 115 255 rG
2303.6 4635.9 0 43.06 S
0 237 255 rG
904.22 4582.08 0 43.06 S
0 30 255 rG
958.04 4582.08 0 43.06 S
0 134 255 rG
1011.86 4582.08 0 43.06 S
255 0 r3
1065.68 4582.08 0 43.06 S
0 121 255 rG
1119.51 4582.08 0 43.06 S
0 6 255 rG
1173.33 4582.08 0 43.06 S
0 255 109 rG
1227.15 4582.08 0 43.06 S
0 170 255 rG
2142.13 4582.08 0 43.06 S
0 201 255 rG
2195.95 4582.08 0 43.06 S
109 255 0 rG
2249.78 4582.08 0 43.06 S
0 182 255 rG
2303.6 4582.08 0 43.06 S
0 115 255 rG
2357.42 4582.08 0 43.06 S
0 255 219 rG
958.04 4528.26 0 43.06 S
0 18 255 rG
1011.86 4528.26 0 43.06 S
0 121 255 rG
1065.68 4528.26 0 43.06 S
255 0 r3
1119.51 4528.26 0 43.06 S
0 115 255 rG
1173.33 4528.26 0 43.06 S
0 6 255 rG
1227.15 4528.26 0 43.06 S
0 255 73 rG
1280.97 4528.26 0 43.06 S
0 213 255 rG
2142.13 4528.26 0 43.06 S
0 158 255 rG
2195.95 4528.26 0 43.06 S
0 182 255 rG
2249.78 4528.26 0 43.06 S
146 255 0 rG
2303.6 4528.26 0 43.06 S
0 121 255 rG
2411.24 4528.26 0 43.06 S
0 255 146 rG
1011.86 4474.43 0 43.06 S
0 6 255 rG
1065.68 4474.43 0 43.06 S
0 115 255 rG
1119.51 4474.43 0 43.06 S
255 0 r3
1173.33 4474.43 0 43.06 S
0 109 255 rG
1227.15 4474.43 0 43.06 S
0 6 255 rG
1280.97 4474.43 0 43.06 S
0 255 73 rG
1334.79 4474.43 0 43.06 S
0 201 255 rG
2142.13 4474.43 0 43.06 S
0 219 255 rG
2195.95 4474.43 0 43.06 S
0 158 255 rG
2249.78 4474.43 0 43.06 S
2303.6 4474.43 0 43.06 S
146 255 0 rG
2357.42 4474.43 0 43.06 S
0 213 255 rG
2411.24 4474.43 0 43.06 S
0 127 255 rG
2465.06 4474.43 0 43.06 S
0 255 109 rG
1065.68 4420.61 0 43.06 S
0 6 255 rG
1119.51 4420.61 0 43.06 S
0 109 255 rG
1173.33 4420.61 0 43.06 S
255 0 r3
1227.15 4420.61 0 43.06 S
0 109 255 rG
1280.97 4420.61 0 43.06 S
255 0 r6
1334.79 4420.61 0 43.06 S
0 255 36 rG
1388.62 4420.61 0 43.06 S
0 195 255 rG
2195.95 4420.61 0 43.06 S
0 225 255 rG
2249.78 4420.61 0 43.06 S
0 158 255 rG
2303.6 4420.61 0 43.06 S
0 146 255 rG
2357.42 4420.61 0 43.06 S
109 255 0 rG
2411.24 4420.61 0 43.06 S
0 225 255 rG
2465.06 4420.61 0 43.06 S
0 127 255 rG
2518.89 4420.61 0 43.06 S
0 255 73 rG
1119.51 4366.79 0 43.06 S
0 6 255 rG
1173.33 4366.79 0 43.06 S
0 109 255 rG
1227.15 4366.79 0 43.06 S
255 0 r3
1280.97 4366.79 0 43.06 S
0 103 255 rG
1334.79 4366.79 0 43.06 S
255 0 r6
1388.62 4366.79 0 43.06 S
0 255 36 rG
1442.44 4366.79 0 43.06 S
0 195 255 rG
2249.78 4366.79 0 43.06 S
0 231 255 rG
2303.6 4366.79 0 43.06 S
0 158 255 rG
2357.42 4366.79 0 43.06 S
0 134 255 rG
2411.24 4366.79 0 43.06 S
109 255 0 rG
2465.06 4366.79 0 43.06 S
0 231 255 rG
2518.89 4366.79 0 43.06 S
0 134 255 rG
2572.71 4366.79 0 43.06 S
0 255 73 rG
1173.33 4312.97 0 43.06 S
255 0 r6
1227.15 4312.97 0 43.06 S
0 103 255 rG
1280.97 4312.97 0 43.06 S
255 0 r3
1334.79 4312.97 0 43.06 S
0 103 255 rG
1388.62 4312.97 0 43.06 S
255 0 r6
1442.44 4312.97 0 43.06 S
0 255 36 rG
1496.26 4312.97 0 43.06 S
0 195 255 rG
2303.6 4312.97 0 43.06 S
0 237 255 rG
2357.42 4312.97 0 43.06 S
0 158 255 rG
2411.24 4312.97 0 43.06 S
0 121 255 rG
2465.06 4312.97 0 43.06 S
73 255 0 rG
2518.89 4312.97 0 43.06 S
0 237 255 rG
2572.71 4312.97 0 43.06 S
0 134 255 rG
2626.53 4312.97 0 43.06 S
0 255 36 rG
1227.15 4259.14 0 43.06 S
255 0 r6
1280.97 4259.14 0 43.06 S
0 103 255 rG
1334.79 4259.14 0 43.06 S
255 0 r3
1388.62 4259.14 0 43.06 S
0 103 255 rG
1442.44 4259.14 0 43.06 S
255 0 r6
1496.26 4259.14 0 43.06 S
0 188 255 rG
2357.42 4259.14 0 43.06 S
0 243 255 rG
2411.24 4259.14 0 43.06 S
0 164 255 rG
2465.06 4259.14 0 43.06 S
0 115 255 rG
2518.89 4259.14 0 43.06 S
36 255 0 rG
2572.71 4259.14 0 43.06 S
0 243 255 rG
2626.53 4259.14 0 43.06 S
0 255 36 rG
1280.97 4205.32 0 43.06 S
255 0 r6
1334.79 4205.32 0 43.06 S
0 103 255 rG
1388.62 4205.32 0 43.06 S
255 0 r3
1442.44 4205.32 0 43.06 S
0 103 255 rG
1496.26 4205.32 0 43.06 S
0 188 255 rG
2411.24 4205.32 0 43.06 S
0 243 255 rG
2465.06 4205.32 0 43.06 S
0 164 255 rG
2518.89 4205.32 0 43.06 S
0 109 255 rG
2572.71 4205.32 0 43.06 S
36 255 0 rG
2626.53 4205.32 0 43.06 S
0 255 36 rG
1334.79 4151.5 0 43.06 S
255 0 r6
1388.62 4151.5 0 43.06 S
0 103 255 rG
1442.44 4151.5 0 43.06 S
255 0 r3
1496.26 4151.5 0 43.06 S
0 188 255 rG
2465.06 4151.5 0 43.06 S
0 249 255 rG
2518.89 4151.5 0 43.06 S
0 170 255 rG
2572.71 4151.5 0 43.06 S
0 103 255 rG
2626.53 4151.5 0 43.06 S
255 0 r3
1550.08 4097.68 0 43.06 S
0 255 182 rG
1603.91 4097.68 0 43.06 S
0 91 255 rG
1657.73 4097.68 0 43.06 S
0 225 255 rG
1711.55 4097.68 0 43.06 S
0 36 255 rG
2680.35 4097.68 0 43.06 S
0 97 255 rG
2734.18 4097.68 0 43.06 S
0 255 182 rG
1550.08 4043.86 0 43.06 S
255 0 r3
1603.91 4043.86 0 43.06 S
0 213 255 rG
1657.73 4043.86 0 43.06 S
0 54 255 rG
1711.55 4043.86 0 43.06 S
0 237 255 rG
1765.37 4043.86 0 43.06 S
0 225 255 rG
2680.35 4043.86 0 43.06 S
0 60 255 rG
2734.18 4043.86 0 43.06 S
0 85 255 rG
2788 4043.86 0 43.06 S
0 91 255 rG
1550.08 3990.03 0 43.06 S
0 213 255 rG
1603.91 3990.03 0 43.06 S
255 0 r3
1657.73 3990.03 0 43.06 S
0 176 255 rG
1711.55 3990.03 0 43.06 S
0 30 255 rG
1765.37 3990.03 0 43.06 S
0 249 255 rG
1819.2 3990.03 0 43.06 S
0 243 255 rG
2680.35 3990.03 0 43.06 S
0 255 73 rG
2734.18 3990.03 0 43.06 S
0 97 255 rG
2788 3990.03 0 43.06 S
0 79 255 rG
2841.82 3990.03 0 43.06 S
0 225 255 rG
1550.08 3936.21 0 43.06 S
0 54 255 rG
1603.91 3936.21 0 43.06 S
0 176 255 rG
1657.73 3936.21 0 43.06 S
255 0 r3
1711.55 3936.21 0 43.06 S
0 158 255 rG
1765.37 3936.21 0 43.06 S
0 18 255 rG
1819.2 3936.21 0 43.06 S
0 255 219 rG
1873.02 3936.21 0 43.06 S
0 170 255 rG
2680.35 3936.21 0 43.06 S
0 231 255 rG
2734.18 3936.21 0 43.06 S
146 255 0 rG
2788 3936.21 0 43.06 S
0 134 255 rG
2841.82 3936.21 0 43.06 S
0 85 255 rG
2895.64 3936.21 0 43.06 S
0 237 255 rG
1603.91 3882.39 0 43.06 S
0 30 255 rG
1657.73 3882.39 0 43.06 S
0 158 255 rG
1711.55 3882.39 0 43.06 S
255 0 r3
1765.37 3882.39 0 43.06 S
0 140 255 rG
1819.2 3882.39 0 43.06 S
0 12 255 rG
1873.02 3882.39 0 43.06 S
0 255 182 rG
1926.84 3882.39 0 43.06 S
0 207 255 rG
2680.35 3882.39 0 43.06 S
0 158 255 rG
2734.18 3882.39 0 43.06 S
0 207 255 rG
2788 3882.39 0 43.06 S
0 255 r6
2841.82 3882.39 0 43.06 S
0 158 255 rG
2895.64 3882.39 0 43.06 S
0 85 255 rG
2949.47 3882.39 0 43.06 S
0 249 255 rG
1657.73 3828.57 0 43.06 S
0 18 255 rG
1711.55 3828.57 0 43.06 S
0 140 255 rG
1765.37 3828.57 0 43.06 S
255 0 r3
1819.2 3828.57 0 43.06 S
0 134 255 rG
1873.02 3828.57 0 43.06 S
0 6 255 rG
1926.84 3828.57 0 43.06 S
0 255 146 rG
1980.66 3828.57 0 43.06 S
0 201 255 rG
2680.35 3828.57 0 43.06 S
0 213 255 rG
2734.18 3828.57 0 43.06 S
0 146 255 rG
2788 3828.57 0 43.06 S
0 188 255 rG
2841.82 3828.57 0 43.06 S
255 244 0 rG
2895.64 3828.57 0 43.06 S
0 182 255 rG
2949.47 3828.57 0 43.06 S
0 91 255 rG
3003.29 3828.57 0 43.06 S
0 255 219 rG
1711.55 3774.74 0 43.06 S
0 12 255 rG
1765.37 3774.74 0 43.06 S
0 134 255 rG
1819.2 3774.74 0 43.06 S
255 0 r3
1873.02 3774.74 0 43.06 S
0 127 255 rG
1926.84 3774.74 0 43.06 S
0 6 255 rG
1980.66 3774.74 0 43.06 S
0 255 109 rG
2034.49 3774.74 0 43.06 S
0 195 255 rG
2734.18 3774.74 0 43.06 S
0 225 255 rG
2788 3774.74 0 43.06 S
0 140 255 rG
2841.82 3774.74 0 43.06 S
0 164 255 rG
2895.64 3774.74 0 43.06 S
255 238 0 rG
2949.47 3774.74 0 43.06 S
0 97 255 rG
3057.11 3774.74 0 43.06 S
0 255 182 rG
1765.37 3720.92 0 43.06 S
0 6 255 rG
1819.2 3720.92 0 43.06 S
0 127 255 rG
1873.02 3720.92 0 43.06 S
255 0 r3
1926.84 3720.92 0 43.06 S
0 121 255 rG
1980.66 3720.92 0 43.06 S
0 6 255 rG
2034.49 3720.92 0 43.06 S
0 255 109 rG
2088.31 3720.92 0 43.06 S
0 195 255 rG
2788 3720.92 0 43.06 S
0 231 255 rG
2841.82 3720.92 0 43.06 S
0 140 255 rG
2895.64 3720.92 0 43.06 S
0 146 255 rG
2949.47 3720.92 0 43.06 S
255 238 0 rG
3003.29 3720.92 0 43.06 S
0 213 255 rG
3057.11 3720.92 0 43.06 S
0 103 255 rG
3110.93 3720.92 0 43.06 S
0 255 146 rG
1819.2 3667.1 0 43.06 S
0 6 255 rG
1873.02 3667.1 0 43.06 S
0 121 255 rG
1926.84 3667.1 0 43.06 S
255 0 r3
1980.66 3667.1 0 43.06 S
0 115 255 rG
2034.49 3667.1 0 43.06 S
255 0 r6
2088.31 3667.1 0 43.06 S
0 195 255 rG
2841.82 3667.1 0 43.06 S
0 237 255 rG
2895.64 3667.1 0 43.06 S
0 140 255 rG
2949.47 3667.1 0 43.06 S
0 134 255 rG
3003.29 3667.1 0 43.06 S
255 238 0 rG
3057.11 3667.1 0 43.06 S
0 225 255 rG
3110.93 3667.1 0 43.06 S
0 255 109 rG
1873.02 3613.28 0 43.06 S
0 6 255 rG
1926.84 3613.28 0 43.06 S
0 115 255 rG
1980.66 3613.28 0 43.06 S
255 0 r3
2034.49 3613.28 0 43.06 S
0 115 255 rG
2088.31 3613.28 0 43.06 S
0 195 255 rG
2895.64 3613.28 0 43.06 S
0 243 255 rG
2949.47 3613.28 0 43.06 S
0 140 255 rG
3003.29 3613.28 0 43.06 S
0 115 255 rG
3057.11 3613.28 0 43.06 S
255 244 0 rG
3110.93 3613.28 0 43.06 S
0 255 109 rG
1926.84 3559.45 0 43.06 S
255 0 r6
1980.66 3559.45 0 43.06 S
0 115 255 rG
2034.49 3559.45 0 43.06 S
255 0 r3
2088.31 3559.45 0 43.06 S
0 188 255 rG
2949.47 3559.45 0 43.06 S
0 249 255 rG
3003.29 3559.45 0 43.06 S
0 146 255 rG
3057.11 3559.45 0 43.06 S
0 109 255 rG
3110.93 3559.45 0 43.06 S
0 79 255 rG
904.22 3505.63 0 43.06 S
0 249 255 rG
958.04 3505.63 0 43.06 S
0 225 255 rG
1011.86 3505.63 0 43.06 S
0 170 255 rG
1065.68 3505.63 0 43.06 S
0 213 255 rG
1119.51 3505.63 0 43.06 S
0 201 255 rG
1173.33 3505.63 0 43.06 S
255 0 r3
2142.13 3505.63 0 43.06 S
36 255 0 rG
2195.95 3505.63 0 43.06 S
0 109 255 rG
2249.78 3505.63 0 43.06 S
0 213 255 rG
2303.6 3505.63 0 43.06 S
0 18 255 rG
3164.76 3505.63 0 43.06 S
0 91 255 rG
3218.58 3505.63 0 43.06 S
0 121 255 rG
904.22 3451.81 0 43.06 S
0 115 255 rG
958.04 3451.81 0 43.06 S
0 255 36 rG
1011.86 3451.81 0 43.06 S
0 201 255 rG
1065.68 3451.81 0 43.06 S
0 158 255 rG
1119.51 3451.81 0 43.06 S
0 219 255 rG
1173.33 3451.81 0 43.06 S
0 195 255 rG
1227.15 3451.81 0 43.06 S
36 255 0 rG
2142.13 3451.81 0 43.06 S
255 0 r3
2195.95 3451.81 0 43.06 S
0 255 r3
2249.78 3451.81 0 43.06 S
0 73 255 rG
2303.6 3451.81 0 43.06 S
0 225 255 rG
2357.42 3451.81 0 43.06 S
0 42 255 rG
3218.58 3451.81 0 43.06 S
0 79 255 rG
3272.4 3451.81 0 43.06 S
0 109 255 rG
958.04 3397.99 0 43.06 S
0 152 255 rG
1011.86 3397.99 0 43.06 S
109 255 0 rG
1065.68 3397.99 0 43.06 S
0 182 255 rG
1119.51 3397.99 0 43.06 S
0 158 255 rG
1173.33 3397.99 0 43.06 S
0 225 255 rG
1227.15 3397.99 0 43.06 S
0 195 255 rG
1280.97 3397.99 0 43.06 S
0 109 255 rG
2142.13 3397.99 0 43.06 S
0 255 r3
2195.95 3397.99 0 43.06 S
255 0 r3
2249.78 3397.99 0 43.06 S
0 219 255 rG
2303.6 3397.99 0 43.06 S
0 48 255 rG
2357.42 3397.99 0 43.06 S
0 237 255 rG
2411.24 3397.99 0 43.06 S
0 243 255 rG
3164.76 3397.99 0 43.06 S
0 255 r3
3218.58 3397.99 0 43.06 S
0 67 255 rG
3272.4 3397.99 0 43.06 S
0 73 255 rG
3326.22 3397.99 0 43.06 S
0 115 255 rG
1011.86 3344.16 0 43.06 S
0 182 255 rG
1065.68 3344.16 0 43.06 S
146 255 0 rG
1119.51 3344.16 0 43.06 S
0 158 255 rG
1173.33 3344.16 0 43.06 S
1227.15 3344.16 0 43.06 S
0 231 255 rG
1280.97 3344.16 0 43.06 S
0 195 255 rG
1334.79 3344.16 0 43.06 S
0 213 255 rG
2142.13 3344.16 0 43.06 S
0 73 255 rG
2195.95 3344.16 0 43.06 S
0 219 255 rG
2249.78 3344.16 0 43.06 S
255 0 r3
2303.6 3344.16 0 43.06 S
0 188 255 rG
2357.42 3344.16 0 43.06 S
0 36 255 rG
2411.24 3344.16 0 43.06 S
0 249 255 rG
2465.06 3344.16 0 43.06 S
0 176 255 rG
3164.76 3344.16 0 43.06 S
0 243 255 rG
3218.58 3344.16 0 43.06 S
255 0 r5
3272.4 3344.16 0 43.06 S
0 97 255 rG
3326.22 3344.16 0 43.06 S
0 73 255 rG
3380.05 3344.16 0 43.06 S
0 115 255 rG
1065.68 3290.34 0 43.06 S
146 255 0 rG
1173.33 3290.34 0 43.06 S
0 146 255 rG
1227.15 3290.34 0 43.06 S
0 158 255 rG
1280.97 3290.34 0 43.06 S
0 237 255 rG
1334.79 3290.34 0 43.06 S
0 188 255 rG
1388.62 3290.34 0 43.06 S
0 225 255 rG
2195.95 3290.34 0 43.06 S
0 48 255 rG
2249.78 3290.34 0 43.06 S
0 188 255 rG
2303.6 3290.34 0 43.06 S
255 0 r3
2357.42 3290.34 0 43.06 S
0 170 255 rG
2411.24 3290.34 0 43.06 S
0 24 255 rG
2465.06 3290.34 0 43.06 S
0 255 r3
2518.89 3290.34 0 43.06 S
0 207 255 rG
3164.76 3290.34 0 43.06 S
0 164 255 rG
3218.58 3290.34 0 43.06 S
0 225 255 rG
3272.4 3290.34 0 43.06 S
182 255 0 rG
3326.22 3290.34 0 43.06 S
0 127 255 rG
3380.05 3290.34 0 43.06 S
0 73 255 rG
3433.87 3290.34 0 43.06 S
0 121 255 rG
1119.51 3236.52 0 43.06 S
0 213 255 rG
1173.33 3236.52 0 43.06 S
109 255 0 rG
1227.15 3236.52 0 43.06 S
0 134 255 rG
1280.97 3236.52 0 43.06 S
0 158 255 rG
1334.79 3236.52 0 43.06 S
0 243 255 rG
1388.62 3236.52 0 43.06 S
0 188 255 rG
1442.44 3236.52 0 43.06 S
0 237 255 rG
2249.78 3236.52 0 43.06 S
0 36 255 rG
2303.6 3236.52 0 43.06 S
0 170 255 rG
2357.42 3236.52 0 43.06 S
255 0 r3
2411.24 3236.52 0 43.06 S
0 158 255 rG
2465.06 3236.52 0 43.06 S
0 18 255 rG
2518.89 3236.52 0 43.06 S
0 255 219 rG
2572.71 3236.52 0 43.06 S
0 201 255 rG
3164.76 3236.52 0 43.06 S
0 213 255 rG
3218.58 3236.52 0 43.06 S
0 152 255 rG
3272.4 3236.52 0 43.06 S
0 213 255 rG
3326.22 3236.52 0 43.06 S
255 250 0 rG
3380.05 3236.52 0 43.06 S
0 146 255 rG
3433.87 3236.52 0 43.06 S
0 79 255 rG
3487.69 3236.52 0 43.06 S
0 127 255 rG
1173.33 3182.7 0 43.06 S
0 225 255 rG
1227.15 3182.7 0 43.06 S
109 255 0 rG
1280.97 3182.7 0 43.06 S
0 121 255 rG
1334.79 3182.7 0 43.06 S
0 164 255 rG
1388.62 3182.7 0 43.06 S
0 243 255 rG
1442.44 3182.7 0 43.06 S
0 188 255 rG
1496.26 3182.7 0 43.06 S
0 249 255 rG
2303.6 3182.7 0 43.06 S
0 24 255 rG
2357.42 3182.7 0 43.06 S
0 158 255 rG
2411.24 3182.7 0 43.06 S
255 0 r3
2465.06 3182.7 0 43.06 S
0 146 255 rG
2518.89 3182.7 0 43.06 S
0 12 255 rG
2572.71 3182.7 0 43.06 S
0 255 182 rG
2626.53 3182.7 0 43.06 S
0 201 255 rG
3218.58 3182.7 0 43.06 S
0 219 255 rG
3272.4 3182.7 0 43.06 S
0 146 255 rG
3326.22 3182.7 0 43.06 S
0 195 255 rG
3380.05 3182.7 0 43.06 S
255 238 0 rG
3433.87 3182.7 0 43.06 S
0 170 255 rG
3487.69 3182.7 0 43.06 S
0 79 255 rG
3541.51 3182.7 0 43.06 S
0 127 255 rG
1227.15 3128.87 0 43.06 S
0 231 255 rG
1280.97 3128.87 0 43.06 S
73 255 0 rG
1334.79 3128.87 0 43.06 S
0 115 255 rG
1388.62 3128.87 0 43.06 S
0 164 255 rG
1442.44 3128.87 0 43.06 S
0 249 255 rG
1496.26 3128.87 0 43.06 S
0 255 r3
2357.42 3128.87 0 43.06 S
0 18 255 rG
2411.24 3128.87 0 43.06 S
0 146 255 rG
2465.06 3128.87 0 43.06 S
255 0 r3
2518.89 3128.87 0 43.06 S
0 140 255 rG
2572.71 3128.87 0 43.06 S
0 6 255 rG
2626.53 3128.87 0 43.06 S
0 195 255 rG
3272.4 3128.87 0 43.06 S
0 225 255 rG
3326.22 3128.87 0 43.06 S
0 140 255 rG
3380.05 3128.87 0 43.06 S
0 176 255 rG
3433.87 3128.87 0 43.06 S
255 232 0 rG
3487.69 3128.87 0 43.06 S
0 182 255 rG
3541.51 3128.87 0 43.06 S
0 134 255 rG
1280.97 3075.05 0 43.06 S
0 237 255 rG
1334.79 3075.05 0 43.06 S
36 255 0 rG
1388.62 3075.05 0 43.06 S
0 109 255 rG
1442.44 3075.05 0 43.06 S
0 170 255 rG
1496.26 3075.05 0 43.06 S
0 255 219 rG
2411.24 3075.05 0 43.06 S
0 12 255 rG
2465.06 3075.05 0 43.06 S
0 140 255 rG
2518.89 3075.05 0 43.06 S
255 0 r3
2572.71 3075.05 0 43.06 S
0 134 255 rG
2626.53 3075.05 0 43.06 S
0 195 255 rG
3326.22 3075.05 0 43.06 S
0 231 255 rG
3380.05 3075.05 0 43.06 S
0 134 255 rG
3433.87 3075.05 0 43.06 S
0 158 255 rG
3487.69 3075.05 0 43.06 S
255 226 0 rG
3541.51 3075.05 0 43.06 S
0 134 255 rG
1334.79 3021.23 0 43.06 S
0 243 255 rG
1388.62 3021.23 0 43.06 S
36 255 0 rG
1442.44 3021.23 0 43.06 S
0 103 255 rG
1496.26 3021.23 0 43.06 S
0 255 182 rG
2465.06 3021.23 0 43.06 S
0 6 255 rG
2518.89 3021.23 0 43.06 S
0 134 255 rG
2572.71 3021.23 0 43.06 S
255 0 r3
2626.53 3021.23 0 43.06 S
0 195 255 rG
3380.05 3021.23 0 43.06 S
0 237 255 rG
3433.87 3021.23 0 43.06 S
0 134 255 rG
3487.69 3021.23 0 43.06 S
0 146 255 rG
3541.51 3021.23 0 43.06 S
0 36 255 rG
1550.08 2967.41 0 43.06 S
0 225 255 rG
1603.91 2967.41 0 43.06 S
0 243 255 rG
1657.73 2967.41 0 43.06 S
0 170 255 rG
1711.55 2967.41 0 43.06 S
0 207 255 rG
1765.37 2967.41 0 43.06 S
0 201 255 rG
1819.2 2967.41 0 43.06 S
255 0 r3
2680.35 2967.41 0 43.06 S
182 255 0 rG
2734.18 2967.41 0 43.06 S
0 121 255 rG
2788 2967.41 0 43.06 S
0 213 255 rG
2841.82 2967.41 0 43.06 S
0 12 255 rG
3595.34 2967.41 0 43.06 S
0 91 255 rG
3649.16 2967.41 0 43.06 S
0 97 255 rG
1550.08 2913.58 0 43.06 S
0 60 255 rG
1603.91 2913.58 0 43.06 S
0 255 73 rG
1657.73 2913.58 0 43.06 S
0 231 255 rG
1711.55 2913.58 0 43.06 S
0 158 255 rG
1765.37 2913.58 0 43.06 S
0 213 255 rG
1819.2 2913.58 0 43.06 S
0 195 255 rG
1873.02 2913.58 0 43.06 S
182 255 0 rG
2680.35 2913.58 0 43.06 S
255 0 r3
2734.18 2913.58 0 43.06 S
0 255 73 rG
2788 2913.58 0 43.06 S
0 91 255 rG
2841.82 2913.58 0 43.06 S
0 219 255 rG
2895.64 2913.58 0 43.06 S
0 182 255 rG
3595.34 2913.58 0 43.06 S
0 24 255 rG
3649.16 2913.58 0 43.06 S
0 79 255 rG
3702.98 2913.58 0 43.06 S
0 85 255 rG
1603.91 2859.76 0 43.06 S
0 97 255 rG
1657.73 2859.76 0 43.06 S
146 255 0 rG
1711.55 2859.76 0 43.06 S
0 207 255 rG
1765.37 2859.76 0 43.06 S
0 146 255 rG
1819.2 2859.76 0 43.06 S
0 225 255 rG
1873.02 2859.76 0 43.06 S
0 195 255 rG
1926.84 2859.76 0 43.06 S
0 121 255 rG
2680.35 2859.76 0 43.06 S
0 255 73 rG
2734.18 2859.76 0 43.06 S
255 0 r3
2788 2859.76 0 43.06 S
0 249 255 rG
2841.82 2859.76 0 43.06 S
0 67 255 rG
2895.64 2859.76 0 43.06 S
0 231 255 rG
2949.47 2859.76 0 43.06 S
0 243 255 rG
3595.34 2859.76 0 43.06 S
0 231 255 rG
3649.16 2859.76 0 43.06 S
0 48 255 rG
3702.98 2859.76 0 43.06 S
0 73 255 rG
3756.8 2859.76 0 43.06 S
0 79 255 rG
1657.73 2805.94 0 43.06 S
0 134 255 rG
1711.55 2805.94 0 43.06 S
0 255 r6
1765.37 2805.94 0 43.06 S
0 188 255 rG
1819.2 2805.94 0 43.06 S
0 140 255 rG
1873.02 2805.94 0 43.06 S
0 231 255 rG
1926.84 2805.94 0 43.06 S
0 195 255 rG
1980.66 2805.94 0 43.06 S
0 213 255 rG
2680.35 2805.94 0 43.06 S
0 91 255 rG
2734.18 2805.94 0 43.06 S
0 249 255 rG
2788 2805.94 0 43.06 S
255 0 r3
2841.82 2805.94 0 43.06 S
0 219 255 rG
2895.64 2805.94 0 43.06 S
0 48 255 rG
2949.47 2805.94 0 43.06 S
0 237 255 rG
3003.29 2805.94 0 43.06 S
0 182 255 rG
3595.34 2805.94 0 43.06 S
0 243 255 rG
3649.16 2805.94 0 43.06 S
0 255 146 rG
3702.98 2805.94 0 43.06 S
0 73 255 rG
3756.8 2805.94 0 43.06 S
0 67 255 rG
3810.62 2805.94 0 43.06 S
0 85 255 rG
1711.55 2752.12 0 43.06 S
0 158 255 rG
1765.37 2752.12 0 43.06 S
255 244 0 rG
1819.2 2752.12 0 43.06 S
0 164 255 rG
1873.02 2752.12 0 43.06 S
0 140 255 rG
1926.84 2752.12 0 43.06 S
0 237 255 rG
1980.66 2752.12 0 43.06 S
0 195 255 rG
2034.49 2752.12 0 43.06 S
0 219 255 rG
2734.18 2752.12 0 43.06 S
0 67 255 rG
2788 2752.12 0 43.06 S
0 219 255 rG
2841.82 2752.12 0 43.06 S
255 0 r3
2895.64 2752.12 0 43.06 S
0 201 255 rG
2949.47 2752.12 0 43.06 S
0 36 255 rG
3003.29 2752.12 0 43.06 S
0 243 255 rG
3057.11 2752.12 0 43.06 S
0 201 255 rG
3595.34 2752.12 0 43.06 S
0 170 255 rG
3649.16 2752.12 0 43.06 S
0 237 255 rG
3702.98 2752.12 0 43.06 S
73 255 0 rG
3756.8 2752.12 0 43.06 S
0 97 255 rG
3810.62 2752.12 0 43.06 S
0 67 255 rG
3864.45 2752.12 0 43.06 S
0 85 255 rG
1765.37 2698.3 0 43.06 S
0 182 255 rG
1819.2 2698.3 0 43.06 S
255 238 0 rG
1873.02 2698.3 0 43.06 S
0 146 255 rG
1926.84 2698.3 0 43.06 S
0 140 255 rG
1980.66 2698.3 0 43.06 S
0 243 255 rG
2034.49 2698.3 0 43.06 S
0 188 255 rG
2088.31 2698.3 0 43.06 S
0 231 255 rG
2788 2698.3 0 43.06 S
0 48 255 rG
2841.82 2698.3 0 43.06 S
0 201 255 rG
2895.64 2698.3 0 43.06 S
255 0 r3
2949.47 2698.3 0 43.06 S
0 182 255 rG
3003.29 2698.3 0 43.06 S
0 24 255 rG
3057.11 2698.3 0 43.06 S
0 249 255 rG
3110.93 2698.3 0 43.06 S
0 201 255 rG
3595.34 2698.3 0 43.06 S
0 207 255 rG
3649.16 2698.3 0 43.06 S
0 158 255 rG
3702.98 2698.3 0 43.06 S
0 225 255 rG
3756.8 2698.3 0 43.06 S
219 255 0 rG
3810.62 2698.3 0 43.06 S
0 121 255 rG
3864.45 2698.3 0 43.06 S
0 67 255 rG
3918.27 2698.3 0 43.06 S
0 91 255 rG
1819.2 2644.47 0 43.06 S
255 238 0 rG
1926.84 2644.47 0 43.06 S
0 134 255 rG
1980.66 2644.47 0 43.06 S
0 140 255 rG
2034.49 2644.47 0 43.06 S
0 249 255 rG
2088.31 2644.47 0 43.06 S
0 237 255 rG
2841.82 2644.47 0 43.06 S
0 36 255 rG
2895.64 2644.47 0 43.06 S
0 182 255 rG
2949.47 2644.47 0 43.06 S
255 0 r3
3003.29 2644.47 0 43.06 S
0 164 255 rG
3057.11 2644.47 0 43.06 S
0 18 255 rG
3110.93 2644.47 0 43.06 S
0 201 255 rG
3649.16 2644.47 0 43.06 S
0 213 255 rG
3702.98 2644.47 0 43.06 S
0 152 255 rG
3756.8 2644.47 0 43.06 S
0 213 255 rG
3810.62 2644.47 0 43.06 S
255 244 0 rG
3864.45 2644.47 0 43.06 S
0 140 255 rG
3918.27 2644.47 0 43.06 S
0 97 255 rG
1873.02 2590.65 0 43.06 S
0 213 255 rG
1926.84 2590.65 0 43.06 S
255 238 0 rG
1980.66 2590.65 0 43.06 S
0 115 255 rG
2034.49 2590.65 0 43.06 S
0 146 255 rG
2088.31 2590.65 0 43.06 S
0 243 255 rG
2895.64 2590.65 0 43.06 S
0 24 255 rG
2949.47 2590.65 0 43.06 S
0 164 255 rG
3003.29 2590.65 0 43.06 S
255 0 r3
3057.11 2590.65 0 43.06 S
0 158 255 rG
3110.93 2590.65 0 43.06 S
0 201 255 rG
3702.98 2590.65 0 43.06 S
0 219 255 rG
3756.8 2590.65 0 43.06 S
0 146 255 rG
3810.62 2590.65 0 43.06 S
0 195 255 rG
3864.45 2590.65 0 43.06 S
255 238 0 rG
3918.27 2590.65 0 43.06 S
0 103 255 rG
1926.84 2536.83 0 43.06 S
0 225 255 rG
1980.66 2536.83 0 43.06 S
255 244 0 rG
2034.49 2536.83 0 43.06 S
0 109 255 rG
2088.31 2536.83 0 43.06 S
0 249 255 rG
2949.47 2536.83 0 43.06 S
0 18 255 rG
3003.29 2536.83 0 43.06 S
0 158 255 rG
3057.11 2536.83 0 43.06 S
255 0 r3
3110.93 2536.83 0 43.06 S
0 195 255 rG
3756.8 2536.83 0 43.06 S
0 225 255 rG
3810.62 2536.83 0 43.06 S
0 140 255 rG
3864.45 2536.83 0 43.06 S
0 182 255 rG
3918.27 2536.83 0 43.06 S
0 18 255 rG
2142.13 2483.01 0 43.06 S
0 243 255 rG
2249.78 2483.01 0 43.06 S
0 176 255 rG
2303.6 2483.01 0 43.06 S
0 207 255 rG
2357.42 2483.01 0 43.06 S
0 201 255 rG
2411.24 2483.01 0 43.06 S
255 0 r3
3164.76 2483.01 0 43.06 S
0 255 r6
3218.58 2483.01 0 43.06 S
0 134 255 rG
3272.4 2483.01 0 43.06 S
0 207 255 rG
3326.22 2483.01 0 43.06 S
0 12 255 rG
3972.09 2483.01 0 43.06 S
0 91 255 rG
4025.91 2483.01 0 43.06 S
2142.13 2429.18 0 43.06 S
0 42 255 rG
2195.95 2429.18 0 43.06 S
0 255 r3
2249.78 2429.18 0 43.06 S
0 243 255 rG
2303.6 2429.18 0 43.06 S
0 164 255 rG
2357.42 2429.18 0 43.06 S
0 213 255 rG
2411.24 2429.18 0 43.06 S
0 201 255 rG
2465.06 2429.18 0 43.06 S
0 255 r6
3164.76 2429.18 0 43.06 S
255 0 r3
3218.58 2429.18 0 43.06 S
36 255 0 rG
3272.4 2429.18 0 43.06 S
0 103 255 rG
3326.22 2429.18 0 43.06 S
0 213 255 rG
3380.05 2429.18 0 43.06 S
0 170 255 rG
3972.09 2429.18 0 43.06 S
0 18 255 rG
4025.91 2429.18 0 43.06 S
0 79 255 rG
4079.74 2429.18 0 43.06 S
2195.95 2375.36 0 43.06 S
0 67 255 rG
2249.78 2375.36 0 43.06 S
255 0 r5
2303.6 2375.36 0 43.06 S
0 225 255 rG
2357.42 2375.36 0 43.06 S
0 152 255 rG
2411.24 2375.36 0 43.06 S
0 219 255 rG
2465.06 2375.36 0 43.06 S
0 195 255 rG
2518.89 2375.36 0 43.06 S
0 134 255 rG
3164.76 2375.36 0 43.06 S
36 255 0 rG
3218.58 2375.36 0 43.06 S
255 0 r3
3272.4 2375.36 0 43.06 S
0 255 146 rG
3326.22 2375.36 0 43.06 S
0 85 255 rG
3380.05 2375.36 0 43.06 S
0 219 255 rG
3433.87 2375.36 0 43.06 S
0 243 255 rG
3972.09 2375.36 0 43.06 S
0 213 255 rG
4025.91 2375.36 0 43.06 S
0 36 255 rG
4079.74 2375.36 0 43.06 S
0 73 255 rG
4133.56 2375.36 0 43.06 S
2249.78 2321.54 0 43.06 S
0 97 255 rG
2303.6 2321.54 0 43.06 S
182 255 0 rG
2357.42 2321.54 0 43.06 S
0 213 255 rG
2411.24 2321.54 0 43.06 S
0 146 255 rG
2465.06 2321.54 0 43.06 S
0 225 255 rG
2518.89 2321.54 0 43.06 S
0 195 255 rG
2572.71 2321.54 0 43.06 S
0 207 255 rG
3164.76 2321.54 0 43.06 S
0 103 255 rG
3218.58 2321.54 0 43.06 S
0 255 146 rG
3272.4 2321.54 0 43.06 S
255 0 r3
3326.22 2321.54 0 43.06 S
0 243 255 rG
3380.05 2321.54 0 43.06 S
0 67 255 rG
3433.87 2321.54 0 43.06 S
0 231 255 rG
3487.69 2321.54 0 43.06 S
0 182 255 rG
3972.09 2321.54 0 43.06 S
0 243 255 rG
4025.91 2321.54 0 43.06 S
0 255 r3
4079.74 2321.54 0 43.06 S
0 54 255 rG
4133.56 2321.54 0 43.06 S
0 67 255 rG
4187.38 2321.54 0 43.06 S
0 73 255 rG
2303.6 2267.72 0 43.06 S
0 127 255 rG
2357.42 2267.72 0 43.06 S
255 250 0 rG
2411.24 2267.72 0 43.06 S
0 195 255 rG
2465.06 2267.72 0 43.06 S
0 140 255 rG
2518.89 2267.72 0 43.06 S
0 231 255 rG
2572.71 2267.72 0 43.06 S
0 195 255 rG
2626.53 2267.72 0 43.06 S
0 213 255 rG
3218.58 2267.72 0 43.06 S
0 85 255 rG
3272.4 2267.72 0 43.06 S
0 243 255 rG
3326.22 2267.72 0 43.06 S
255 0 r3
3380.05 2267.72 0 43.06 S
0 219 255 rG
3433.87 2267.72 0 43.06 S
0 48 255 rG
3487.69 2267.72 0 43.06 S
0 237 255 rG
3541.51 2267.72 0 43.06 S
0 201 255 rG
3972.09 2267.72 0 43.06 S
0 176 255 rG
4025.91 2267.72 0 43.06 S
0 243 255 rG
4079.74 2267.72 0 43.06 S
0 255 73 rG
4133.56 2267.72 0 43.06 S
0 79 255 rG
4187.38 2267.72 0 43.06 S
0 67 255 rG
4241.2 2267.72 0 43.06 S
0 73 255 rG
2357.42 2213.89 0 43.06 S
0 146 255 rG
2411.24 2213.89 0 43.06 S
255 238 0 rG
2465.06 2213.89 0 43.06 S
0 176 255 rG
2518.89 2213.89 0 43.06 S
0 134 255 rG
2572.71 2213.89 0 43.06 S
0 237 255 rG
2626.53 2213.89 0 43.06 S
0 219 255 rG
3272.4 2213.89 0 43.06 S
0 67 255 rG
3326.22 2213.89 0 43.06 S
0 219 255 rG
3380.05 2213.89 0 43.06 S
255 0 r3
3433.87 2213.89 0 43.06 S
0 201 255 rG
3487.69 2213.89 0 43.06 S
0 36 255 rG
3541.51 2213.89 0 43.06 S
0 201 255 rG
3972.09 2213.89 0 43.06 S
0 207 255 rG
4025.91 2213.89 0 43.06 S
0 164 255 rG
4079.74 2213.89 0 43.06 S
0 237 255 rG
4133.56 2213.89 0 43.06 S
109 255 0 rG
4187.38 2213.89 0 43.06 S
0 97 255 rG
4241.2 2213.89 0 43.06 S
0 79 255 rG
2411.24 2160.07 0 43.06 S
0 170 255 rG
2465.06 2160.07 0 43.06 S
255 232 0 rG
2518.89 2160.07 0 43.06 S
0 158 255 rG
2572.71 2160.07 0 43.06 S
0 134 255 rG
2626.53 2160.07 0 43.06 S
0 231 255 rG
3326.22 2160.07 0 43.06 S
0 48 255 rG
3380.05 2160.07 0 43.06 S
0 201 255 rG
3433.87 2160.07 0 43.06 S
255 0 r3
3487.69 2160.07 0 43.06 S
0 188 255 rG
3541.51 2160.07 0 43.06 S
0 201 255 rG
4025.91 2160.07 0 43.06 S
0 207 255 rG
4079.74 2160.07 0 43.06 S
0 158 255 rG
4133.56 2160.07 0 43.06 S
0 225 255 rG
4187.38 2160.07 0 43.06 S
219 255 0 rG
4241.2 2160.07 0 43.06 S
0 79 255 rG
2465.06 2106.25 0 43.06 S
0 182 255 rG
2518.89 2106.25 0 43.06 S
255 226 0 rG
2572.71 2106.25 0 43.06 S
0 146 255 rG
2626.53 2106.25 0 43.06 S
0 237 255 rG
3380.05 2106.25 0 43.06 S
0 36 255 rG
3433.87 2106.25 0 43.06 S
0 188 255 rG
3487.69 2106.25 0 43.06 S
255 0 r3
3541.51 2106.25 0 43.06 S
0 201 255 rG
4079.74 2106.25 0 43.06 S
0 213 255 rG
4133.56 2106.25 0 43.06 S
0 146 255 rG
4187.38 2106.25 0 43.06 S
0 213 255 rG
4241.2 2106.25 0 43.06 S
0 12 255 rG
2680.35 2052.43 0 43.06 S
0 182 255 rG
2734.18 2052.43 0 43.06 S
0 243 255 rG
2788 2052.43 0 43.06 S
0 182 255 rG
2841.82 2052.43 0 43.06 S
0 201 255 rG
2895.64 2052.43 0 43.06 S
2949.47 2052.43 0 43.06 S
255 0 r3
3595.34 2052.43 0 43.06 S
255 244 0 rG
3649.16 2052.43 0 43.06 S
0 140 255 rG
3702.98 2052.43 0 43.06 S
0 207 255 rG
3756.8 2052.43 0 43.06 S
0 195 255 rG
4295.03 2052.43 0 43.06 S
4348.85 2052.43 0 43.06 S
0 91 255 rG
2680.35 1998.6 0 43.06 S
0 24 255 rG
2734.18 1998.6 0 43.06 S
0 231 255 rG
2788 1998.6 0 43.06 S
0 243 255 rG
2841.82 1998.6 0 43.06 S
0 170 255 rG
2895.64 1998.6 0 43.06 S
0 207 255 rG
2949.47 1998.6 0 43.06 S
0 201 255 rG
3003.29 1998.6 0 43.06 S
255 244 0 rG
3595.34 1998.6 0 43.06 S
255 0 r3
3649.16 1998.6 0 43.06 S
109 255 0 rG
3702.98 1998.6 0 43.06 S
0 115 255 rG
3756.8 1998.6 0 43.06 S
0 213 255 rG
3810.62 1998.6 0 43.06 S
0 201 255 rG
4295.03 1998.6 0 43.06 S
0 195 255 rG
4348.85 1998.6 0 43.06 S
4402.67 1998.6 0 43.06 S
0 79 255 rG
2734.18 1944.78 0 43.06 S
0 48 255 rG
2788 1944.78 0 43.06 S
0 255 146 rG
2841.82 1944.78 0 43.06 S
0 237 255 rG
2895.64 1944.78 0 43.06 S
0 158 255 rG
2949.47 1944.78 0 43.06 S
0 213 255 rG
3003.29 1944.78 0 43.06 S
0 201 255 rG
3057.11 1944.78 0 43.06 S
0 140 255 rG
3595.34 1944.78 0 43.06 S
109 255 0 rG
3649.16 1944.78 0 43.06 S
255 0 r3
3702.98 1944.78 0 43.06 S
0 255 36 rG
3756.8 1944.78 0 43.06 S
0 97 255 rG
3810.62 1944.78 0 43.06 S
0 219 255 rG
3864.45 1944.78 0 43.06 S
0 201 255 rG
4295.03 1944.78 0 43.06 S
4348.85 1944.78 0 43.06 S
0 195 255 rG
4402.67 1944.78 0 43.06 S
4456.49 1944.78 0 43.06 S
0 73 255 rG
2788 1890.96 0 43.06 S
2841.82 1890.96 0 43.06 S
73 255 0 rG
2895.64 1890.96 0 43.06 S
0 225 255 rG
2949.47 1890.96 0 43.06 S
0 152 255 rG
3003.29 1890.96 0 43.06 S
0 219 255 rG
3057.11 1890.96 0 43.06 S
0 195 255 rG
3110.93 1890.96 0 43.06 S
0 207 255 rG
3595.34 1890.96 0 43.06 S
0 115 255 rG
3649.16 1890.96 0 43.06 S
0 255 36 rG
3702.98 1890.96 0 43.06 S
255 0 r3
3756.8 1890.96 0 43.06 S
0 255 219 rG
3810.62 1890.96 0 43.06 S
0 79 255 rG
3864.45 1890.96 0 43.06 S
0 225 255 rG
3918.27 1890.96 0 43.06 S
0 201 255 rG
4295.03 1890.96 0 43.06 S
4348.85 1890.96 0 43.06 S
4402.67 1890.96 0 43.06 S
0 195 255 rG
4456.49 1890.96 0 43.06 S
4510.32 1890.96 0 43.06 S
0 67 255 rG
2841.82 1837.14 0 43.06 S
0 97 255 rG
2895.64 1837.14 0 43.06 S
219 255 0 rG
2949.47 1837.14 0 43.06 S
0 213 255 rG
3003.29 1837.14 0 43.06 S
0 146 255 rG
3057.11 1837.14 0 43.06 S
0 225 255 rG
3110.93 1837.14 0 43.06 S
0 213 255 rG
3649.16 1837.14 0 43.06 S
0 97 255 rG
3702.98 1837.14 0 43.06 S
0 255 219 rG
3756.8 1837.14 0 43.06 S
255 0 r3
3810.62 1837.14 0 43.06 S
0 243 255 rG
3864.45 1837.14 0 43.06 S
0 60 255 rG
3918.27 1837.14 0 43.06 S
0 201 255 rG
4295.03 1837.14 0 43.06 S
4348.85 1837.14 0 43.06 S
4402.67 1837.14 0 43.06 S
4456.49 1837.14 0 43.06 S
0 195 255 rG
4510.32 1837.14 0 43.06 S
0 67 255 rG
2895.64 1783.31 0 43.06 S
0 121 255 rG
2949.47 1783.31 0 43.06 S
255 244 0 rG
3003.29 1783.31 0 43.06 S
0 195 255 rG
3057.11 1783.31 0 43.06 S
0 140 255 rG
3110.93 1783.31 0 43.06 S
0 219 255 rG
3702.98 1783.31 0 43.06 S
0 79 255 rG
3756.8 1783.31 0 43.06 S
0 243 255 rG
3810.62 1783.31 0 43.06 S
255 0 r3
3864.45 1783.31 0 43.06 S
0 225 255 rG
3918.27 1783.31 0 43.06 S
0 201 255 rG
4295.03 1783.31 0 43.06 S
4348.85 1783.31 0 43.06 S
4402.67 1783.31 0 43.06 S
4456.49 1783.31 0 43.06 S
4510.32 1783.31 0 43.06 S
0 67 255 rG
2949.47 1729.49 0 43.06 S
0 140 255 rG
3003.29 1729.49 0 43.06 S
255 238 0 rG
3057.11 1729.49 0 43.06 S
0 182 255 rG
3110.93 1729.49 0 43.06 S
0 225 255 rG
3756.8 1729.49 0 43.06 S
0 60 255 rG
3810.62 1729.49 0 43.06 S
0 225 255 rG
3864.45 1729.49 0 43.06 S
255 0 r3
3918.27 1729.49 0 43.06 S
0 201 255 rG
4348.85 1729.49 0 43.06 S
4402.67 1729.49 0 43.06 S
4456.49 1729.49 0 43.06 S
4510.32 1729.49 0 43.06 S
0 12 255 rG
3164.76 1675.67 0 43.06 S
0 170 255 rG
3218.58 1675.67 0 43.06 S
0 243 255 rG
3272.4 1675.67 0 43.06 S
0 182 255 rG
3326.22 1675.67 0 43.06 S
0 201 255 rG
3380.05 1675.67 0 43.06 S
3433.87 1675.67 0 43.06 S
255 0 r3
3972.09 1675.67 0 43.06 S
255 238 0 rG
4025.91 1675.67 0 43.06 S
0 152 255 rG
4079.74 1675.67 0 43.06 S
0 207 255 rG
4133.56 1675.67 0 43.06 S
0 195 255 rG
4564.14 1675.67 0 43.06 S
4617.96 1675.67 0 43.06 S
0 91 255 rG
3164.76 1621.85 0 43.06 S
0 18 255 rG
3218.58 1621.85 0 43.06 S
0 213 255 rG
3272.4 1621.85 0 43.06 S
0 243 255 rG
3326.22 1621.85 0 43.06 S
0 176 255 rG
3380.05 1621.85 0 43.06 S
0 207 255 rG
3433.87 1621.85 0 43.06 S
0 201 255 rG
3487.69 1621.85 0 43.06 S
255 238 0 rG
3972.09 1621.85 0 43.06 S
255 0 r3
4025.91 1621.85 0 43.06 S
182 255 0 rG
4079.74 1621.85 0 43.06 S
0 127 255 rG
4133.56 1621.85 0 43.06 S
0 207 255 rG
4187.38 1621.85 0 43.06 S
0 201 255 rG
4564.14 1621.85 0 43.06 S
0 195 255 rG
4617.96 1621.85 0 43.06 S
4671.78 1621.85 0 43.06 S
0 79 255 rG
3218.58 1568.03 0 43.06 S
0 36 255 rG
3272.4 1568.03 0 43.06 S
0 255 r3
3326.22 1568.03 0 43.06 S
0 243 255 rG
3380.05 1568.03 0 43.06 S
0 164 255 rG
3433.87 1568.03 0 43.06 S
0 207 255 rG
3487.69 1568.03 0 43.06 S
0 201 255 rG
3541.51 1568.03 0 43.06 S
0 152 255 rG
3972.09 1568.03 0 43.06 S
182 255 0 rG
4025.91 1568.03 0 43.06 S
255 0 r3
4079.74 1568.03 0 43.06 S
36 255 0 rG
4133.56 1568.03 0 43.06 S
0 103 255 rG
4187.38 1568.03 0 43.06 S
0 213 255 rG
4241.2 1568.03 0 43.06 S
0 201 255 rG
4564.14 1568.03 0 43.06 S
4617.96 1568.03 0 43.06 S
0 195 255 rG
4671.78 1568.03 0 43.06 S
4725.61 1568.03 0 43.06 S
0 73 255 rG
3272.4 1514.2 0 43.06 S
0 54 255 rG
3326.22 1514.2 0 43.06 S
0 255 73 rG
3380.05 1514.2 0 43.06 S
0 237 255 rG
3433.87 1514.2 0 43.06 S
0 158 255 rG
3487.69 1514.2 0 43.06 S
0 213 255 rG
3541.51 1514.2 0 43.06 S
0 207 255 rG
3972.09 1514.2 0 43.06 S
0 127 255 rG
4025.91 1514.2 0 43.06 S
36 255 0 rG
4079.74 1514.2 0 43.06 S
255 0 r3
4133.56 1514.2 0 43.06 S
0 255 109 rG
4187.38 1514.2 0 43.06 S
0 85 255 rG
4241.2 1514.2 0 43.06 S
0 201 255 rG
4564.14 1514.2 0 43.06 S
4617.96 1514.2 0 43.06 S
4671.78 1514.2 0 43.06 S
0 195 255 rG
4725.61 1514.2 0 43.06 S
0 67 255 rG
3326.22 1460.38 0 43.06 S
0 79 255 rG
3380.05 1460.38 0 43.06 S
109 255 0 rG
3433.87 1460.38 0 43.06 S
0 225 255 rG
3487.69 1460.38 0 43.06 S
0 146 255 rG
3541.51 1460.38 0 43.06 S
0 207 255 rG
4025.91 1460.38 0 43.06 S
0 103 255 rG
4079.74 1460.38 0 43.06 S
0 255 109 rG
4133.56 1460.38 0 43.06 S
255 0 r3
4187.38 1460.38 0 43.06 S
0 255 r3
4241.2 1460.38 0 43.06 S
0 201 255 rG
4564.14 1460.38 0 43.06 S
4617.96 1460.38 0 43.06 S
4671.78 1460.38 0 43.06 S
4725.61 1460.38 0 43.06 S
0 67 255 rG
3380.05 1406.56 0 43.06 S
0 97 255 rG
3433.87 1406.56 0 43.06 S
219 255 0 rG
3487.69 1406.56 0 43.06 S
0 213 255 rG
3541.51 1406.56 0 43.06 S
4079.74 1406.56 0 43.06 S
0 85 255 rG
4133.56 1406.56 0 43.06 S
0 255 r3
4187.38 1406.56 0 43.06 S
255 0 r3
4241.2 1406.56 0 43.06 S
0 201 255 rG
4564.14 1406.56 0 43.06 S
4617.96 1406.56 0 43.06 S
4671.78 1406.56 0 43.06 S
4725.61 1406.56 0 43.06 S
0 195 255 rG
3595.34 1352.74 0 43.06 S
0 201 255 rG
3649.16 1352.74 0 43.06 S
3702.98 1352.74 0 43.06 S
3756.8 1352.74 0 43.06 S
3810.62 1352.74 0 43.06 S
3864.45 1352.74 0 43.06 S
4295.03 1352.74 0 43.06 S
4348.85 1352.74 0 43.06 S
4402.67 1352.74 0 43.06 S
4456.49 1352.74 0 43.06 S
4779.43 1352.74 0 43.06 S
4833.25 1352.74 0 43.06 S
0 195 255 rG
3595.34 1298.91 0 43.06 S
3649.16 1298.91 0 43.06 S
0 201 255 rG
3702.98 1298.91 0 43.06 S
3756.8 1298.91 0 43.06 S
3810.62 1298.91 0 43.06 S
3864.45 1298.91 0 43.06 S
3918.27 1298.91 0 43.06 S
4295.03 1298.91 0 43.06 S
4348.85 1298.91 0 43.06 S
4402.67 1298.91 0 43.06 S
4456.49 1298.91 0 43.06 S
4510.32 1298.91 0 43.06 S
4779.43 1298.91 0 43.06 S
4833.25 1298.91 0 43.06 S
4887.07 1298.91 0 43.06 S
0 195 255 rG
3649.16 1245.09 0 43.06 S
3702.98 1245.09 0 43.06 S
0 201 255 rG
3756.8 1245.09 0 43.06 S
3810.62 1245.09 0 43.06 S
3864.45 1245.09 0 43.06 S
3918.27 1245.09 0 43.06 S
4295.03 1245.09 0 43.06 S
4348.85 1245.09 0 43.06 S
4402.67 1245.09 0 43.06 S
4456.49 1245.09 0 43.06 S
4510.32 1245.09 0 43.06 S
4779.43 1245.09 0 43.06 S
4833.25 1245.09 0 43.06 S
4887.07 1245.09 0 43.06 S
0 195 255 rG
3702.98 1191.27 0 43.06 S
3756.8 1191.27 0 43.06 S
0 201 255 rG
3810.62 1191.27 0 43.06 S
3864.45 1191.27 0 43.06 S
3918.27 1191.27 0 43.06 S
4295.03 1191.27 0 43.06 S
4348.85 1191.27 0 43.06 S
4402.67 1191.27 0 43.06 S
4456.49 1191.27 0 43.06 S
4510.32 1191.27 0 43.06 S
4779.43 1191.27 0 43.06 S
4833.25 1191.27 0 43.06 S
4887.07 1191.27 0 43.06 S
0 195 255 rG
3756.8 1137.45 0 43.06 S
3810.62 1137.45 0 43.06 S
0 201 255 rG
3864.45 1137.45 0 43.06 S
3918.27 1137.45 0 43.06 S
4348.85 1137.45 0 43.06 S
4402.67 1137.45 0 43.06 S
4456.49 1137.45 0 43.06 S
4510.32 1137.45 0 43.06 S
4779.43 1137.45 0 43.06 S
4833.25 1137.45 0 43.06 S
4887.07 1137.45 0 43.06 S
0 195 255 rG
3972.09 1083.62 0 43.06 S
0 201 255 rG
4025.91 1083.62 0 43.06 S
4079.74 1083.62 0 43.06 S
4133.56 1083.62 0 43.06 S
4187.38 1083.62 0 43.06 S
4241.2 1083.62 0 43.06 S
4564.14 1083.62 0 43.06 S
4617.96 1083.62 0 43.06 S
4671.78 1083.62 0 43.06 S
4725.61 1083.62 0 43.06 S
4940.89 1083.62 0 43.06 S
4994.72 1083.62 0 43.06 S
0 195 255 rG
3972.09 1029.8 0 43.06 S
4025.91 1029.8 0 43.06 S
0 201 255 rG
4079.74 1029.8 0 43.06 S
4133.56 1029.8 0 43.06 S
4187.38 1029.8 0 43.06 S
4241.2 1029.8 0 43.06 S
4564.14 1029.8 0 43.06 S
4617.96 1029.8 0 43.06 S
4671.78 1029.8 0 43.06 S
4725.61 1029.8 0 43.06 S
4940.89 1029.8 0 43.06 S
4994.72 1029.8 0 43.06 S
0 195 255 rG
4025.91 975.98 0 43.06 S
4079.74 975.98 0 43.06 S
0 201 255 rG
4133.56 975.98 0 43.06 S
4187.38 975.98 0 43.06 S
4241.2 975.98 0 43.06 S
4564.14 975.98 0 43.06 S
4617.96 975.98 0 43.06 S
4671.78 975.98 0 43.06 S
4725.61 975.98 0 43.06 S
4940.89 975.98 0 43.06 S
4994.72 975.98 0 43.06 S
0 195 255 rG
4079.74 922.16 0 43.06 S
4133.56 922.16 0 43.06 S
0 201 255 rG
4187.38 922.16 0 43.06 S
4241.2 922.16 0 43.06 S
4564.14 922.16 0 43.06 S
4617.96 922.16 0 43.06 S
4671.78 922.16 0 43.06 S
4725.61 922.16 0 43.06 S
4940.89 922.16 0 43.06 S
4994.72 922.16 0 43.06 S
4295.03 868.33 0 43.06 S
4348.85 868.33 0 43.06 S
4402.67 868.33 0 43.06 S
4456.49 868.33 0 43.06 S
4510.32 868.33 0 43.06 S
4779.43 868.33 0 43.06 S
4833.25 868.33 0 43.06 S
4887.07 868.33 0 43.06 S
5048.54 868.33 0 43.06 S
4295.03 814.51 0 43.06 S
4348.85 814.51 0 43.06 S
4402.67 814.51 0 43.06 S
4456.49 814.51 0 43.06 S
4510.32 814.51 0 43.06 S
4779.43 814.51 0 43.06 S
4833.25 814.51 0 43.06 S
4887.07 814.51 0 43.06 S
5048.54 814.51 0 43.06 S
4348.85 760.69 0 43.06 S
4402.67 760.69 0 43.06 S
4456.49 760.69 0 43.06 S
4510.32 760.69 0 43.06 S
4779.43 760.69 0 43.06 S
4833.25 760.69 0 43.06 S
4887.07 760.69 0 43.06 S
5048.54 760.69 0 43.06 S
4564.14 706.87 0 43.06 S
4617.96 706.87 0 43.06 S
4671.78 706.87 0 43.06 S
4725.61 706.87 0 43.06 S
4940.89 706.87 0 43.06 S
4994.72 706.87 0 43.06 S
4564.14 653.04 0 43.06 S
4617.96 653.04 0 43.06 S
4671.78 653.04 0 43.06 S
4725.61 653.04 0 43.06 S
4940.89 653.04 0 43.06 S
4994.72 653.04 0 43.06 S
4779.43 599.22 0 43.06 S
4833.25 599.22 0 43.06 S
4887.07 599.22 0 43.06 S
5048.54 599.22 0 43.06 S
cleartomark end end pagesave restore showpage
%%PageTrailer
%%Trailer
%%Pages: 1
%%EOF
