#FIG 3.2
Landscape
Center
Metric
A4      
100.00
Single
-2
1200 2
2 3 0 1 0 7 50 0 -1 0.000 0 0 -1 0 0 4
	 900 1350 900 3150 2475 3150 900 1350
2 1 0 1 0 7 50 0 -1 0.000 0 0 -1 1 0 2
	2 1 1.00 60.00 120.00
	 2430 3150 3195 3150
2 1 0 1 0 7 50 0 -1 0.000 0 0 -1 1 0 2
	2 1 1.00 60.00 120.00
	 900 1575 900 720
2 1 0 1 0 7 50 0 -1 0.000 0 0 -1 0 0 1
	 900 720
2 2 0 1 0 7 50 0 -1 0.000 0 0 -1 0 0 5
	 4500 1350 6300 1350 6300 3150 4500 3150 4500 1350
2 1 0 1 0 7 50 0 -1 0.000 0 0 -1 1 0 2
	2 1 1.00 60.00 120.00
	 4050 2250 6975 2250
2 1 0 1 0 7 50 0 -1 0.000 0 0 -1 1 0 2
	2 1 1.00 60.00 120.00
	 5400 3600 5400 720
3 0 0 1 0 7 50 0 -1 0.000 0 1 0 5
	2 1 1.00 60.00 120.00
	 1800 1800 2295 1530 2925 1395 3510 1530 4050 1710
	 0.000 1.000 1.000 1.000 0.000
4 0 0 50 0 0 12 0.0000 6 195 645 6660 2520 $\\eta_1$\001
4 0 0 50 0 0 12 0.0000 6 165 330 5445 3330 $-1$\001
4 0 0 50 0 0 12 0.0000 6 165 270 5445 1530 $1$\001
4 0 0 50 0 0 12 0.0000 6 195 780 5760 1800 $\\hat{Q}$\001
4 0 0 50 0 0 12 0.0000 6 195 780 1125 2520 $\\hat{K}$\001
4 0 0 50 0 0 12 0.0000 6 195 540 1080 1170 $\\xi_2$\001
4 0 0 50 0 0 12 0.0000 6 165 270 630 1440 $1$\001
4 0 0 50 0 0 12 0.0000 6 165 270 2475 3420 $1$\001
4 0 0 50 0 0 12 0.0000 6 165 270 855 3375 $0$\001
4 0 0 50 0 0 12 0.0000 6 195 540 2880 3420 $\\xi_1$\001
4 0 0 50 0 0 12 0.0000 6 165 270 6120 2475 $1$\001
4 0 0 50 0 0 12 0.0000 6 195 645 5490 1035 $\\eta_2$\001
4 0 0 50 0 0 12 0.0000 6 165 330 4545 2475 $-1$\001
4 0 0 50 0 0 12 0.0000 6 165 270 5445 2475 $0$\001
4 0 0 50 0 0 12 0.0000 6 165 315 2385 1260 $G$\001
